M48
; DRILL file {KiCad (6.0.7)} date Fri 16 Dec 2022 01:30:20 PM EST
; FORMAT={-:-/ absolute / inch / decimal}
; #@! TF.CreationDate,2022-12-16T13:30:20-05:00
; #@! TF.GenerationSoftware,Kicad,Pcbnew,(6.0.7)
; #@! TF.FileFunction,Plated,1,2,PTH
FMAT,2
INCH
; #@! TA.AperFunction,Plated,PTH,ComponentDrill
T1C0.0236
; #@! TA.AperFunction,Plated,PTH,ComponentDrill
T2C0.0256
; #@! TA.AperFunction,Plated,PTH,ComponentDrill
T3C0.0394
%
G90
G05
T1
X2.3898Y-2.5984
X2.3898Y-2.6772
X2.3898Y-2.7559
X2.3898Y-2.8346
X2.3898Y-2.9134
X2.3898Y-2.9921
X2.3898Y-3.0709
X2.3898Y-3.1496
X2.3898Y-3.2283
X2.3898Y-3.3071
X2.5984Y-2.3898
X2.5984Y-3.5157
X2.6772Y-2.3898
X2.6772Y-3.5157
X2.7559Y-2.3898
X2.7559Y-3.5157
X2.8346Y-2.3898
X2.8346Y-3.5157
X2.9134Y-2.3898
X2.9134Y-3.5157
X2.9921Y-2.3898
X2.9921Y-3.5157
X3.0709Y-2.3898
X3.0709Y-3.5157
X3.1496Y-2.3898
X3.1496Y-3.5157
X3.2283Y-2.3898
X3.2283Y-3.5157
X3.3071Y-2.3898
X3.3071Y-3.5157
X3.5157Y-2.5984
X3.5157Y-2.6772
X3.5157Y-2.7559
X3.5157Y-2.8346
X3.5157Y-2.9134
X3.5157Y-2.9921
X3.5157Y-3.0709
X3.5157Y-3.1496
X3.5157Y-3.2283
X3.5157Y-3.3071
T3
X2.1812Y-2.503
X2.1812Y-2.603
X2.1812Y-2.703
X2.1812Y-2.803
X2.1812Y-2.903
X2.1812Y-3.003
X2.1812Y-3.103
X2.1812Y-3.203
X2.1812Y-3.303
X2.1812Y-3.403
X2.5026Y-2.1882
X2.5069Y-3.7187
X2.6026Y-2.1882
X2.6069Y-3.7187
X2.7026Y-2.1882
X2.7069Y-3.7187
X2.8026Y-2.1882
X2.8069Y-3.7187
X2.9026Y-2.1882
X2.9069Y-3.7187
X3.0026Y-2.1882
X3.0069Y-3.7187
X3.1026Y-2.1882
X3.1069Y-3.7187
X3.2026Y-2.1882
X3.2069Y-3.7187
X3.3026Y-2.1882
X3.3069Y-3.7187
X3.4026Y-2.1882
X3.4069Y-3.7187
X3.7153Y-2.5065
X3.7153Y-2.6065
X3.7153Y-2.7065
X3.7153Y-2.8065
X3.7153Y-2.9065
X3.7153Y-3.0065
X3.7153Y-3.1065
X3.7153Y-3.2065
X3.7153Y-3.3065
X3.7153Y-3.4065
T2
G00X2.4301Y-2.5984
M15
G01X2.4715Y-2.5984
M16
G05
G00X2.4301Y-2.6772
M15
G01X2.4715Y-2.6772
M16
G05
G00X2.4301Y-2.7559
M15
G01X2.4715Y-2.7559
M16
G05
G00X2.4301Y-2.8346
M15
G01X2.4715Y-2.8346
M16
G05
G00X2.4301Y-2.9134
M15
G01X2.4715Y-2.9134
M16
G05
G00X2.4301Y-2.9921
M15
G01X2.4715Y-2.9921
M16
G05
G00X2.4301Y-3.0709
M15
G01X2.4715Y-3.0709
M16
G05
G00X2.4301Y-3.1496
M15
G01X2.4715Y-3.1496
M16
G05
G00X2.4301Y-3.2283
M15
G01X2.4715Y-3.2283
M16
G05
G00X2.4301Y-3.3071
M15
G01X2.4715Y-3.3071
M16
G05
G00X2.5984Y-2.4301
M15
G01X2.5984Y-2.4715
M16
G05
G00X2.5984Y-3.4754
M15
G01X2.5984Y-3.4341
M16
G05
G00X2.6772Y-2.4301
M15
G01X2.6772Y-2.4715
M16
G05
G00X2.6772Y-3.4754
M15
G01X2.6772Y-3.4341
M16
G05
G00X2.7559Y-2.4301
M15
G01X2.7559Y-2.4715
M16
G05
G00X2.7559Y-3.4754
M15
G01X2.7559Y-3.4341
M16
G05
G00X2.8346Y-2.4301
M15
G01X2.8346Y-2.4715
M16
G05
G00X2.8346Y-3.4754
M15
G01X2.8346Y-3.4341
M16
G05
G00X2.9134Y-2.4301
M15
G01X2.9134Y-2.4715
M16
G05
G00X2.9134Y-3.4754
M15
G01X2.9134Y-3.4341
M16
G05
G00X2.9921Y-2.4301
M15
G01X2.9921Y-2.4715
M16
G05
G00X2.9921Y-3.4754
M15
G01X2.9921Y-3.4341
M16
G05
G00X3.0709Y-2.4301
M15
G01X3.0709Y-2.4715
M16
G05
G00X3.0709Y-3.4754
M15
G01X3.0709Y-3.4341
M16
G05
G00X3.1496Y-2.4301
M15
G01X3.1496Y-2.4715
M16
G05
G00X3.1496Y-3.4754
M15
G01X3.1496Y-3.4341
M16
G05
G00X3.2283Y-2.4301
M15
G01X3.2283Y-2.4715
M16
G05
G00X3.2283Y-3.4754
M15
G01X3.2283Y-3.4341
M16
G05
G00X3.3071Y-2.4301
M15
G01X3.3071Y-2.4715
M16
G05
G00X3.3071Y-3.4754
M15
G01X3.3071Y-3.4341
M16
G05
G00X3.4754Y-2.5984
M15
G01X3.4341Y-2.5984
M16
G05
G00X3.4754Y-2.6772
M15
G01X3.4341Y-2.6772
M16
G05
G00X3.4754Y-2.7559
M15
G01X3.4341Y-2.7559
M16
G05
G00X3.4754Y-2.8346
M15
G01X3.4341Y-2.8346
M16
G05
G00X3.4754Y-2.9134
M15
G01X3.4341Y-2.9134
M16
G05
G00X3.4754Y-2.9921
M15
G01X3.4341Y-2.9921
M16
G05
G00X3.4754Y-3.0709
M15
G01X3.4341Y-3.0709
M16
G05
G00X3.4754Y-3.1496
M15
G01X3.4341Y-3.1496
M16
G05
G00X3.4754Y-3.2283
M15
G01X3.4341Y-3.2283
M16
G05
G00X3.4754Y-3.3071
M15
G01X3.4341Y-3.3071
M16
G05
T0
M30
