(kicad_pcb (version 20211014) (generator pcbnew)

  (general
    (thickness 1.6)
  )

  (paper "A4")
  (layers
    (0 "F.Cu" signal)
    (31 "B.Cu" signal)
    (32 "B.Adhes" user "B.Adhesive")
    (33 "F.Adhes" user "F.Adhesive")
    (34 "B.Paste" user)
    (35 "F.Paste" user)
    (36 "B.SilkS" user "B.Silkscreen")
    (37 "F.SilkS" user "F.Silkscreen")
    (38 "B.Mask" user)
    (39 "F.Mask" user)
    (40 "Dwgs.User" user "User.Drawings")
    (41 "Cmts.User" user "User.Comments")
    (42 "Eco1.User" user "User.Eco1")
    (43 "Eco2.User" user "User.Eco2")
    (44 "Edge.Cuts" user)
    (45 "Margin" user)
    (46 "B.CrtYd" user "B.Courtyard")
    (47 "F.CrtYd" user "F.Courtyard")
    (48 "B.Fab" user)
    (49 "F.Fab" user)
    (50 "User.1" user)
    (51 "User.2" user)
    (52 "User.3" user)
    (53 "User.4" user)
    (54 "User.5" user)
    (55 "User.6" user)
    (56 "User.7" user)
    (57 "User.8" user)
    (58 "User.9" user)
  )

  (setup
    (stackup
      (layer "F.SilkS" (type "Top Silk Screen"))
      (layer "F.Paste" (type "Top Solder Paste"))
      (layer "F.Mask" (type "Top Solder Mask") (thickness 0.01))
      (layer "F.Cu" (type "copper") (thickness 0.035))
      (layer "dielectric 1" (type "core") (thickness 1.51) (material "FR4") (epsilon_r 4.5) (loss_tangent 0.02))
      (layer "B.Cu" (type "copper") (thickness 0.035))
      (layer "B.Mask" (type "Bottom Solder Mask") (thickness 0.01))
      (layer "B.Paste" (type "Bottom Solder Paste"))
      (layer "B.SilkS" (type "Bottom Silk Screen"))
      (copper_finish "None")
      (dielectric_constraints no)
    )
    (pad_to_mask_clearance 0)
    (pcbplotparams
      (layerselection 0x00010fc_ffffffff)
      (disableapertmacros false)
      (usegerberextensions false)
      (usegerberattributes true)
      (usegerberadvancedattributes true)
      (creategerberjobfile true)
      (svguseinch false)
      (svgprecision 6)
      (excludeedgelayer true)
      (plotframeref false)
      (viasonmask false)
      (mode 1)
      (useauxorigin false)
      (hpglpennumber 1)
      (hpglpenspeed 20)
      (hpglpendiameter 15.000000)
      (dxfpolygonmode true)
      (dxfimperialunits true)
      (dxfusepcbnewfont true)
      (psnegative false)
      (psa4output false)
      (plotreference true)
      (plotvalue true)
      (plotinvisibletext false)
      (sketchpadsonfab false)
      (subtractmaskfromsilk false)
      (outputformat 1)
      (mirror false)
      (drillshape 1)
      (scaleselection 1)
      (outputdirectory "")
    )
  )

  (net 0 "")
  (net 1 "Net-(J1-Pad1)")
  (net 2 "Net-(J1-Pad2)")
  (net 3 "Net-(J1-Pad3)")
  (net 4 "Net-(J1-Pad4)")
  (net 5 "Net-(J1-Pad5)")
  (net 6 "Net-(J1-Pad6)")
  (net 7 "Net-(J1-Pad7)")
  (net 8 "Net-(J1-Pad8)")
  (net 9 "Net-(J1-Pad9)")
  (net 10 "Net-(J1-Pad10)")
  (net 11 "Net-(J2-Pad1)")
  (net 12 "Net-(J2-Pad2)")
  (net 13 "Net-(J2-Pad3)")
  (net 14 "Net-(J2-Pad4)")
  (net 15 "Net-(J2-Pad5)")
  (net 16 "Net-(J2-Pad6)")
  (net 17 "Net-(J2-Pad7)")
  (net 18 "Net-(J2-Pad8)")
  (net 19 "Net-(J2-Pad9)")
  (net 20 "Net-(J2-Pad10)")
  (net 21 "Net-(J3-Pad1)")
  (net 22 "Net-(J3-Pad2)")
  (net 23 "Net-(J3-Pad3)")
  (net 24 "Net-(J3-Pad4)")
  (net 25 "Net-(J3-Pad5)")
  (net 26 "Net-(J3-Pad6)")
  (net 27 "Net-(J3-Pad7)")
  (net 28 "Net-(J3-Pad8)")
  (net 29 "Net-(J3-Pad9)")
  (net 30 "Net-(J3-Pad10)")
  (net 31 "Net-(J4-Pad1)")
  (net 32 "Net-(J4-Pad2)")
  (net 33 "Net-(J4-Pad3)")
  (net 34 "Net-(J4-Pad4)")
  (net 35 "Net-(J4-Pad5)")
  (net 36 "Net-(J4-Pad6)")
  (net 37 "Net-(J4-Pad7)")
  (net 38 "Net-(J4-Pad8)")
  (net 39 "Net-(J4-Pad9)")
  (net 40 "Net-(J4-Pad10)")

  (footprint "Connector_PinHeader_2.54mm:PinHeader_1x10_P2.54mm_Vertical" (layer "F.Cu")
    (tedit 59FED5CC) (tstamp 22d8e8d3-831a-4c32-95ba-41f57d8cc8c8)
    (at 111.76 106.68)
    (descr "Through hole straight pin header, 1x10, 2.54mm pitch, single row")
    (tags "Through hole pin header THT 1x10 2.54mm single row")
    (property "Sheetfile" "picofusion-shoe.kicad_sch")
    (property "Sheetname" "")
    (path "/759f3085-512c-40a6-a066-4ad3891a1534")
    (attr through_hole)
    (fp_text reference "J4" (at 0 -2.33) (layer "F.SilkS")
      (effects (font (size 1 1) (thickness 0.15)))
      (tstamp ea1d4c1a-6a79-4597-ac8e-166579058e2a)
    )
    (fp_text value "Conn_01x10" (at 0 25.19) (layer "F.Fab")
      (effects (font (size 1 1) (thickness 0.15)))
      (tstamp a8d5145c-84aa-40c3-8ec6-8e4872783d01)
    )
    (fp_text user "${REFERENCE}" (at 0 11.43 90) (layer "F.Fab")
      (effects (font (size 1 1) (thickness 0.15)))
      (tstamp c3124f9a-ec49-4acd-9a46-1ccc27e87e5c)
    )
    (fp_line (start -1.33 0) (end -1.33 -1.33) (layer "F.SilkS") (width 0.12) (tstamp 07df4f5c-ffd1-456b-9b6b-8ca9c6afc7ff))
    (fp_line (start -1.33 24.19) (end 1.33 24.19) (layer "F.SilkS") (width 0.12) (tstamp 1a0320db-09e8-4e02-81f6-863cbbfb24ab))
    (fp_line (start -1.33 -1.33) (end 0 -1.33) (layer "F.SilkS") (width 0.12) (tstamp 4998133e-4fab-444e-985f-ed38f2eb17db))
    (fp_line (start -1.33 1.27) (end -1.33 24.19) (layer "F.SilkS") (width 0.12) (tstamp 9fd7ce8d-af08-446c-bb41-b9ff8c6e9b66))
    (fp_line (start 1.33 1.27) (end 1.33 24.19) (layer "F.SilkS") (width 0.12) (tstamp c3951a5a-1beb-4195-b156-ae10b1df2a28))
    (fp_line (start -1.33 1.27) (end 1.33 1.27) (layer "F.SilkS") (width 0.12) (tstamp c722bcd4-6dcf-4f56-b010-edc01d9eb9da))
    (fp_line (start 1.8 -1.8) (end -1.8 -1.8) (layer "F.CrtYd") (width 0.05) (tstamp 1b42d4ec-7fcd-4b95-b015-25da06313ce5))
    (fp_line (start 1.8 24.65) (end 1.8 -1.8) (layer "F.CrtYd") (width 0.05) (tstamp 34a9f1c6-9926-46f4-8cfe-61c1eced1079))
    (fp_line (start -1.8 -1.8) (end -1.8 24.65) (layer "F.CrtYd") (width 0.05) (tstamp 4cf338fd-85ee-47f5-a245-126f889f9497))
    (fp_line (start -1.8 24.65) (end 1.8 24.65) (layer "F.CrtYd") (width 0.05) (tstamp a7498766-a097-4771-905b-9bdf3e5e0d87))
    (fp_line (start 1.27 24.13) (end -1.27 24.13) (layer "F.Fab") (width 0.1) (tstamp 30a14092-20b7-4d43-b649-55cc61ac870e))
    (fp_line (start -1.27 24.13) (end -1.27 -0.635) (layer "F.Fab") (width 0.1) (tstamp 3e0c28fc-12f1-41c5-93f7-a4e41aab0b17))
    (fp_line (start -1.27 -0.635) (end -0.635 -1.27) (layer "F.Fab") (width 0.1) (tstamp a4e22040-51db-48fc-a03d-4fa0e35388ce))
    (fp_line (start -0.635 -1.27) (end 1.27 -1.27) (layer "F.Fab") (width 0.1) (tstamp b69c5914-c1db-4bc2-97a2-1cb0a5ae2fca))
    (fp_line (start 1.27 -1.27) (end 1.27 24.13) (layer "F.Fab") (width 0.1) (tstamp b869adc6-e2b0-41f5-a76e-54a4af732f90))
    (pad "1" thru_hole rect (at 0 0) (size 1.7 1.7) (drill 1) (layers *.Cu *.Mask)
      (net 31 "Net-(J4-Pad1)") (pinfunction "Pin_1") (pintype "passive") (tstamp bcca7365-9915-45a8-815e-9318f63c0e82))
    (pad "2" thru_hole oval (at 0 2.54) (size 1.7 1.7) (drill 1) (layers *.Cu *.Mask)
      (net 32 "Net-(J4-Pad2)") (pinfunction "Pin_2") (pintype "passive") (tstamp e0b3dfb5-29c2-40f5-bbe9-3b8a62b4b2ba))
    (pad "3" thru_hole oval (at 0 5.08) (size 1.7 1.7) (drill 1) (layers *.Cu *.Mask)
      (net 33 "Net-(J4-Pad3)") (pinfunction "Pin_3") (pintype "passive") (tstamp 99c61ee9-9814-4c8e-9198-2c9c6a477489))
    (pad "4" thru_hole oval (at 0 7.62) (size 1.7 1.7) (drill 1) (layers *.Cu *.Mask)
      (net 34 "Net-(J4-Pad4)") (pinfunction "Pin_4") (pintype "passive") (tstamp 14994739-f787-4312-9262-b2b801930499))
    (pad "5" thru_hole oval (at 0 10.16) (size 1.7 1.7) (drill 1) (layers *.Cu *.Mask)
      (net 35 "Net-(J4-Pad5)") (pinfunction "Pin_5") (pintype "passive") (tstamp 9098a4d3-2563-4061-86de-4d0cf6915598))
    (pad "6" thru_hole oval (at 0 12.7) (size 1.7 1.7) (drill 1) (layers *.Cu *.Mask)
      (net 36 "Net-(J4-Pad6)") (pinfunction "Pin_6") (pintype "passive") (tstamp 79cc5f5e-2c09-43a8-90df-bad1d751cb5f))
    (pad "7" thru_hole oval (at 0 15.24) (size 1.7 1.7) (drill 1) (layers *.Cu *.Mask)
      (net 37 "Net-(J4-Pad7)") (pinfunction "Pin_7") (pintype "passive") (tstamp c10e343f-36f2-4221-9f56-b355a6cefe14))
    (pad "8" thru_hole oval (at 0 17.78) (size 1.7 1.7) (drill 1) (layers *.Cu *.Mask)
      (net 38 "Net-(J4-Pad8)") (pinfunction "Pin_8") (pintype "passive") (tstamp d2c93437-8c03-4a29-896c-cdbdcf568225))
    (pad "9" thru_hole oval (at 0 20.32) (size 1.7 1.7) (drill 1) (layers *.Cu *.Mask)
      (net 39 "Net-(J4-Pad9)") (pinfunction "Pin_9") (pintype "passive") (tstamp 90b60e05-09a7-415c-88c9-7214652b21df))
    (pad "10" thru_hole oval (at 0 22.86) (size 1.7 1.7) (drill 1) (layers *.Cu *.Mask)
      (net 40 "Net-(J4-Pad10)") (pinfunction "Pin_10") (pintype "passive") (tstamp 655cdb88-a426-4c5b-9d4c-882cf1e1ad35))
    (model "${KICAD6_3DMODEL_DIR}/Connector_PinHeader_2.54mm.3dshapes/PinHeader_1x10_P2.54mm_Vertical.wrl"
      (offset (xyz 0 0 0))
      (scale (xyz 1 1 1))
      (rotate (xyz 0 0 0))
    )
  )

  (footprint "Connector_PinHeader_2.54mm:PinHeader_1x10_P2.54mm_Vertical" (layer "F.Cu")
    (tedit 59FED5CC) (tstamp 2a2dd38f-5c85-4aa8-a467-b7a8033d7853)
    (at 162.641931 104.14 180)
    (descr "Through hole straight pin header, 1x10, 2.54mm pitch, single row")
    (tags "Through hole pin header THT 1x10 2.54mm single row")
    (property "Sheetfile" "picofusion-shoe.kicad_sch")
    (property "Sheetname" "")
    (path "/85bf60dc-a80a-4661-b474-2cb990bb1f52")
    (attr through_hole)
    (fp_text reference "J1" (at 0 -2.33) (layer "F.SilkS")
      (effects (font (size 1 1) (thickness 0.15)))
      (tstamp 8c86fa70-a93b-4aa8-bb27-f09ea98c740b)
    )
    (fp_text value "Conn_01x10" (at 0 25.19) (layer "F.Fab")
      (effects (font (size 1 1) (thickness 0.15)))
      (tstamp bbcd5e03-70f0-45ed-ad7b-724bf3d0a3ff)
    )
    (fp_text user "${REFERENCE}" (at 0 11.43 90) (layer "F.Fab")
      (effects (font (size 1 1) (thickness 0.15)))
      (tstamp 5976db64-35d3-4f4e-ad92-466186439f6f)
    )
    (fp_line (start -1.33 1.27) (end 1.33 1.27) (layer "F.SilkS") (width 0.12) (tstamp 446e26d2-759d-4eed-b2da-7502b0ed2d95))
    (fp_line (start -1.33 24.19) (end 1.33 24.19) (layer "F.SilkS") (width 0.12) (tstamp 45142612-cc58-48cb-891f-45b927bd76ab))
    (fp_line (start 1.33 1.27) (end 1.33 24.19) (layer "F.SilkS") (width 0.12) (tstamp 6643d6bd-89ce-4c52-8e3b-ab6ad30a016a))
    (fp_line (start -1.33 -1.33) (end 0 -1.33) (layer "F.SilkS") (width 0.12) (tstamp 6686dabc-c319-4e37-bf60-0d9638c4ba85))
    (fp_line (start -1.33 0) (end -1.33 -1.33) (layer "F.SilkS") (width 0.12) (tstamp ae317b2b-54cb-4028-87f6-ec51643002a4))
    (fp_line (start -1.33 1.27) (end -1.33 24.19) (layer "F.SilkS") (width 0.12) (tstamp e513f781-c417-4d55-8bed-e4504b8c7527))
    (fp_line (start 1.8 24.65) (end 1.8 -1.8) (layer "F.CrtYd") (width 0.05) (tstamp 3c43991c-5fae-4c5b-8edc-1c040c23edcc))
    (fp_line (start -1.8 -1.8) (end -1.8 24.65) (layer "F.CrtYd") (width 0.05) (tstamp da97e69b-16e5-4715-b29f-22a0f08d6535))
    (fp_line (start 1.8 -1.8) (end -1.8 -1.8) (layer "F.CrtYd") (width 0.05) (tstamp df08ebff-21ec-410a-afe9-daf614a29b65))
    (fp_line (start -1.8 24.65) (end 1.8 24.65) (layer "F.CrtYd") (width 0.05) (tstamp e17ee223-5461-4951-9354-fe267cd4fdfe))
    (fp_line (start -0.635 -1.27) (end 1.27 -1.27) (layer "F.Fab") (width 0.1) (tstamp 2c599204-cf46-43c6-8abf-cd870bb7702e))
    (fp_line (start 1.27 -1.27) (end 1.27 24.13) (layer "F.Fab") (width 0.1) (tstamp 708e2d1d-889a-4936-9cb5-b6a322b9ebc1))
    (fp_line (start 1.27 24.13) (end -1.27 24.13) (layer "F.Fab") (width 0.1) (tstamp 744d2860-43c6-4014-ad2e-19bbe06814b2))
    (fp_line (start -1.27 24.13) (end -1.27 -0.635) (layer "F.Fab") (width 0.1) (tstamp e766bdfa-661f-4329-92fd-2f8108be571b))
    (fp_line (start -1.27 -0.635) (end -0.635 -1.27) (layer "F.Fab") (width 0.1) (tstamp e90b92eb-b21f-4854-a830-a7345118b57c))
    (pad "1" thru_hole rect (at 0 0 180) (size 1.7 1.7) (drill 1) (layers *.Cu *.Mask)
      (net 1 "Net-(J1-Pad1)") (pinfunction "Pin_1") (pintype "passive") (tstamp 7b2368b3-5bd2-453f-8af6-d3b955580aaa))
    (pad "2" thru_hole oval (at 0 2.54 180) (size 1.7 1.7) (drill 1) (layers *.Cu *.Mask)
      (net 2 "Net-(J1-Pad2)") (pinfunction "Pin_2") (pintype "passive") (tstamp 1f1642a7-bac2-4704-927c-6fcac140d678))
    (pad "3" thru_hole oval (at 0 5.08 180) (size 1.7 1.7) (drill 1) (layers *.Cu *.Mask)
      (net 3 "Net-(J1-Pad3)") (pinfunction "Pin_3") (pintype "passive") (tstamp 69fb07ec-453f-4b1d-a033-d1da3b99f5e3))
    (pad "4" thru_hole oval (at 0 7.62 180) (size 1.7 1.7) (drill 1) (layers *.Cu *.Mask)
      (net 4 "Net-(J1-Pad4)") (pinfunction "Pin_4") (pintype "passive") (tstamp b5cdd02b-871d-4b7a-a3c9-a4acb6c0583e))
    (pad "5" thru_hole oval (at 0 10.16 180) (size 1.7 1.7) (drill 1) (layers *.Cu *.Mask)
      (net 5 "Net-(J1-Pad5)") (pinfunction "Pin_5") (pintype "passive") (tstamp 900a9d18-5aec-4abb-abc7-520877986e2c))
    (pad "6" thru_hole oval (at 0 12.7 180) (size 1.7 1.7) (drill 1) (layers *.Cu *.Mask)
      (net 6 "Net-(J1-Pad6)") (pinfunction "Pin_6") (pintype "passive") (tstamp be8fee6f-d424-4206-9964-184c2368058e))
    (pad "7" thru_hole oval (at 0 15.24 180) (size 1.7 1.7) (drill 1) (layers *.Cu *.Mask)
      (net 7 "Net-(J1-Pad7)") (pinfunction "Pin_7") (pintype "passive") (tstamp 5b5114f1-6956-4559-b550-8e1fd30e999c))
    (pad "8" thru_hole oval (at 0 17.78 180) (size 1.7 1.7) (drill 1) (layers *.Cu *.Mask)
      (net 8 "Net-(J1-Pad8)") (pinfunction "Pin_8") (pintype "passive") (tstamp 6c291b54-65b7-484d-8a34-cc8562e4cf9a))
    (pad "9" thru_hole oval (at 0 20.32 180) (size 1.7 1.7) (drill 1) (layers *.Cu *.Mask)
      (net 9 "Net-(J1-Pad9)") (pinfunction "Pin_9") (pintype "passive") (tstamp 94a308b5-19f4-4ed8-8909-4cc7b6b341fc))
    (pad "10" thru_hole oval (at 0 22.86 180) (size 1.7 1.7) (drill 1) (layers *.Cu *.Mask)
      (net 10 "Net-(J1-Pad10)") (pinfunction "Pin_10") (pintype "passive") (tstamp 09280dee-0668-407d-8444-5e1032af2eb3))
    (model "${KICAD6_3DMODEL_DIR}/Connector_PinHeader_2.54mm.3dshapes/PinHeader_1x10_P2.54mm_Vertical.wrl"
      (offset (xyz 0 0 0))
      (scale (xyz 1 1 1))
      (rotate (xyz 0 0 0))
    )
  )

  (footprint "AmadorUAVs:PicoFusion H Series" (layer "F.Cu")
    (tedit 0) (tstamp 5df73469-5206-4849-be80-96947debdca1)
    (at 137.16 106.68)
    (property "Sheetfile" "picofusion-shoe.kicad_sch")
    (property "Sheetname" "")
    (path "/5960fd68-a457-465b-b13d-308015e9aace")
    (attr smd)
    (fp_text reference "U1" (at 0 -0.5 unlocked) (layer "F.SilkS")
      (effects (font (size 1 1) (thickness 0.15)))
      (tstamp b051cfd0-c46e-4469-906e-4206c37d80ba)
    )
    (fp_text value "picofusion-H10-PCB_STD" (at 0 1 unlocked) (layer "F.Fab")
      (effects (font (size 1 1) (thickness 0.15)))
      (tstamp 72468c7a-6c58-47a1-9631-97e8843ae6bf)
    )
    (fp_line (start 13 -12.5) (end 13 12.5) (layer "F.SilkS") (width 0.12) (tstamp 313fa3ce-65d8-4502-8f34-b406f4a29f60))
    (fp_line (start 12.5 13) (end -12.5 13) (layer "F.SilkS") (width 0.12) (tstamp 31964c1a-4b57-4315-9cd9-a25488caf4ee))
    (fp_line (start -12.5 -13) (end 12.5 -13) (layer "F.SilkS") (width 0.12) (tstamp 905aa916-58e9-47ef-93af-17043992d89a))
    (fp_line (start -13 12.5) (end -13 -12.5) (layer "F.SilkS") (width 0.12) (tstamp ceeb9f40-da1d-4ae3-a08d-cdf5f68ec9fe))
    (fp_arc (start 13 12.5) (mid 12.853553 12.853553) (end 12.5 13) (layer "F.SilkS") (width 0.12) (tstamp 5706c9aa-4433-4fd3-983b-970a2b351984))
    (fp_arc (start -12.5 13) (mid -12.853553 12.853553) (end -13 12.5) (layer "F.SilkS") (width 0.12) (tstamp 5b844607-5020-478e-a0a4-e91ebf069366))
    (fp_arc (start 12.5 -13) (mid 12.853553 -12.853553) (end 13 -12.5) (layer "F.SilkS") (width 0.12) (tstamp 88f57f2b-c158-43c5-8d78-304da166c82b))
    (fp_arc (start -13 -12.5) (mid -12.853553 -12.853553) (end -12.5 -13) (layer "F.SilkS") (width 0.12) (tstamp 8feb09be-f712-4505-ab14-3843bc8feabf))
    (fp_rect (start -12.75 -12.75) (end 12.75 12.75) (layer "F.CrtYd") (width 0.12) (fill none) (tstamp 2876d6c7-fbc9-4cdd-9cda-aba8d0111c3f))
    (pad "1" smd roundrect (at -13.5 -9) (size 3.2 1.6) (layers "F.Cu" "F.Paste" "F.Mask") (roundrect_rratio 0.25)
      (net 11 "Net-(J2-Pad1)") (pinfunction "SPI0-nCS") (pintype "input") (tstamp 0c2e77ff-7543-4c4c-9e7f-89f3a281f391))
    (pad "2" smd roundrect (at -13.5 -7) (size 3.2 1.6) (layers "F.Cu" "F.Paste" "F.Mask") (roundrect_rratio 0.25)
      (net 12 "Net-(J2-Pad2)") (pinfunction "SPI0_SCK") (pintype "input") (tstamp 334545fd-9786-47a2-a113-952825a6b924))
    (pad "3" smd roundrect (at -13.5 -5) (size 3.2 1.6) (layers "F.Cu" "F.Paste" "F.Mask") (roundrect_rratio 0.25)
      (net 13 "Net-(J2-Pad3)") (pinfunction "SPI0-PICO") (pintype "input") (tstamp 987321f5-2811-43fd-99b8-fa6884f4951d))
    (pad "4" smd roundrect (at -13.5 -3) (size 3.2 1.6) (layers "F.Cu" "F.Paste" "F.Mask") (roundrect_rratio 0.25)
      (net 14 "Net-(J2-Pad4)") (pinfunction "SPI0-POCI") (pintype "input") (tstamp 620fefcd-191a-48a0-be32-24b6f007228c))
    (pad "5" smd roundrect (at -13.5 -1) (size 3.2 1.6) (layers "F.Cu" "F.Paste" "F.Mask") (roundrect_rratio 0.25)
      (net 15 "Net-(J2-Pad5)") (pinfunction "DRDY_ICM42605") (pintype "input") (tstamp b646c08a-0e2c-4313-a159-36822b2d67cd))
    (pad "6" smd roundrect (at -13.5 1) (size 3.2 1.6) (layers "F.Cu" "F.Paste" "F.Mask") (roundrect_rratio 0.25)
      (net 16 "Net-(J2-Pad6)") (pinfunction "5V") (pintype "power_in") (tstamp c7f03363-c0e6-4e98-bca7-f35c77c85f3f))
    (pad "7" smd roundrect (at -13.5 3) (size 3.2 1.6) (layers "F.Cu" "F.Paste" "F.Mask") (roundrect_rratio 0.25)
      (net 17 "Net-(J2-Pad7)") (pinfunction "CAN_N") (pintype "input") (tstamp 93a3729c-f524-4e88-9bca-5cb7e7514048))
    (pad "8" smd roundrect (at -13.5 5) (size 3.2 1.6) (layers "F.Cu" "F.Paste" "F.Mask") (roundrect_rratio 0.25)
      (net 18 "Net-(J2-Pad8)") (pinfunction "CAN_P") (pintype "input") (tstamp c0f972a4-363a-49f7-ac59-fa1eb5b0a0e7))
    (pad "9" smd roundrect (at -13.5 7) (size 3.2 1.6) (layers "F.Cu" "F.Paste" "F.Mask") (roundrect_rratio 0.25)
      (net 19 "Net-(J2-Pad9)") (pinfunction "GND") (pintype "power_in") (tstamp 53773dbf-42da-4bab-b039-839bc0460bb1))
    (pad "10" smd roundrect (at -13.5 9) (size 3.2 1.6) (layers "F.Cu" "F.Paste" "F.Mask") (roundrect_rratio 0.25)
      (net 20 "Net-(J2-Pad10)") (pinfunction "3V3") (pintype "power_in") (tstamp fadb194f-a5bf-448f-8abb-ccebc0224702))
    (pad "11" smd roundrect (at -9 13.5 90) (size 3.2 1.6) (layers "F.Cu" "F.Paste" "F.Mask") (roundrect_rratio 0.25)
      (net 31 "Net-(J4-Pad1)") (pinfunction "LED") (pintype "input") (tstamp 32a28ba7-e866-448a-b0b0-f3dc1300e073))
    (pad "12" smd roundrect (at -7 13.5 90) (size 3.2 1.6) (layers "F.Cu" "F.Paste" "F.Mask") (roundrect_rratio 0.25)
      (net 32 "Net-(J4-Pad2)") (pinfunction "IMU_HEATER") (pintype "input") (tstamp 38081634-fd61-4864-b811-8ec83206b6e8))
    (pad "13" smd roundrect (at -5 13.5 90) (size 3.2 1.6) (layers "F.Cu" "F.Paste" "F.Mask") (roundrect_rratio 0.25)
      (net 33 "Net-(J4-Pad3)") (pinfunction "BUZZER") (pintype "input") (tstamp af3d078b-dd89-4e84-b984-bfba19c3bc67))
    (pad "14" smd roundrect (at -3 13.5 90) (size 3.2 1.6) (layers "F.Cu" "F.Paste" "F.Mask") (roundrect_rratio 0.25)
      (net 34 "Net-(J4-Pad4)") (pinfunction "UART0_TX_TELEM") (pintype "input") (tstamp 2bcd1199-c9ba-470f-a773-5abb810e1b37))
    (pad "15" smd roundrect (at -1 13.5 90) (size 3.2 1.6) (layers "F.Cu" "F.Paste" "F.Mask") (roundrect_rratio 0.25)
      (net 35 "Net-(J4-Pad5)") (pinfunction "UART0_RX_TELEM") (pintype "input") (tstamp 854adb6e-f5ab-41e7-a527-fb77772cb19a))
    (pad "16" smd roundrect (at 1 13.5 90) (size 3.2 1.6) (layers "F.Cu" "F.Paste" "F.Mask") (roundrect_rratio 0.25)
      (net 36 "Net-(J4-Pad6)") (pinfunction "UART0_CTS_TELEM") (pintype "input") (tstamp ab95330d-b15b-49ac-b335-b8958cbb1b73))
    (pad "17" smd roundrect (at 3 13.5 90) (size 3.2 1.6) (layers "F.Cu" "F.Paste" "F.Mask") (roundrect_rratio 0.25)
      (net 37 "Net-(J4-Pad7)") (pinfunction "UART0_CTS_TELEM") (pintype "input") (tstamp fdadfaa9-f75d-4c8c-9231-a350e98e3d6b))
    (pad "18" smd roundrect (at 5 13.5 90) (size 3.2 1.6) (layers "F.Cu" "F.Paste" "F.Mask") (roundrect_rratio 0.25)
      (net 38 "Net-(J4-Pad8)") (pinfunction "GND") (pintype "power_in") (tstamp e9db454d-aaa4-4f69-83c7-4fd5196a4c7a))
    (pad "19" smd roundrect (at 7 13.5 90) (size 3.2 1.6) (layers "F.Cu" "F.Paste" "F.Mask") (roundrect_rratio 0.25)
      (net 39 "Net-(J4-Pad9)") (pinfunction "SWCLK") (pintype "input") (tstamp 57de9ba3-f539-4f53-b5fe-7a5e47a4e717))
    (pad "20" smd roundrect (at 9 13.5 90) (size 3.2 1.6) (layers "F.Cu" "F.Paste" "F.Mask") (roundrect_rratio 0.25)
      (net 40 "Net-(J4-Pad10)") (pinfunction "SWDIO") (pintype "input") (tstamp 3bedbc46-632a-4917-81bc-2609b1b385c4))
    (pad "21" smd roundrect (at 13.5 9 180) (size 3.2 1.6) (layers "F.Cu" "F.Paste" "F.Mask") (roundrect_rratio 0.25)
      (net 21 "Net-(J3-Pad1)") (pinfunction "BOOTSEL") (pintype "input") (tstamp 0d76d32b-9868-4722-9900-1d7664246567))
    (pad "22" smd roundrect (at 13.5 7 180) (size 3.2 1.6) (layers "F.Cu" "F.Paste" "F.Mask") (roundrect_rratio 0.25)
      (net 22 "Net-(J3-Pad2)") (pinfunction "RUN") (pintype "input") (tstamp e4bf834e-b584-436b-88ed-fff803e06d60))
    (pad "23" smd roundrect (at 13.5 5 180) (size 3.2 1.6) (layers "F.Cu" "F.Paste" "F.Mask") (roundrect_rratio 0.25)
      (net 23 "Net-(J3-Pad3)") (pinfunction "UART1_TX_GNSS") (pintype "input") (tstamp 2c6af513-82cd-4d8f-b12d-82c3fcd85e04))
    (pad "24" smd roundrect (at 13.5 3 180) (size 3.2 1.6) (layers "F.Cu" "F.Paste" "F.Mask") (roundrect_rratio 0.25)
      (net 24 "Net-(J3-Pad4)") (pinfunction "UART1_RX_GNSS") (pintype "input") (tstamp 44dc4e55-697b-4b01-bd4d-78cd8a4f3c42))
    (pad "25" smd roundrect (at 13.5 1 180) (size 3.2 1.6) (layers "F.Cu" "F.Paste" "F.Mask") (roundrect_rratio 0.25)
      (net 25 "Net-(J3-Pad5)") (pinfunction "GND") (pintype "power_in") (tstamp 63565cf0-61f3-40d7-84a8-97acfe1bbfc1))
    (pad "26" smd roundrect (at 13.5 -1 180) (size 3.2 1.6) (layers "F.Cu" "F.Paste" "F.Mask") (roundrect_rratio 0.25)
      (net 26 "Net-(J3-Pad6)") (pinfunction "SD_nCD") (pintype "input") (tstamp 18afb2e2-9f32-4f0f-a871-e50c034f3c78))
    (pad "27" smd roundrect (at 13.5 -3 180) (size 3.2 1.6) (layers "F.Cu" "F.Paste" "F.Mask") (roundrect_rratio 0.25)
      (net 27 "Net-(J3-Pad7)") (pinfunction "SPI1_nCS_SD") (pintype "input") (tstamp 043c0bd9-4526-41af-808c-f4ee9171905b))
    (pad "28" smd roundrect (at 13.5 -5 180) (size 3.2 1.6) (layers "F.Cu" "F.Paste" "F.Mask") (roundrect_rratio 0.25)
      (net 28 "Net-(J3-Pad8)") (pinfunction "SPI1_PICO_SD") (pintype "input") (tstamp 53ae5814-9569-42d6-9f0e-9e6779ac37a4))
    (pad "29" smd roundrect (at 13.5 -7 180) (size 3.2 1.6) (layers "F.Cu" "F.Paste" "F.Mask") (roundrect_rratio 0.25)
      (net 29 "Net-(J3-Pad9)") (pinfunction "SPI1_POCI_SD") (pintype "input") (tstamp d3f1a10f-88ec-4946-9e12-f0f65d8e15bd))
    (pad "30" smd roundrect (at 13.5 -9 180) (size 3.2 1.6) (layers "F.Cu" "F.Paste" "F.Mask") (roundrect_rratio 0.25)
      (net 30 "Net-(J3-Pad10)") (pinfunction "SPI1_SCK_SD") (pintype "input") (tstamp d4acb680-3844-49ce-8c49-a87f4dfc4dce))
    (pad "31" smd roundrect (at 9 -13.5 270) (size 3.2 1.6) (layers "F.Cu" "F.Paste" "F.Mask") (roundrect_rratio 0.25)
      (net 1 "Net-(J1-Pad1)") (pinfunction "GND") (pintype "power_in") (tstamp 131eaf91-9c35-4d90-8087-4649cb82023d))
    (pad "32" smd roundrect (at 7 -13.5 270) (size 3.2 1.6) (layers "F.Cu" "F.Paste" "F.Mask") (roundrect_rratio 0.25)
      (net 2 "Net-(J1-Pad2)") (pinfunction "5V") (pintype "power_in") (tstamp 4607c95c-c51e-49f4-8b2c-c5a00defce7d))
    (pad "33" smd roundrect (at 5 -13.5 270) (size 3.2 1.6) (layers "F.Cu" "F.Paste" "F.Mask") (roundrect_rratio 0.25)
      (net 3 "Net-(J1-Pad3)") (pinfunction "GND") (pintype "power_in") (tstamp fbc9af6a-ff6c-411e-9fee-988f21b6f28f))
    (pad "34" smd roundrect (at 3 -13.5 270) (size 3.2 1.6) (layers "F.Cu" "F.Paste" "F.Mask") (roundrect_rratio 0.25)
      (net 4 "Net-(J1-Pad4)") (pinfunction "USB_DN") (pintype "input") (tstamp 6b16fbf8-1d57-4b6c-b45b-ae7ccee669f2))
    (pad "35" smd roundrect (at 1 -13.5 270) (size 3.2 1.6) (layers "F.Cu" "F.Paste" "F.Mask") (roundrect_rratio 0.25)
      (net 5 "Net-(J1-Pad5)") (pinfunction "USB_DP") (pintype "input") (tstamp 1e4de411-5a9e-4cb6-998b-eeaffd7eeed4))
    (pad "36" smd roundrect (at -1 -13.5 270) (size 3.2 1.6) (layers "F.Cu" "F.Paste" "F.Mask") (roundrect_rratio 0.25)
      (net 6 "Net-(J1-Pad6)") (pinfunction "X") (pintype "input") (tstamp 738a06aa-4577-4933-b293-bb1e95411f7e))
    (pad "37" smd roundrect (at -3 -13.5 270) (size 3.2 1.6) (layers "F.Cu" "F.Paste" "F.Mask") (roundrect_rratio 0.25)
      (net 7 "Net-(J1-Pad7)") (pinfunction "X") (pintype "input") (tstamp d27196bd-8aa9-4aad-affe-b0de2eea7933))
    (pad "38" smd roundrect (at -5 -13.5 270) (size 3.2 1.6) (layers "F.Cu" "F.Paste" "F.Mask") (roundrect_rratio 0.25)
      (net 8 "Net-(J1-Pad8)") (pinfunction "X") (pintype "input") (tstamp be4079f2-b302-4259-bbf1-ab1e8cbce2e5))
    (pad "39" smd roundrect (at -7 -13.5 270) (size 3.2 1.6) (layers "F.Cu" "F.Paste" "F.Mask") (roundrect_rratio 0.25)
      (net 9 "Net-(J1-Pad9)") (pinfunction "X") (pintype "input") (tstamp f37a5923-cfe0-4adc-be32-7c472884fa97))
    (pad "40" smd roundrect (at -9 -13.5 270) (size 3.2 1.6) (layers "F.Cu" "F.Paste" "F.Mask") (roundrect_rratio 0.25)
      (net 10 "Net-(J1-Pad10)") (pinfunction "X") (pintype "input") (tstamp 8a18eb9c-d599-4965-b2f0-7d40a4c5c9b6))
  )

  (footprint "Connector_PinHeader_2.54mm:PinHeader_1x10_P2.54mm_Vertical" (layer "F.Cu")
    (tedit 59FED5CC) (tstamp f2566132-b3a5-46c4-a643-30775b372a77)
    (at 111.76 81.28)
    (descr "Through hole straight pin header, 1x10, 2.54mm pitch, single row")
    (tags "Through hole pin header THT 1x10 2.54mm single row")
    (property "Sheetfile" "picofusion-shoe.kicad_sch")
    (property "Sheetname" "")
    (path "/e382b272-7508-4a30-9280-bbe26a548825")
    (attr through_hole)
    (fp_text reference "J2" (at 0 -2.33) (layer "F.SilkS")
      (effects (font (size 1 1) (thickness 0.15)))
      (tstamp 2874be6f-2ea5-46aa-bae2-4d7b0ac80cc1)
    )
    (fp_text value "Conn_01x10" (at 0 25.19) (layer "F.Fab")
      (effects (font (size 1 1) (thickness 0.15)))
      (tstamp e49dc171-2d64-4c6a-a967-212479866abe)
    )
    (fp_text user "${REFERENCE}" (at 0 11.43 90) (layer "F.Fab")
      (effects (font (size 1 1) (thickness 0.15)))
      (tstamp b2cf7d63-7c07-4773-9233-a2f821f9621c)
    )
    (fp_line (start -1.33 1.27) (end -1.33 24.19) (layer "F.SilkS") (width 0.12) (tstamp 24d1930d-d5f8-4b58-80ed-409fa9a783cc))
    (fp_line (start -1.33 24.19) (end 1.33 24.19) (layer "F.SilkS") (width 0.12) (tstamp 3a39d6fa-4e78-45b6-a1e9-f38dba773ac5))
    (fp_line (start -1.33 0) (end -1.33 -1.33) (layer "F.SilkS") (width 0.12) (tstamp 7e4a6692-47d5-4d84-8f95-219f60c5e942))
    (fp_line (start -1.33 -1.33) (end 0 -1.33) (layer "F.SilkS") (width 0.12) (tstamp 924148f4-4960-469c-9116-113d7d5175a3))
    (fp_line (start 1.33 1.27) (end 1.33 24.19) (layer "F.SilkS") (width 0.12) (tstamp aca16a7f-8700-42fe-b1d5-17c97b08a97d))
    (fp_line (start -1.33 1.27) (end 1.33 1.27) (layer "F.SilkS") (width 0.12) (tstamp cf70b924-12eb-43b4-a289-ba8fcabaa49d))
    (fp_line (start 1.8 -1.8) (end -1.8 -1.8) (layer "F.CrtYd") (width 0.05) (tstamp 10238b59-57e4-46ef-8f2d-f21fe8972134))
    (fp_line (start 1.8 24.65) (end 1.8 -1.8) (layer "F.CrtYd") (width 0.05) (tstamp 105e42de-b77e-4c68-b436-3ca675af86c7))
    (fp_line (start -1.8 -1.8) (end -1.8 24.65) (layer "F.CrtYd") (width 0.05) (tstamp 14483916-5e14-4260-8dad-70f6c2bb4b2c))
    (fp_line (start -1.8 24.65) (end 1.8 24.65) (layer "F.CrtYd") (width 0.05) (tstamp f47681bf-ad6b-458a-9a0c-15ee86590c9e))
    (fp_line (start -1.27 -0.635) (end -0.635 -1.27) (layer "F.Fab") (width 0.1) (tstamp 094ccf70-31ff-47b3-96a2-9ca078a67cdd))
    (fp_line (start 1.27 -1.27) (end 1.27 24.13) (layer "F.Fab") (width 0.1) (tstamp 123c3535-ef99-4aca-b61a-23b03d76d21d))
    (fp_line (start -1.27 24.13) (end -1.27 -0.635) (layer "F.Fab") (width 0.1) (tstamp 5e8fab75-4cf5-4341-8283-e95ba94db000))
    (fp_line (start 1.27 24.13) (end -1.27 24.13) (layer "F.Fab") (width 0.1) (tstamp 68e5d0bc-ce82-423f-b5d2-f9a192a54d18))
    (fp_line (start -0.635 -1.27) (end 1.27 -1.27) (layer "F.Fab") (width 0.1) (tstamp c513939f-1830-4962-ae59-dd6f5085c59d))
    (pad "1" thru_hole rect (at 0 0) (size 1.7 1.7) (drill 1) (layers *.Cu *.Mask)
      (net 11 "Net-(J2-Pad1)") (pinfunction "Pin_1") (pintype "passive") (tstamp 0999bebf-7a95-4cb2-9616-dfdddcdc2ffd))
    (pad "2" thru_hole oval (at 0 2.54) (size 1.7 1.7) (drill 1) (layers *.Cu *.Mask)
      (net 12 "Net-(J2-Pad2)") (pinfunction "Pin_2") (pintype "passive") (tstamp 96c66eec-f44c-40f2-bbd7-d0f1bac55af6))
    (pad "3" thru_hole oval (at 0 5.08) (size 1.7 1.7) (drill 1) (layers *.Cu *.Mask)
      (net 13 "Net-(J2-Pad3)") (pinfunction "Pin_3") (pintype "passive") (tstamp cf93c0ad-6fc4-4a58-aa3d-3c89402bae38))
    (pad "4" thru_hole oval (at 0 7.62) (size 1.7 1.7) (drill 1) (layers *.Cu *.Mask)
      (net 14 "Net-(J2-Pad4)") (pinfunction "Pin_4") (pintype "passive") (tstamp fb3cffd8-1917-462d-81f9-2f8df737f08b))
    (pad "5" thru_hole oval (at 0 10.16) (size 1.7 1.7) (drill 1) (layers *.Cu *.Mask)
      (net 15 "Net-(J2-Pad5)") (pinfunction "Pin_5") (pintype "passive") (tstamp a6f5731d-b163-421e-9b25-a8c8f2ff6a2d))
    (pad "6" thru_hole oval (at 0 12.7) (size 1.7 1.7) (drill 1) (layers *.Cu *.Mask)
      (net 16 "Net-(J2-Pad6)") (pinfunction "Pin_6") (pintype "passive") (tstamp 7c22b25e-b097-41cf-ad42-44df8e7c6411))
    (pad "7" thru_hole oval (at 0 15.24) (size 1.7 1.7) (drill 1) (layers *.Cu *.Mask)
      (net 17 "Net-(J2-Pad7)") (pinfunction "Pin_7") (pintype "passive") (tstamp e2a0068d-e9c9-4d7b-b036-d9f676aff6da))
    (pad "8" thru_hole oval (at 0 17.78) (size 1.7 1.7) (drill 1) (layers *.Cu *.Mask)
      (net 18 "Net-(J2-Pad8)") (pinfunction "Pin_8") (pintype "passive") (tstamp 306aa6ce-2aa6-4cb6-ba04-fcd52fb36ed1))
    (pad "9" thru_hole oval (at 0 20.32) (size 1.7 1.7) (drill 1) (layers *.Cu *.Mask)
      (net 19 "Net-(J2-Pad9)") (pinfunction "Pin_9") (pintype "passive") (tstamp 8a187c4c-0b55-4411-9bbe-00bf278d3927))
    (pad "10" thru_hole oval (at 0 22.86) (size 1.7 1.7) (drill 1) (layers *.Cu *.Mask)
      (net 20 "Net-(J2-Pad10)") (pinfunction "Pin_10") (pintype "passive") (tstamp c8e57364-edbb-47b9-ad1a-2be6b6fe0f7c))
    (model "${KICAD6_3DMODEL_DIR}/Connector_PinHeader_2.54mm.3dshapes/PinHeader_1x10_P2.54mm_Vertical.wrl"
      (offset (xyz 0 0 0))
      (scale (xyz 1 1 1))
      (rotate (xyz 0 0 0))
    )
  )

  (footprint "Connector_PinHeader_2.54mm:PinHeader_1x10_P2.54mm_Vertical" (layer "F.Cu")
    (tedit 59FED5CC) (tstamp fc9d2cd2-82e1-4bda-bf06-1a58b858445d)
    (at 162.641931 129.54 180)
    (descr "Through hole straight pin header, 1x10, 2.54mm pitch, single row")
    (tags "Through hole pin header THT 1x10 2.54mm single row")
    (property "Sheetfile" "picofusion-shoe.kicad_sch")
    (property "Sheetname" "")
    (path "/2f74c609-39e4-437d-bfe9-9acff870e097")
    (attr through_hole)
    (fp_text reference "J3" (at 0 -2.33) (layer "F.SilkS")
      (effects (font (size 1 1) (thickness 0.15)))
      (tstamp 08533645-92ff-467c-a92f-3824db565dde)
    )
    (fp_text value "Conn_01x10" (at 0 25.19) (layer "F.Fab")
      (effects (font (size 1 1) (thickness 0.15)))
      (tstamp 43eb3086-b766-4f3c-8bb3-4ea82e79f7ef)
    )
    (fp_text user "${REFERENCE}" (at 0 11.43 90) (layer "F.Fab")
      (effects (font (size 1 1) (thickness 0.15)))
      (tstamp a80765f8-b18e-4efa-a1f9-eaf12efd6fb1)
    )
    (fp_line (start -1.33 24.19) (end 1.33 24.19) (layer "F.SilkS") (width 0.12) (tstamp 44557793-b836-4d99-b6f5-a6168c112c49))
    (fp_line (start -1.33 1.27) (end -1.33 24.19) (layer "F.SilkS") (width 0.12) (tstamp 48f8614a-d498-4ad4-ac31-2c41081d9f8b))
    (fp_line (start -1.33 1.27) (end 1.33 1.27) (layer "F.SilkS") (width 0.12) (tstamp 9456cd46-1577-476b-a5b2-dae5088137fe))
    (fp_line (start -1.33 -1.33) (end 0 -1.33) (layer "F.SilkS") (width 0.12) (tstamp afb14e5c-c0fa-4051-94fc-04f29bb05fa2))
    (fp_line (start 1.33 1.27) (end 1.33 24.19) (layer "F.SilkS") (width 0.12) (tstamp e44d5052-a149-43bc-ab0c-2cfef6983c0f))
    (fp_line (start -1.33 0) (end -1.33 -1.33) (layer "F.SilkS") (width 0.12) (tstamp fabb554b-acf7-4aea-a74c-5000c296008e))
    (fp_line (start -1.8 -1.8) (end -1.8 24.65) (layer "F.CrtYd") (width 0.05) (tstamp 0777c536-34d5-4004-97c3-386de8e86323))
    (fp_line (start -1.8 24.65) (end 1.8 24.65) (layer "F.CrtYd") (width 0.05) (tstamp 6c628e83-5b06-4861-9487-38d5dafb0aee))
    (fp_line (start 1.8 24.65) (end 1.8 -1.8) (layer "F.CrtYd") (width 0.05) (tstamp a99f3ec5-935d-4234-a2cb-c02ddeb14237))
    (fp_line (start 1.8 -1.8) (end -1.8 -1.8) (layer "F.CrtYd") (width 0.05) (tstamp d357776b-f5e1-4605-bda1-35c62a558a6c))
    (fp_line (start -1.27 24.13) (end -1.27 -0.635) (layer "F.Fab") (width 0.1) (tstamp 54956a68-150f-43ca-8b5f-066dc39dab97))
    (fp_line (start -0.635 -1.27) (end 1.27 -1.27) (layer "F.Fab") (width 0.1) (tstamp 94b41cca-5450-490c-80bc-f7e23cd065b9))
    (fp_line (start 1.27 -1.27) (end 1.27 24.13) (layer "F.Fab") (width 0.1) (tstamp be926734-ab37-45d2-b388-d487f6a046e9))
    (fp_line (start -1.27 -0.635) (end -0.635 -1.27) (layer "F.Fab") (width 0.1) (tstamp c47d178a-e660-42f5-81e5-fb30601c0b9a))
    (fp_line (start 1.27 24.13) (end -1.27 24.13) (layer "F.Fab") (width 0.1) (tstamp ce114992-402a-48a8-bbe0-138513317aff))
    (pad "1" thru_hole rect (at 0 0 180) (size 1.7 1.7) (drill 1) (layers *.Cu *.Mask)
      (net 21 "Net-(J3-Pad1)") (pinfunction "Pin_1") (pintype "passive") (tstamp 92796d11-1353-418b-8e29-f094bdd42dca))
    (pad "2" thru_hole oval (at 0 2.54 180) (size 1.7 1.7) (drill 1) (layers *.Cu *.Mask)
      (net 22 "Net-(J3-Pad2)") (pinfunction "Pin_2") (pintype "passive") (tstamp f618f360-86b2-497c-bb96-3604862aa99e))
    (pad "3" thru_hole oval (at 0 5.08 180) (size 1.7 1.7) (drill 1) (layers *.Cu *.Mask)
      (net 23 "Net-(J3-Pad3)") (pinfunction "Pin_3") (pintype "passive") (tstamp b88a60bf-5e10-42af-add4-daaa3a5e42c5))
    (pad "4" thru_hole oval (at 0 7.62 180) (size 1.7 1.7) (drill 1) (layers *.Cu *.Mask)
      (net 24 "Net-(J3-Pad4)") (pinfunction "Pin_4") (pintype "passive") (tstamp a725487b-bccd-4e67-801b-f04ea0058f97))
    (pad "5" thru_hole oval (at 0 10.16 180) (size 1.7 1.7) (drill 1) (layers *.Cu *.Mask)
      (net 25 "Net-(J3-Pad5)") (pinfunction "Pin_5") (pintype "passive") (tstamp 76c74908-c34e-4f73-aea1-cffc24a57341))
    (pad "6" thru_hole oval (at 0 12.7 180) (size 1.7 1.7) (drill 1) (layers *.Cu *.Mask)
      (net 26 "Net-(J3-Pad6)") (pinfunction "Pin_6") (pintype "passive") (tstamp fbb0b74d-aedc-4bfb-931f-971e2344f20f))
    (pad "7" thru_hole oval (at 0 15.24 180) (size 1.7 1.7) (drill 1) (layers *.Cu *.Mask)
      (net 27 "Net-(J3-Pad7)") (pinfunction "Pin_7") (pintype "passive") (tstamp 32e5b46f-0f0a-4741-868e-7a016fd5fa08))
    (pad "8" thru_hole oval (at 0 17.78 180) (size 1.7 1.7) (drill 1) (layers *.Cu *.Mask)
      (net 28 "Net-(J3-Pad8)") (pinfunction "Pin_8") (pintype "passive") (tstamp d12ea549-0dbe-4462-90b6-a8a8791188a2))
    (pad "9" thru_hole oval (at 0 20.32 180) (size 1.7 1.7) (drill 1) (layers *.Cu *.Mask)
      (net 29 "Net-(J3-Pad9)") (pinfunction "Pin_9") (pintype "passive") (tstamp 7c0069e8-c96a-4b41-a9b2-c6289bbcecf7))
    (pad "10" thru_hole oval (at 0 22.86 180) (size 1.7 1.7) (drill 1) (layers *.Cu *.Mask)
      (net 30 "Net-(J3-Pad10)") (pinfunction "Pin_10") (pintype "passive") (tstamp 76e24cc6-a128-4898-9ebd-f3d53f92f490))
    (model "${KICAD6_3DMODEL_DIR}/Connector_PinHeader_2.54mm.3dshapes/PinHeader_1x10_P2.54mm_Vertical.wrl"
      (offset (xyz 0 0 0))
      (scale (xyz 1 1 1))
      (rotate (xyz 0 0 0))
    )
  )

  (segment (start 148.606 90.716) (end 162.03 104.14) (width 0.25) (layer "F.Cu") (net 1) (tstamp 16e1d10d-cad7-49dc-94bc-9d97a8419633))
  (segment (start 146.574 90.716) (end 148.606 90.716) (width 0.25) (layer "F.Cu") (net 1) (tstamp c811ac6e-f631-4aed-89ee-cd5ce69757f6))
  (segment (start 162.03 104.14) (end 165.218855 104.14) (width 0.25) (layer "F.Cu") (net 1) (tstamp dffe6640-0389-49af-ba6b-4b9d3d12d593))
  (segment (start 146.176 91.114) (end 146.574 90.716) (width 0.25) (layer "F.Cu") (net 1) (tstamp ee527153-4195-49ef-b2df-dadab1ff7ce1))
  (segment (start 146.176 93.218) (end 146.176 91.114) (width 0.25) (layer "F.Cu") (net 1) (tstamp f6651166-a17f-4145-9bc9-5d32826aeafe))
  (segment (start 160.76 101.6) (end 165.218855 101.6) (width 0.25) (layer "F.Cu") (net 2) (tstamp 47866d09-a75a-4d61-bb53-ea1dc76c18e9))
  (segment (start 144.542 89.954) (end 149.114 89.954) (width 0.25) (layer "F.Cu") (net 2) (tstamp 589c7b11-b14a-4ffd-870e-f29ff97c40f0))
  (segment (start 149.114 89.954) (end 160.76 101.6) (width 0.25) (layer "F.Cu") (net 2) (tstamp 920853d5-1f83-473b-b204-993f2ae5abe3))
  (segment (start 144.176 93.218) (end 144.176 90.32) (width 0.25) (layer "F.Cu") (net 2) (tstamp 985fc689-429b-40d8-b5e3-3ad6210f7e08))
  (segment (start 144.176 90.32) (end 144.542 89.954) (width 0.25) (layer "F.Cu") (net 2) (tstamp e1957268-a398-4c2b-82ed-a7d42cfe774e))
  (segment (start 163.576 99.06) (end 165.218855 99.06) (width 0.25) (layer "F.Cu") (net 3) (tstamp 64233b92-6344-4be6-ae2e-9065f9bfab72))
  (segment (start 153.708 89.192) (end 163.576 99.06) (width 0.25) (layer "F.Cu") (net 3) (tstamp bfd359f1-1f6d-43aa-b44a-bd4b96e78428))
  (segment (start 142.176 90.034) (end 143.018 89.192) (width 0.25) (layer "F.Cu") (net 3) (tstamp c9fe72a1-4fba-422d-8fde-66abf3657ca7))
  (segment (start 143.018 89.192) (end 153.708 89.192) (width 0.25) (layer "F.Cu") (net 3) (tstamp ce06d354-2af8-4cc0-b1d8-a4f596a23111))
  (segment (start 142.176 93.218) (end 142.176 90.034) (width 0.25) (layer "F.Cu") (net 3) (tstamp f66c8879-c4b9-4b8b-8a56-17b1336d95f0))
  (segment (start 141.24 88.43) (end 155.486 88.43) (width 0.25) (layer "F.Cu") (net 4) (tstamp 37c45521-6c6a-4b54-b0e9-0f9afbcff753))
  (segment (start 163.576 96.52) (end 165.218855 96.52) (width 0.25) (layer "F.Cu") (net 4) (tstamp 7253947a-944c-486a-8ef7-ebb6f090aeb1))
  (segment (start 140.176 93.218) (end 140.176 89.494) (width 0.25) (layer "F.Cu") (net 4) (tstamp 85a0ec35-705c-4cd6-8485-29e7e1dd22bf))
  (segment (start 140.176 89.494) (end 141.24 88.43) (width 0.25) (layer "F.Cu") (net 4) (tstamp a2c9361e-412e-4fa1-98fb-eb7ec0b76ab5))
  (segment (start 155.486 88.43) (end 163.576 96.52) (width 0.25) (layer "F.Cu") (net 4) (tstamp ab3bdf88-8816-4248-8579-8299e96b08a2))
  (segment (start 156.883 87.668) (end 163.195 93.98) (width 0.25) (layer "F.Cu") (net 5) (tstamp 6d0315ae-df7b-4a87-a02e-91f6c459f746))
  (segment (start 163.195 93.98) (end 165.218855 93.98) (width 0.25) (layer "F.Cu") (net 5) (tstamp 9ff09617-7111-4f8d-ae57-e2d83921063e))
  (segment (start 138.176 93.218) (end 138.176 89.208) (width 0.25) (layer "F.Cu") (net 5) (tstamp ac1029b1-4762-469c-9d34-a1aefa2feff9))
  (segment (start 138.176 89.208) (end 139.716 87.668) (width 0.25) (layer "F.Cu") (net 5) (tstamp d1629a9e-8000-422a-9eb5-6a75105efcef))
  (segment (start 139.716 87.668) (end 156.883 87.668) (width 0.25) (layer "F.Cu") (net 5) (tstamp f50d6f52-994b-4926-abff-4be947b813c4))
  (segment (start 136.176 93.218) (end 136.176 89.43) (width 0.25) (layer "F.Cu") (net 6) (tstamp 29dfd0b0-a473-424b-92a9-83e50e560c33))
  (segment (start 162.814 91.44) (end 165.218855 91.44) (width 0.25) (layer "F.Cu") (net 6) (tstamp 59e48d00-4b27-4a02-9156-46bd0bef5619))
  (segment (start 158.28 86.906) (end 162.814 91.44) (width 0.25) (layer "F.Cu") (net 6) (tstamp 95230751-e13d-4946-8e84-4d50a8d9bb74))
  (segment (start 136.176 89.43) (end 138.7 86.906) (width 0.25) (layer "F.Cu") (net 6) (tstamp c32703e1-a15e-4071-a837-58b546d20edd))
  (segment (start 138.7 86.906) (end 158.28 86.906) (width 0.25) (layer "F.Cu") (net 6) (tstamp caeb2fe2-5e44-41bd-8166-9681e9869e32))
  (segment (start 137.684 86.144) (end 159.55 86.144) (width 0.25) (layer "F.Cu") (net 7) (tstamp 1ff60f59-d808-4cbe-80be-73c346e80415))
  (segment (start 134.176 89.652) (end 137.684 86.144) (width 0.25) (layer "F.Cu") (net 7) (tstamp ad02f406-892b-4e91-8f05-b2e24800f952))
  (segment (start 134.176 93.218) (end 134.176 89.652) (width 0.25) (layer "F.Cu") (net 7) (tstamp b6505174-4bf3-4b7e-bf39-cba9b5c6004c))
  (segment (start 159.55 86.144) (end 162.306 88.9) (width 0.25) (layer "F.Cu") (net 7) (tstamp d0913a04-f1ae-4a3f-afbe-d04a149015c0))
  (segment (start 162.306 88.9) (end 165.218855 88.9) (width 0.25) (layer "F.Cu") (net 7) (tstamp d8406133-68e3-4a08-955e-79befd1b7bc7))
  (segment (start 161.798 86.36) (end 165.218855 86.36) (width 0.25) (layer "F.Cu") (net 8) (tstamp 06499e98-38f8-43d4-8fe6-bc670a2ca182))
  (segment (start 132.176 93.218) (end 132.176 89.874) (width 0.25) (layer "F.Cu") (net 8) (tstamp 3ad8b592-9762-47d3-8917-f576f598f86c))
  (segment (start 132.176 89.874) (end 136.54 85.51) (width 0.25) (layer "F.Cu") (net 8) (tstamp 41356e4f-4546-46db-adb7-64d6be060603))
  (segment (start 136.54 85.51) (end 160.948 85.51) (width 0.25) (layer "F.Cu") (net 8) (tstamp fbbfda4d-b952-47af-84ba-5cb4f12bac1a))
  (segment (start 160.948 85.51) (end 161.798 86.36) (width 0.25) (layer "F.Cu") (net 8) (tstamp fc406596-9f1e-44c9-9809-aecf76e6e2ed))
  (segment (start 130.176 90.096) (end 136.452 83.82) (width 0.25) (layer "F.Cu") (net 9) (tstamp 771d5ca1-e801-4586-ac93-fc9cb42536bf))
  (segment (start 136.452 83.82) (end 165.218855 83.82) (width 0.25) (layer "F.Cu") (net 9) (tstamp b0b7fd94-1fcd-44ad-b086-ec65191e1a4d))
  (segment (start 130.176 93.218) (end 130.176 90.096) (width 0.25) (layer "F.Cu") (net 9) (tstamp b9195e2e-d225-4e1d-bcdd-bcbf4b429d37))
  (segment (start 128.176 93.218) (end 128.176 90.572) (width 0.25) (layer "F.Cu") (net 10) (tstamp 21ffc007-6ea8-469a-b049-5f6c1c621930))
  (segment (start 137.468 81.28) (end 165.218855 81.28) (width 0.25) (layer "F.Cu") (net 10) (tstamp 318e9d73-ca40-489f-829a-35cbc1561434))
  (segment (start 128.176 90.572) (end 137.468 81.28) (width 0.25) (layer "F.Cu") (net 10) (tstamp d28ed348-23fb-4303-9209-179e6a798a67))
  (segment (start 121.92 91.44) (end 111.76 81.28) (width 0.25) (layer "F.Cu") (net 11) (tstamp 05b13a8a-4ba9-4cc5-b745-e35020021717))
  (segment (start 121.92 97.282) (end 121.92 91.44) (width 0.25) (layer "F.Cu") (net 11) (tstamp 2fefc833-7e96-4716-85ac-56d5d961ba1f))
  (segment (start 123.66 97.68) (end 122.318 97.68) (width 0.25) (layer "F.Cu") (net 11) (tstamp 7b5b8f84-de22-44f9-9ca6-f118ec766bf7))
  (segment (start 122.318 97.68) (end 121.92 97.282) (width 0.25) (layer "F.Cu") (net 11) (tstamp f4ea7c0f-bad5-4cbf-bc15-fcfaa25e1e5d))
  (segment (start 121.158 97.803305) (end 123.034695 99.68) (width 0.25) (layer "F.Cu") (net 12) (tstamp 231a0045-31cd-42aa-9523-53c65a508d0f))
  (segment (start 111.76 83.82) (end 121.158 93.218) (width 0.25) (layer "F.Cu") (net 12) (tstamp 3d619ec8-01f8-4ef5-949e-b62bc91ebfa6))
  (segment (start 123.034695 99.68) (end 123.66 99.68) (width 0.25) (layer "F.Cu") (net 12) (tstamp 52a8c36e-9303-4d1e-8545-341582a4302d))
  (segment (start 121.158 93.218) (end 121.158 97.803305) (width 0.25) (layer "F.Cu") (net 12) (tstamp 5cfcecac-b045-4f30-b0eb-7b4d269e82fe))
  (segment (start 120.396 99.041305) (end 123.034695 101.68) (width 0.25) (layer "F.Cu") (net 13) (tstamp 0858e5f3-3e68-49ee-92dc-90e096f61872))
  (segment (start 120.396 94.996) (end 120.396 99.041305) (width 0.25) (layer "F.Cu") (net 13) (tstamp 9285198e-8f66-4eb4-9155-6f47bb29c399))
  (segment (start 123.034695 101.68) (end 123.66 101.68) (width 0.25) (layer "F.Cu") (net 13) (tstamp cf712a35-781d-4a7b-af21-3e761e75a58d))
  (segment (start 111.76 86.36) (end 120.396 94.996) (width 0.25) (layer "F.Cu") (net 13) (tstamp eb8af448-0d4c-46fc-b927-364e5e918171))
  (segment (start 119.634 101.6) (end 121.714 103.68) (width 0.25) (layer "F.Cu") (net 14) (tstamp 11d19bb8-5a35-4de5-9efc-a76c41f037f1))
  (segment (start 111.76 88.9) (end 119.634 96.774) (width 0.25) (layer "F.Cu") (net 14) (tstamp 2598c098-5e2a-449a-b234-d89030ddf6a8))
  (segment (start 121.714 103.68) (end 123.66 103.68) (width 0.25) (layer "F.Cu") (net 14) (tstamp 2aa8c3fc-9319-46b3-b098-89582c80e409))
  (segment (start 119.634 96.774) (end 119.634 101.6) (width 0.25) (layer "F.Cu") (net 14) (tstamp 8bf3c8e1-951d-414f-8a6f-6868af313202))
  (segment (start 118.872 104.394) (end 120.158 105.68) (width 0.25) (layer "F.Cu") (net 15) (tstamp 13530365-1f70-4c34-9171-5a1f0d6ad77d))
  (segment (start 118.872 98.552) (end 118.872 104.394) (width 0.25) (layer "F.Cu") (net 15) (tstamp 1e4fd9cb-015d-4bc3-a826-9727ae3c9bad))
  (segment (start 120.158 105.68) (end 123.66 105.68) (width 0.25) (layer "F.Cu") (net 15) (tstamp 68892a0b-b72e-4558-8dec-3d48e24242a6))
  (segment (start 111.76 91.44) (end 118.872 98.552) (width 0.25) (layer "F.Cu") (net 15) (tstamp fac09d32-e910-44f4-9efc-c79d7193dfe2))
  (segment (start 111.76 93.98) (end 118.11 100.33) (width 0.25) (layer "F.Cu") (net 16) (tstamp 264671d3-66e3-472a-9648-a81dc914f317))
  (segment (start 119.872 107.68) (end 123.66 107.68) (width 0.25) (layer "F.Cu") (net 16) (tstamp 4bc9623d-3e9c-43c0-ac7e-81d5afcb28e2))
  (segment (start 118.11 105.918) (end 119.872 107.68) (width 0.25) (layer "F.Cu") (net 16) (tstamp 7be65d34-a951-47cf-b96b-6990ea820ca4))
  (segment (start 118.11 100.33) (end 118.11 105.918) (width 0.25) (layer "F.Cu") (net 16) (tstamp 9a273197-fa2f-4e54-b53a-c80f1110758d))
  (segment (start 117.348 107.95) (end 119.078 109.68) (width 0.25) (layer "F.Cu") (net 17) (tstamp 552d0d0a-d74c-446f-a437-1304fb1e9023))
  (segment (start 117.348 102.108) (end 117.348 107.95) (width 0.25) (layer "F.Cu") (net 17) (tstamp 67f296e9-fc09-479e-81cb-e2e3cfeb5f75))
  (segment (start 119.078 109.68) (end 123.66 109.68) (width 0.25) (layer "F.Cu") (net 17) (tstamp 6ca88e97-2cb7-4955-b96f-90363b9be3c3))
  (segment (start 111.76 96.52) (end 117.348 102.108) (width 0.25) (layer "F.Cu") (net 17) (tstamp 74d6155d-a367-41fc-b6a3-ac11939b84b5))
  (segment (start 119.3 111.68) (end 123.66 111.68) (width 0.25) (layer "F.Cu") (net 18) (tstamp 13f3646b-7250-4831-bc57-2f971837cf65))
  (segment (start 111.76 99.06) (end 116.586 103.886) (width 0.25) (layer "F.Cu") (net 18) (tstamp 3e6d533d-e039-455a-ae6d-060fc40e53c1))
  (segment (start 116.586 103.886) (end 116.586 108.966) (width 0.25) (layer "F.Cu") (net 18) (tstamp cf039c75-bebc-4f1d-b9ee-b2df0d013eb2))
  (segment (start 116.586 108.966) (end 119.3 111.68) (width 0.25) (layer "F.Cu") (net 18) (tstamp de748b33-992d-4c96-bd01-28dc886e5904))
  (segment (start 115.824 109.982) (end 119.522 113.68) (width 0.25) (layer "F.Cu") (net 19) (tstamp 4699e3e1-fdf7-47b7-8358-0bb01be49169))
  (segment (start 119.522 113.68) (end 123.66 113.68) (width 0.25) (layer "F.Cu") (net 19) (tstamp 8e6d7d32-6793-49d7-b3ee-5088a42d91c4))
  (segment (start 111.76 101.6) (end 115.824 105.664) (width 0.25) (layer "F.Cu") (net 19) (tstamp 93dd3f64-e06a-4e2d-8ca3-e1df199e13b0))
  (segment (start 115.824 105.664) (end 115.824 109.982) (width 0.25) (layer "F.Cu") (net 19) (tstamp 9e4e715f-715f-4715-8c44-0045484b2844))
  (segment (start 111.76 104.14) (end 115.062 107.442) (width 0.25) (layer "F.Cu") (net 20) (tstamp 0bf96377-328f-407b-baf0-96c660b7df9d))
  (segment (start 119.998 115.68) (end 123.66 115.68) (width 0.25) (layer "F.Cu") (net 20) (tstamp 5b3c16da-9e84-42f2-8736-aa087e63f97d))
  (segment (start 115.062 107.442) (end 115.062 110.744) (width 0.25) (layer "F.Cu") (net 20) (tstamp 7eaca9f9-8f13-42a0-9390-ae198d3165f7))
  (segment (start 115.062 110.744) (end 119.998 115.68) (width 0.25) (layer "F.Cu") (net 20) (tstamp cefa1102-88aa-4fe7-9f33-26f11802c671))
  (segment (start 152.416 121.958) (end 159.998 129.54) (width 0.25) (layer "F.Cu") (net 21) (tstamp 05468ba9-dd44-4ae5-b69c-2f32713f1feb))
  (segment (start 150.676 115.718) (end 152.018 115.718) (width 0.25) (layer "F.Cu") (net 21) (tstamp 90aea1d7-e9bc-417d-83eb-ef5bf662419f))
  (segment (start 152.416 116.116) (end 152.416 121.958) (width 0.25) (layer "F.Cu") (net 21) (tstamp 99a662e4-6d2d-403c-b7ff-64d082fb1b33))
  (segment (start 159.998 129.54) (end 162.641931 129.54) (width 0.25) (layer "F.Cu") (net 21) (tstamp c53fef3f-3870-423f-820b-cc950140b7d3))
  (segment (start 152.018 115.718) (end 152.416 116.116) (width 0.25) (layer "F.Cu") (net 21) (tstamp faf57db4-a34c-498d-8464-e2ed5fac37cb))
  (segment (start 153.178 115.572695) (end 151.323305 113.718) (width 0.25) (layer "F.Cu") (net 22) (tstamp 15482eec-f2cc-4db3-8383-52a096dd9a39))
  (segment (start 151.323305 113.718) (end 150.676 113.718) (width 0.25) (layer "F.Cu") (net 22) (tstamp 2c976dda-a001-4118-9c89-711973d2fa39))
  (segment (start 153.178 120.18) (end 153.178 115.572695) (width 0.25) (layer "F.Cu") (net 22) (tstamp 559dff58-c1f3-4338-b8eb-ddee43547405))
  (segment (start 159.998 127) (end 153.178 120.18) (width 0.25) (layer "F.Cu") (net 22) (tstamp 8c00367a-995b-4fc3-8009-9b363af169b7))
  (segment (start 162.641931 127) (end 159.998 127) (width 0.25) (layer "F.Cu") (net 22) (tstamp f38076e1-aaad-4bb1-ae12-ca17c240253f))
  (segment (start 162.641931 124.46) (end 159.998 124.46) (width 0.25) (layer "F.Cu") (net 23) (tstamp 3883e290-fd25-4bf0-8770-f6f942de62aa))
  (segment (start 153.94 118.402) (end 153.94 114.334695) (width 0.25) (layer "F.Cu") (net 23) (tstamp 70d15157-5792-41b9-8d65-b53b656a53c2))
  (segment (start 159.998 124.46) (end 153.94 118.402) (width 0.25) (layer "F.Cu") (net 23) (tstamp 7a9bc78e-4d28-4fd1-a1d9-136f9031a7c9))
  (segment (start 153.94 114.334695) (end 151.323305 111.718) (width 0.25) (layer "F.Cu") (net 23) (tstamp 843eee08-8afd-4887-82d5-e2d1f69d94f6))
  (segment (start 151.323305 111.718) (end 150.676 111.718) (width 0.25) (layer "F.Cu") (net 23) (tstamp da6b0689-64de-45aa-bb30-1495c43f945a))
  (segment (start 154.702 111.798) (end 152.622 109.718) (width 0.25) (layer "F.Cu") (net 24) (tstamp 8f2ee980-1e5b-49e3-9c5b-90165801f732))
  (segment (start 159.998 121.92) (end 154.702 116.624) (width 0.25) (layer "F.Cu") (net 24) (tstamp a8803f40-5171-4033-b760-46566fdb115b))
  (segment (start 154.702 116.624) (end 154.702 111.798) (width 0.25) (layer "F.Cu") (net 24) (tstamp ca266ce0-2f7d-4c7f-8c4d-54abee55eb3e))
  (segment (start 162.641931 121.92) (end 159.998 121.92) (width 0.25) (layer "F.Cu") (net 24) (tstamp d1a26b5a-7d54-4849-a76e-8a771504abdf))
  (segment (start 152.622 109.718) (end 150.676 109.718) (width 0.25) (layer "F.Cu") (net 24) (tstamp f70ee0ed-179c-4e71-b94d-07cd163d5c4d))
  (segment (start 162.641931 119.38) (end 159.998 119.38) (width 0.25) (layer "F.Cu") (net 25) (tstamp 3f421d4d-ad17-41d7-828a-424cbbfc7380))
  (segment (start 155.464 109.004) (end 154.178 107.718) (width 0.25) (layer "F.Cu") (net 25) (tstamp 4588e1ac-6407-4b0f-a1a5-8d7845adcec1))
  (segment (start 159.998 119.38) (end 155.464 114.846) (width 0.25) (layer "F.Cu") (net 25) (tstamp 4d9f7e7f-0fa0-4bf5-83ba-1f75440d03f9))
  (segment (start 155.464 114.846) (end 155.464 109.004) (width 0.25) (layer "F.Cu") (net 25) (tstamp 7171294f-05fc-4df8-8585-6b3dbc3f1b57))
  (segment (start 154.178 107.718) (end 150.676 107.718) (width 0.25) (layer "F.Cu") (net 25) (tstamp d7c443eb-ba7c-4894-aaa4-d1bd64e1ad64))
  (segment (start 159.998 116.84) (end 156.226 113.068) (width 0.25) (layer "F.Cu") (net 26) (tstamp 0630ebb9-2f34-4a29-b33f-2f61ad6ac3dc))
  (segment (start 156.226 113.068) (end 156.226 107.48) (width 0.25) (layer "F.Cu") (net 26) (tstamp 5a01678d-943c-4ab1-8ee7-da3457dc697a))
  (segment (start 154.464 105.718) (end 150.676 105.718) (width 0.25) (layer "F.Cu") (net 26) (tstamp af8150b5-6c57-43c7-90e6-1ba797ee76e2))
  (segment (start 162.641931 116.84) (end 159.998 116.84) (width 0.25) (layer "F.Cu") (net 26) (tstamp ba637160-5979-4c8d-b5e0-355d556c28e0))
  (segment (start 156.226 107.48) (end 154.464 105.718) (width 0.25) (layer "F.Cu") (net 26) (tstamp c746fef5-fec8-4285-9e47-a45e17b6884e))
  (segment (start 162.641931 114.3) (end 159.998 114.3) (width 0.25) (layer "F.Cu") (net 27) (tstamp 4d57973f-30d3-4ca4-859c-79807aefd5ea))
  (segment (start 156.988 105.448) (end 155.258 103.718) (width 0.25) (layer "F.Cu") (net 27) (tstamp 770f13e0-ea0c-4650-a727-5c79f3295e3a))
  (segment (start 155.258 103.718) (end 150.676 103.718) (width 0.25) (layer "F.Cu") (net 27) (tstamp a7ef5a61-6598-4a00-aed1-f531c349a48f))
  (segment (start 159.998 114.3) (end 156.988 111.29) (width 0.25) (layer "F.Cu") (net 27) (tstamp e4226ef9-f632-4be3-8d2a-1cc0db2bf909))
  (segment (start 156.988 111.29) (end 156.988 105.448) (width 0.25) (layer "F.Cu") (net 27) (tstamp f3a612d9-f315-434b-9bad-c9e710d6f1f9))
  (segment (start 157.75 104.432) (end 155.036 101.718) (width 0.25) (layer "F.Cu") (net 28) (tstamp 11b747de-0f56-4183-a1ac-7023ebcc1f4c))
  (segment (start 155.036 101.718) (end 150.676 101.718) (width 0.25) (layer "F.Cu") (net 28) (tstamp 4122a3c5-ecbb-455e-bc06-5c5868b91c5d))
  (segment (start 157.75 109.512) (end 157.75 104.432) (width 0.25) (layer "F.Cu") (net 28) (tstamp 9ba7c0a7-b92c-495b-a30a-442154b006c2))
  (segment (start 159.998 111.76) (end 157.75 109.512) (width 0.25) (layer "F.Cu") (net 28) (tstamp f226a47a-58c9-4a45-82e1-a34fc7bd99d4))
  (segment (start 162.641931 111.76) (end 159.998 111.76) (width 0.25) (layer "F.Cu") (net 28) (tstamp fbcf6560-a76a-4ef8-895e-96a3ef95c7c8))
  (segment (start 158.512 107.734) (end 158.512 103.416) (width 0.25) (layer "F.Cu") (net 29) (tstamp 041c5554-b5ba-4351-b2e0-0be747dba8b3))
  (segment (start 162.641931 109.22) (end 159.998 109.22) (width 0.25) (layer "F.Cu") (net 29) (tstamp 5bb2bc4e-47bd-474c-80f3-5f5a8a7c0279))
  (segment (start 154.814 99.718) (end 150.676 99.718) (width 0.25) (layer "F.Cu") (net 29) (tstamp 61e09011-623c-4933-9fd0-114c7a28665b))
  (segment (start 159.998 109.22) (end 158.512 107.734) (width 0.25) (layer "F.Cu") (net 29) (tstamp f4348779-cb52-4420-a5a2-99a3b89109c0))
  (segment (start 158.512 103.416) (end 154.814 99.718) (width 0.25) (layer "F.Cu") (net 29) (tstamp f8d383bd-520e-4009-8658-9b459f1e29f9))
  (segment (start 159.274 105.956) (end 159.274 102.654) (width 0.25) (layer "F.Cu") (net 30) (tstamp 70d66bce-4414-4112-8773-2e9798a95ec7))
  (segment (start 159.274 102.654) (end 154.338 97.718) (width 0.25) (layer "F.Cu") (net 30) (tstamp 77ae5935-0a4b-46bc-bc24-174c93dbc6ad))
  (segment (start 159.998 106.68) (end 159.274 105.956) (width 0.25) (layer "F.Cu") (net 30) (tstamp 8da0a257-c4b3-46a6-b268-8b20d7dad264))
  (segment (start 165.218855 106.68) (end 159.998 106.68) (width 0.25) (layer "F.Cu") (net 30) (tstamp f2227ba5-bb42-416b-b3ef-7e9520b69a9a))
  (segment (start 154.338 97.718) (end 150.676 97.718) (width 0.25) (layer "F.Cu") (net 30) (tstamp fce5ea5b-c91c-4b0a-9e50-87bd1dfadefa))
  (segment (start 127.762 122.682) (end 125.73 122.682) (width 0.25) (layer "F.Cu") (net 31) (tstamp 056e9c19-239b-476d-a23b-c204b55d191c))
  (segment (start 125.73 122.682) (end 114.3 111.252) (width 0.25) (layer "F.Cu") (net 31) (tstamp 135cafd4-2647-4de7-ba22-34c345376c0e))
  (segment (start 128.16 122.284) (end 127.762 122.682) (width 0.25) (layer "F.Cu") (net 31) (tstamp 1b8d706c-ff0b-4cbf-be1e-d0791a86e03b))
  (segment (start 114.3 109.22) (end 111.76 106.68) (width 0.25) (layer "F.Cu") (net 31) (tstamp 247f73e7-0927-4704-8d4f-6cbcad2b80b1))
  (segment (start 128.16 120.18) (end 128.16 122.284) (width 0.25) (layer "F.Cu") (net 31) (tstamp 317c3bb6-b6fe-4e58-ae7d-e1a5d2f9fcdb))
  (segment (start 114.3 111.252) (end 114.3 109.22) (width 0.25) (layer "F.Cu") (net 31) (tstamp 85fb4947-fa26-4877-bd58-20cfb68535d2))
  (segment (start 130.16 123.078) (end 129.794 123.444) (width 0.25) (layer "F.Cu") (net 32) (tstamp 0b18dd24-16a3-4d97-9d79-76f1b4848d20))
  (segment (start 113.538 111.76) (end 113.538 110.998) (width 0.25) (layer "F.Cu") (net 32) (tstamp 14a100b9-ac7e-4ac3-88a2-fdbcddf396bb))
  (segment (start 130.16 120.18) (end 130.16 123.078) (width 0.25) (layer "F.Cu") (net 32) (tstamp 5efe8115-538c-4620-91d2-2e4f164f74be))
  (segment (start 129.794 123.444) (end 125.222 123.444) (width 0.25) (layer "F.Cu") (net 32) (tstamp 9997a585-f416-4a6b-81f0-bc5741c96754))
  (segment (start 125.222 123.444) (end 113.538 111.76) (width 0.25) (layer "F.Cu") (net 32) (tstamp 9e86f171-349c-4908-9d2e-113147435286))
  (segment (start 113.538 110.998) (end 111.76 109.22) (width 0.25) (layer "F.Cu") (net 32) (tstamp f910f6da-f3c9-485f-812e-4d09b8445661))
  (segment (start 124.206 124.206) (end 111.76 111.76) (width 0.25) (layer "F.Cu") (net 33) (tstamp 1c09ddc0-2ba0-485e-8dbb-fc47ce19179c))
  (segment (start 132.16 120.18) (end 132.16 123.364) (width 0.25) (layer "F.Cu") (net 33) (tstamp 30737de0-ca2b-4215-813c-68a856c9e048))
  (segment (start 131.318 124.206) (end 124.206 124.206) (width 0.25) (layer "F.Cu") (net 33) (tstamp a0f97f41-da4d-40a3-8736-9ea9734acb2e))
  (segment (start 132.16 123.364) (end 131.318 124.206) (width 0.25) (layer "F.Cu") (net 33) (tstamp d1fa99c0-280d-4715-af7d-4d3d83300fee))
  (segment (start 134.16 120.18) (end 134.16 123.904) (width 0.25) (layer "F.Cu") (net 34) (tstamp 17207c84-ae8c-4811-8eec-647d07cb521d))
  (segment (start 122.428 124.968) (end 111.76 114.3) (width 0.25) (layer "F.Cu") (net 34) (tstamp 3f11173c-d163-4448-af91-4ee46643a8ac))
  (segment (start 134.16 123.904) (end 133.096 124.968) (width 0.25) (layer "F.Cu") (net 34) (tstamp 4135742f-7db0-4996-83ab-eab665972d4e))
  (segment (start 133.096 124.968) (end 122.428 124.968) (width 0.25) (layer "F.Cu") (net 34) (tstamp 74275f52-b24b-4412-8435-9acf837d0b4c))
  (segment (start 136.16 120.18) (end 136.16 124.19) (width 0.25) (layer "F.Cu") (net 35) (tstamp 25a12a46-aead-463a-8617-f98498a82457))
  (segment (start 134.62 125.73) (end 120.65 125.73) (width 0.25) (layer "F.Cu") (net 35) (tstamp 32f08511-0453-4484-a05f-593756ac677c))
  (segment (start 136.16 124.19) (end 134.62 125.73) (width 0.25) (layer "F.Cu") (net 35) (tstamp 8459e790-f15b-486a-b2d0-442e3d7f4a5d))
  (segment (start 120.65 125.73) (end 111.76 116.84) (width 0.25) (layer "F.Cu") (net 35) (tstamp 84ef027a-e8b8-4982-a3ba-7f2b13aac53e))
  (segment (start 118.872 126.492) (end 111.76 119.38) (width 0.25) (layer "F.Cu") (net 36) (tstamp 49865412-5dc3-4e52-91a3-cf3c40d5408a))
  (segment (start 138.16 123.968) (end 135.636 126.492) (width 0.25) (layer "F.Cu") (net 36) (tstamp 5348c64e-e9dc-402f-8915-8f43cf21fd0b))
  (segment (start 138.16 120.18) (end 138.16 123.968) (width 0.25) (layer "F.Cu") (net 36) (tstamp b765acc8-231a-41ef-8f0b-ed48ed19c341))
  (segment (start 135.636 126.492) (end 118.872 126.492) (width 0.25) (layer "F.Cu") (net 36) (tstamp bcd3f111-dbc5-4b37-a50e-832ab1358bfe))
  (segment (start 140.16 120.18) (end 140.16 123.746) (width 0.25) (layer "F.Cu") (net 37) (tstamp 7d45075d-321b-4776-a2e5-22452e23e16e))
  (segment (start 140.16 123.746) (end 136.652 127.254) (width 0.25) (layer "F.Cu") (net 37) (tstamp 82c13c2c-79c8-40f7-938b-73bd85711bc9))
  (segment (start 136.652 127.254) (end 117.094 127.254) (width 0.25) (layer "F.Cu") (net 37) (tstamp f1267391-7ff1-460d-a6ce-63e2cd42a0ac))
  (segment (start 117.094 127.254) (end 111.76 121.92) (width 0.25) (layer "F.Cu") (net 37) (tstamp ffa22b44-f4e5-492f-9efb-f312780565f5))
  (segment (start 137.668 128.016) (end 115.316 128.016) (width 0.25) (layer "F.Cu") (net 38) (tstamp 3098530c-8910-4303-be31-9dba25cdf63e))
  (segment (start 142.16 120.18) (end 142.16 123.524) (width 0.25) (layer "F.Cu") (net 38) (tstamp 389dfaf3-9dbd-44de-a8b1-a353bee47820))
  (segment (start 142.16 123.524) (end 137.668 128.016) (width 0.25) (layer "F.Cu") (net 38) (tstamp 5dec6ffd-3455-4c20-b638-8e426fe0b542))
  (segment (start 115.316 128.016) (end 111.76 124.46) (width 0.25) (layer "F.Cu") (net 38) (tstamp cf7c005c-dc2b-4c59-bfed-59601c7183d2))
  (segment (start 144.16 123.302) (end 138.684 128.778) (width 0.25) (layer "F.Cu") (net 39) (tstamp 26a1433d-58eb-4311-9d53-af8d45994e5f))
  (segment (start 113.538 128.778) (end 111.76 127) (width 0.25) (layer "F.Cu") (net 39) (tstamp 4ca6ea88-ca05-4e12-93af-3945492610b7))
  (segment (start 138.684 128.778) (end 113.538 128.778) (width 0.25) (layer "F.Cu") (net 39) (tstamp 6580f551-35da-4503-a206-587647e164d5))
  (segment (start 144.16 120.18) (end 144.16 123.302) (width 0.25) (layer "F.Cu") (net 39) (tstamp bc6b00c8-8994-4715-bcb4-07d576d68441))
  (segment (start 146.16 122.826) (end 139.446 129.54) (width 0.25) (layer "F.Cu") (net 40) (tstamp 414b77f1-a80a-460c-a929-0a82f4e3f61b))
  (segment (start 146.16 120.18) (end 146.16 122.826) (width 0.25) (layer "F.Cu") (net 40) (tstamp 71e1c2f8-2030-4ff4-b0e0-ad8c8f4b4570))
  (segment (start 139.446 129.54) (end 111.76 129.54) (width 0.25) (layer "F.Cu") (net 40) (tstamp fce18bc0-9c06-4d20-a591-9f01922291b7))

)
