(kicad_pcb (version 20211014) (generator pcbnew)

  (general
    (thickness 1.6)
  )

  (paper "A4")
  (layers
    (0 "F.Cu" signal)
    (31 "B.Cu" signal)
    (32 "B.Adhes" user "B.Adhesive")
    (33 "F.Adhes" user "F.Adhesive")
    (34 "B.Paste" user)
    (35 "F.Paste" user)
    (36 "B.SilkS" user "B.Silkscreen")
    (37 "F.SilkS" user "F.Silkscreen")
    (38 "B.Mask" user)
    (39 "F.Mask" user)
    (40 "Dwgs.User" user "User.Drawings")
    (41 "Cmts.User" user "User.Comments")
    (42 "Eco1.User" user "User.Eco1")
    (43 "Eco2.User" user "User.Eco2")
    (44 "Edge.Cuts" user)
    (45 "Margin" user)
    (46 "B.CrtYd" user "B.Courtyard")
    (47 "F.CrtYd" user "F.Courtyard")
    (48 "B.Fab" user)
    (49 "F.Fab" user)
    (50 "User.1" user)
    (51 "User.2" user)
    (52 "User.3" user)
    (53 "User.4" user)
    (54 "User.5" user)
    (55 "User.6" user)
    (56 "User.7" user)
    (57 "User.8" user)
    (58 "User.9" user)
  )

  (setup
    (stackup
      (layer "F.SilkS" (type "Top Silk Screen"))
      (layer "F.Paste" (type "Top Solder Paste"))
      (layer "F.Mask" (type "Top Solder Mask") (thickness 0.01))
      (layer "F.Cu" (type "copper") (thickness 0.035))
      (layer "dielectric 1" (type "core") (thickness 1.51) (material "FR4") (epsilon_r 4.5) (loss_tangent 0.02))
      (layer "B.Cu" (type "copper") (thickness 0.035))
      (layer "B.Mask" (type "Bottom Solder Mask") (thickness 0.01))
      (layer "B.Paste" (type "Bottom Solder Paste"))
      (layer "B.SilkS" (type "Bottom Silk Screen"))
      (copper_finish "None")
      (dielectric_constraints no)
    )
    (pad_to_mask_clearance 0)
    (pcbplotparams
      (layerselection 0x00010fc_ffffffff)
      (disableapertmacros false)
      (usegerberextensions false)
      (usegerberattributes true)
      (usegerberadvancedattributes true)
      (creategerberjobfile true)
      (svguseinch false)
      (svgprecision 6)
      (excludeedgelayer true)
      (plotframeref false)
      (viasonmask false)
      (mode 1)
      (useauxorigin false)
      (hpglpennumber 1)
      (hpglpenspeed 20)
      (hpglpendiameter 15.000000)
      (dxfpolygonmode true)
      (dxfimperialunits true)
      (dxfusepcbnewfont true)
      (psnegative false)
      (psa4output false)
      (plotreference true)
      (plotvalue true)
      (plotinvisibletext false)
      (sketchpadsonfab false)
      (subtractmaskfromsilk false)
      (outputformat 1)
      (mirror false)
      (drillshape 0)
      (scaleselection 1)
      (outputdirectory "PICOFUSION-JIG-GERBERS/")
    )
  )

  (net 0 "")
  (net 1 "Net-(J1-Pad1)")
  (net 2 "Net-(J1-Pad2)")
  (net 3 "Net-(J1-Pad3)")
  (net 4 "Net-(J1-Pad4)")
  (net 5 "Net-(J1-Pad5)")
  (net 6 "Net-(J1-Pad6)")
  (net 7 "Net-(J1-Pad7)")
  (net 8 "Net-(J1-Pad8)")
  (net 9 "Net-(J1-Pad9)")
  (net 10 "Net-(J1-Pad10)")
  (net 11 "Net-(J2-Pad1)")
  (net 12 "Net-(J2-Pad2)")
  (net 13 "Net-(J2-Pad3)")
  (net 14 "Net-(J2-Pad4)")
  (net 15 "Net-(J2-Pad5)")
  (net 16 "Net-(J2-Pad6)")
  (net 17 "Net-(J2-Pad7)")
  (net 18 "Net-(J2-Pad8)")
  (net 19 "Net-(J2-Pad9)")
  (net 20 "Net-(J2-Pad10)")
  (net 21 "Net-(J3-Pad1)")
  (net 22 "Net-(J3-Pad2)")
  (net 23 "Net-(J3-Pad3)")
  (net 24 "Net-(J3-Pad4)")
  (net 25 "Net-(J3-Pad5)")
  (net 26 "Net-(J3-Pad6)")
  (net 27 "Net-(J3-Pad7)")
  (net 28 "Net-(J3-Pad8)")
  (net 29 "Net-(J3-Pad9)")
  (net 30 "Net-(J3-Pad10)")
  (net 31 "Net-(J4-Pad1)")
  (net 32 "Net-(J4-Pad2)")
  (net 33 "Net-(J4-Pad3)")
  (net 34 "Net-(J4-Pad4)")
  (net 35 "Net-(J4-Pad5)")
  (net 36 "Net-(J4-Pad6)")
  (net 37 "Net-(J4-Pad7)")
  (net 38 "Net-(J4-Pad8)")
  (net 39 "Net-(J4-Pad9)")
  (net 40 "Net-(J4-Pad10)")

  (footprint "Connector_PinHeader_2.54mm:PinHeader_1x10_P2.54mm_Vertical" (layer "F.Cu")
    (tedit 59FED5CC) (tstamp 195a5ac3-8a68-4000-bd1a-ff935186a8b5)
    (at 86.425 55.579289 -90)
    (descr "Through hole straight pin header, 1x10, 2.54mm pitch, single row")
    (tags "Through hole pin header THT 1x10 2.54mm single row")
    (property "Sheetfile" "picofusion-jig.kicad_sch")
    (property "Sheetname" "")
    (path "/5c3bd3a1-501a-450f-a326-a84f2ce07549")
    (attr through_hole)
    (fp_text reference "J5" (at 0 -2.33 90) (layer "F.SilkS") hide
      (effects (font (size 1 1) (thickness 0.15)))
      (tstamp 59688265-70c8-4135-85d3-b496ca851fae)
    )
    (fp_text value "Conn_01x10" (at 0 25.19 90) (layer "F.Fab")
      (effects (font (size 1 1) (thickness 0.15)))
      (tstamp a6d5b0df-6ea6-4ffd-abb2-0c1788f793ce)
    )
    (fp_text user "${REFERENCE}" (at 0 11.43) (layer "F.Fab")
      (effects (font (size 1 1) (thickness 0.15)))
      (tstamp 3af080bb-8c3d-4f4a-a4f4-d5f28a5418b9)
    )
    (fp_line (start -1.33 0) (end -1.33 -1.33) (layer "F.SilkS") (width 0.12) (tstamp 30e184dc-2a8e-483a-8de7-8e96b22b60b8))
    (fp_line (start 1.33 1.27) (end 1.33 24.19) (layer "F.SilkS") (width 0.12) (tstamp 45561299-822c-42d9-a6be-71d577d929f7))
    (fp_line (start -1.33 1.27) (end 1.33 1.27) (layer "F.SilkS") (width 0.12) (tstamp 6affddfd-4511-4dd0-967e-843c1b85816b))
    (fp_line (start -1.33 24.19) (end 1.33 24.19) (layer "F.SilkS") (width 0.12) (tstamp a2a86e94-ecda-45b9-b3e5-70537a654051))
    (fp_line (start -1.33 1.27) (end -1.33 24.19) (layer "F.SilkS") (width 0.12) (tstamp c212f31d-3cc7-4e0b-a8e8-7394d607fc07))
    (fp_line (start -1.33 -1.33) (end 0 -1.33) (layer "F.SilkS") (width 0.12) (tstamp f781af8a-ab67-4dcc-9fd4-52260c01e266))
    (fp_line (start -1.8 24.65) (end 1.8 24.65) (layer "F.CrtYd") (width 0.05) (tstamp 1d31285c-7e3c-4dab-a600-786df48430c6))
    (fp_line (start 1.8 24.65) (end 1.8 -1.8) (layer "F.CrtYd") (width 0.05) (tstamp 3089fa44-564b-4b4c-9591-f0e8c0b78f60))
    (fp_line (start -1.8 -1.8) (end -1.8 24.65) (layer "F.CrtYd") (width 0.05) (tstamp 7c775658-4247-4204-b768-eb86438d1a82))
    (fp_line (start 1.8 -1.8) (end -1.8 -1.8) (layer "F.CrtYd") (width 0.05) (tstamp c690ff07-e4c5-419d-804b-ad21d9b96e3b))
    (fp_line (start 1.27 -1.27) (end 1.27 24.13) (layer "F.Fab") (width 0.1) (tstamp 2ef79fe6-7820-4df0-8ff1-7e5b8f2c7370))
    (fp_line (start -0.635 -1.27) (end 1.27 -1.27) (layer "F.Fab") (width 0.1) (tstamp 4e53e7c7-1ccd-4ad7-8b7f-a2ff6cf2d194))
    (fp_line (start -1.27 -0.635) (end -0.635 -1.27) (layer "F.Fab") (width 0.1) (tstamp b3f5f3a6-a829-44d1-a8f1-b6c1468bb79b))
    (fp_line (start 1.27 24.13) (end -1.27 24.13) (layer "F.Fab") (width 0.1) (tstamp c9f45ad0-0e05-47a7-b40b-19c6314c3862))
    (fp_line (start -1.27 24.13) (end -1.27 -0.635) (layer "F.Fab") (width 0.1) (tstamp f86eec1f-e2b6-44a3-8508-a40747948db6))
    (pad "1" thru_hole rect (at 0 0 270) (size 1.7 1.7) (drill 1) (layers *.Cu *.Mask)
      (net 1 "Net-(J1-Pad1)") (pinfunction "Pin_1") (pintype "passive") (tstamp f9b99ffe-a7c5-4815-b7ed-04ba68be683d))
    (pad "2" thru_hole oval (at 0 2.54 270) (size 1.7 1.7) (drill 1) (layers *.Cu *.Mask)
      (net 2 "Net-(J1-Pad2)") (pinfunction "Pin_2") (pintype "passive") (tstamp 9e63eaa3-d38e-4359-9fc0-f25af6aea23c))
    (pad "3" thru_hole oval (at 0 5.08 270) (size 1.7 1.7) (drill 1) (layers *.Cu *.Mask)
      (net 3 "Net-(J1-Pad3)") (pinfunction "Pin_3") (pintype "passive") (tstamp 87e97883-dff8-4588-b155-4ea2bec74e1a))
    (pad "4" thru_hole oval (at 0 7.62 270) (size 1.7 1.7) (drill 1) (layers *.Cu *.Mask)
      (net 4 "Net-(J1-Pad4)") (pinfunction "Pin_4") (pintype "passive") (tstamp 551525e9-5c94-49e3-bea2-bd81c36f9736))
    (pad "5" thru_hole oval (at 0 10.16 270) (size 1.7 1.7) (drill 1) (layers *.Cu *.Mask)
      (net 5 "Net-(J1-Pad5)") (pinfunction "Pin_5") (pintype "passive") (tstamp 72d75baa-5079-4a28-8b26-a6fbfe5713dd))
    (pad "6" thru_hole oval (at 0 12.7 270) (size 1.7 1.7) (drill 1) (layers *.Cu *.Mask)
      (net 6 "Net-(J1-Pad6)") (pinfunction "Pin_6") (pintype "passive") (tstamp 2652f998-367f-4606-ab26-4e1063fa6a8d))
    (pad "7" thru_hole oval (at 0 15.24 270) (size 1.7 1.7) (drill 1) (layers *.Cu *.Mask)
      (net 7 "Net-(J1-Pad7)") (pinfunction "Pin_7") (pintype "passive") (tstamp 24734621-901b-4214-8bee-c22d32fe8c5e))
    (pad "8" thru_hole oval (at 0 17.78 270) (size 1.7 1.7) (drill 1) (layers *.Cu *.Mask)
      (net 8 "Net-(J1-Pad8)") (pinfunction "Pin_8") (pintype "passive") (tstamp e0181522-b820-401e-b299-61f5e2fb41bb))
    (pad "9" thru_hole oval (at 0 20.32 270) (size 1.7 1.7) (drill 1) (layers *.Cu *.Mask)
      (net 9 "Net-(J1-Pad9)") (pinfunction "Pin_9") (pintype "passive") (tstamp 23c76eca-e392-4817-bdde-be28ab67de7b))
    (pad "10" thru_hole oval (at 0 22.86 270) (size 1.7 1.7) (drill 1) (layers *.Cu *.Mask)
      (net 10 "Net-(J1-Pad10)") (pinfunction "Pin_10") (pintype "passive") (tstamp 8da803b5-a491-4611-8590-bacaf83d9871))
    (model "${KICAD6_3DMODEL_DIR}/Connector_PinHeader_2.54mm.3dshapes/PinHeader_1x10_P2.54mm_Vertical.wrl"
      (offset (xyz 0 0 0))
      (scale (xyz 1 1 1))
      (rotate (xyz 0 0 0))
    )
  )

  (footprint "Connector_PinHeader_2.54mm:PinHeader_1x10_P2.54mm_Vertical" (layer "F.Cu")
    (tedit 59FED5CC) (tstamp 3ad67d60-1279-4282-b37c-61fe21d857e8)
    (at 55.402011 63.575)
    (descr "Through hole straight pin header, 1x10, 2.54mm pitch, single row")
    (tags "Through hole pin header THT 1x10 2.54mm single row")
    (property "Sheetfile" "picofusion-jig.kicad_sch")
    (property "Sheetname" "")
    (path "/bcfb39c6-1fdf-42ab-87c2-0b0638d4d6ac")
    (attr through_hole)
    (fp_text reference "J6" (at 0 -2.33) (layer "F.SilkS") hide
      (effects (font (size 1 1) (thickness 0.15)))
      (tstamp 8b69631e-5a24-46e1-823f-e4df041b2d8a)
    )
    (fp_text value "Conn_01x10" (at 0 25.19) (layer "F.Fab")
      (effects (font (size 1 1) (thickness 0.15)))
      (tstamp 1133018a-9340-46e6-ab2d-2292ee694587)
    )
    (fp_text user "${REFERENCE}" (at 0 11.43 90) (layer "F.Fab")
      (effects (font (size 1 1) (thickness 0.15)))
      (tstamp d78924e5-c6c4-4c78-990e-318dbb472bd3)
    )
    (fp_line (start -1.33 -1.33) (end 0 -1.33) (layer "F.SilkS") (width 0.12) (tstamp 205dbe48-4681-45eb-b641-b7d38ad0d78f))
    (fp_line (start 1.33 1.27) (end 1.33 24.19) (layer "F.SilkS") (width 0.12) (tstamp 7184cc0a-376a-4d3e-9985-d68dc08f648f))
    (fp_line (start -1.33 24.19) (end 1.33 24.19) (layer "F.SilkS") (width 0.12) (tstamp 808040eb-3f35-461a-a591-9e6479af8b6f))
    (fp_line (start -1.33 1.27) (end -1.33 24.19) (layer "F.SilkS") (width 0.12) (tstamp d72a18ea-71ac-4f4d-8138-cd11fa1a110d))
    (fp_line (start -1.33 0) (end -1.33 -1.33) (layer "F.SilkS") (width 0.12) (tstamp da245ae4-8869-4a0b-a1f7-3786c259e855))
    (fp_line (start -1.33 1.27) (end 1.33 1.27) (layer "F.SilkS") (width 0.12) (tstamp ef0c1351-f00c-4581-a769-a3897498ae23))
    (fp_line (start 1.8 -1.8) (end -1.8 -1.8) (layer "F.CrtYd") (width 0.05) (tstamp 1250cb0f-f3c2-4ae0-8e1c-2247fb8e8063))
    (fp_line (start 1.8 24.65) (end 1.8 -1.8) (layer "F.CrtYd") (width 0.05) (tstamp 14b80fdc-be7b-4991-af00-2eb1d85f967c))
    (fp_line (start -1.8 -1.8) (end -1.8 24.65) (layer "F.CrtYd") (width 0.05) (tstamp 1a5c3bfe-4451-4135-9029-b26d0103cd9f))
    (fp_line (start -1.8 24.65) (end 1.8 24.65) (layer "F.CrtYd") (width 0.05) (tstamp c4a662a8-02cc-4682-a36f-5ca5ba95f236))
    (fp_line (start -0.635 -1.27) (end 1.27 -1.27) (layer "F.Fab") (width 0.1) (tstamp 23793fda-c292-49db-8146-220aac3d7e53))
    (fp_line (start -1.27 24.13) (end -1.27 -0.635) (layer "F.Fab") (width 0.1) (tstamp 5b7fc0b3-bea8-4916-ad1a-8b606a2bc28c))
    (fp_line (start 1.27 -1.27) (end 1.27 24.13) (layer "F.Fab") (width 0.1) (tstamp a3aa5e1f-22bb-47e1-ac7d-185d085df980))
    (fp_line (start 1.27 24.13) (end -1.27 24.13) (layer "F.Fab") (width 0.1) (tstamp a70ead99-16dc-4243-bb79-ccabdbf9206b))
    (fp_line (start -1.27 -0.635) (end -0.635 -1.27) (layer "F.Fab") (width 0.1) (tstamp fd2ec55c-a14d-4482-90a4-fc21e1bc5616))
    (pad "1" thru_hole rect (at 0 0) (size 1.7 1.7) (drill 1) (layers *.Cu *.Mask)
      (net 11 "Net-(J2-Pad1)") (pinfunction "Pin_1") (pintype "passive") (tstamp 68043a47-de11-4ecf-8d1d-247b76739fa7))
    (pad "2" thru_hole oval (at 0 2.54) (size 1.7 1.7) (drill 1) (layers *.Cu *.Mask)
      (net 12 "Net-(J2-Pad2)") (pinfunction "Pin_2") (pintype "passive") (tstamp d85675f4-e8a1-47ec-ba59-5027fe63920c))
    (pad "3" thru_hole oval (at 0 5.08) (size 1.7 1.7) (drill 1) (layers *.Cu *.Mask)
      (net 13 "Net-(J2-Pad3)") (pinfunction "Pin_3") (pintype "passive") (tstamp 9f7b35b4-90dc-4b09-bea8-59f99e45e829))
    (pad "4" thru_hole oval (at 0 7.62) (size 1.7 1.7) (drill 1) (layers *.Cu *.Mask)
      (net 14 "Net-(J2-Pad4)") (pinfunction "Pin_4") (pintype "passive") (tstamp c14b9473-94b7-4fb8-aaf6-b113bc6cebd7))
    (pad "5" thru_hole oval (at 0 10.16) (size 1.7 1.7) (drill 1) (layers *.Cu *.Mask)
      (net 15 "Net-(J2-Pad5)") (pinfunction "Pin_5") (pintype "passive") (tstamp b501403f-2ae0-4781-9eb2-ae4a0160710d))
    (pad "6" thru_hole oval (at 0 12.7) (size 1.7 1.7) (drill 1) (layers *.Cu *.Mask)
      (net 16 "Net-(J2-Pad6)") (pinfunction "Pin_6") (pintype "passive") (tstamp 816231d0-2038-4485-a96f-d5e7d6509b69))
    (pad "7" thru_hole oval (at 0 15.24) (size 1.7 1.7) (drill 1) (layers *.Cu *.Mask)
      (net 17 "Net-(J2-Pad7)") (pinfunction "Pin_7") (pintype "passive") (tstamp 467c3cf7-9784-4c22-a9bb-b45914d1b04a))
    (pad "8" thru_hole oval (at 0 17.78) (size 1.7 1.7) (drill 1) (layers *.Cu *.Mask)
      (net 18 "Net-(J2-Pad8)") (pinfunction "Pin_8") (pintype "passive") (tstamp 1d6dacb0-1c8d-42ea-ba22-bcf8299baec9))
    (pad "9" thru_hole oval (at 0 20.32) (size 1.7 1.7) (drill 1) (layers *.Cu *.Mask)
      (net 19 "Net-(J2-Pad9)") (pinfunction "Pin_9") (pintype "passive") (tstamp 67954089-e2a2-4f38-9655-49e2a52325b1))
    (pad "10" thru_hole oval (at 0 22.86) (size 1.7 1.7) (drill 1) (layers *.Cu *.Mask)
      (net 20 "Net-(J2-Pad10)") (pinfunction "Pin_10") (pintype "passive") (tstamp ebc297be-a254-4cd2-af94-d051163528f0))
    (model "${KICAD6_3DMODEL_DIR}/Connector_PinHeader_2.54mm.3dshapes/PinHeader_1x10_P2.54mm_Vertical.wrl"
      (offset (xyz 0 0 0))
      (scale (xyz 1 1 1))
      (rotate (xyz 0 0 0))
    )
  )

  (footprint "MountingHole:MountingHole_3.2mm_M3" (layer "F.Cu")
    (tedit 56D1B4CB) (tstamp 4f376ae5-e8df-47e5-8e31-93e5e9f5c9e8)
    (at 53.6 96.4)
    (descr "Mounting Hole 3.2mm, no annular, M3")
    (tags "mounting hole 3.2mm no annular m3")
    (attr exclude_from_pos_files exclude_from_bom)
    (fp_text reference "REF**" (at 0 -4.2) (layer "F.SilkS") hide
      (effects (font (size 1 1) (thickness 0.15)))
      (tstamp 1954ea3d-a311-4a5b-961d-64584de81989)
    )
    (fp_text value "MountingHole_3.2mm_M3" (at 0 4.2) (layer "F.Fab")
      (effects (font (size 1 1) (thickness 0.15)))
      (tstamp 26afe96a-1bad-4495-b6ff-2d269b2e9115)
    )
    (fp_text user "${REFERENCE}" (at 0 0) (layer "F.Fab")
      (effects (font (size 1 1) (thickness 0.15)))
      (tstamp 082e0e0f-ba84-4030-b9e2-447b4f1330f3)
    )
    (fp_circle (center 0 0) (end 3.2 0) (layer "Cmts.User") (width 0.15) (fill none) (tstamp a29b1e36-27e4-4268-9791-19935403120a))
    (fp_circle (center 0 0) (end 3.45 0) (layer "F.CrtYd") (width 0.05) (fill none) (tstamp 60b0ed44-9bd8-42a5-93ca-017a392a78a2))
    (pad "" np_thru_hole circle (at 0 0) (size 3.2 3.2) (drill 3.2) (layers *.Cu *.Mask) (tstamp d5bf053b-6a6a-4e1a-ac4d-2df2c5562a2e))
  )

  (footprint "FlexyPin:FlexyPin_1x10_P2.00mm" (layer "F.Cu")
    (tedit 0) (tstamp 70d35681-f133-486e-8777-2b811803804d)
    (at 60.7 66)
    (property "Sheetfile" "picofusion-jig.kicad_sch")
    (property "Sheetname" "")
    (path "/5086a162-f81f-4326-89a7-1904fb8ea196")
    (attr through_hole)
    (fp_text reference "J2" (at 0 -1.25) (layer "F.SilkS") hide
      (effects (font (size 1 1) (thickness 0.15)))
      (tstamp b5cf12aa-0311-4395-9f3c-84f80d6eb4d9)
    )
    (fp_text value "Conn_01x10" (at 0 19.3) (layer "F.Fab")
      (effects (font (size 1 1) (thickness 0.15)))
      (tstamp 7bf09b5e-fdcb-4c37-8bfb-8b4b5f7439bf)
    )
    (fp_line (start -1.1 -0.6) (end 2.7 -0.6) (layer "F.CrtYd") (width 0.1) (tstamp 1adffaa0-4cde-4736-a0d9-5497c95ad7b7))
    (fp_line (start 2.7 -0.6) (end 2.7 18.6) (layer "F.CrtYd") (width 0.1) (tstamp 3527be9f-187c-41c4-95a1-25927338b147))
    (fp_line (start 2.7 18.6) (end -1.1 18.6) (layer "F.CrtYd") (width 0.1) (tstamp 5ae1e0ea-9878-4dd5-b8ac-853fdb8a0e7a))
    (fp_line (start -1.1 18.6) (end -1.1 -0.6) (layer "F.CrtYd") (width 0.1) (tstamp 89113bea-c7ff-4219-8c58-2389e849c134))
    (pad "" thru_hole oval locked (at 1.55 10) (size 2 0.95) (drill oval 1.7 0.65) (layers *.Cu *.Mask) (tstamp 0dbdc435-12d9-4417-9622-3fa78996deb1))
    (pad "" thru_hole oval locked (at 1.55 4) (size 2 0.95) (drill oval 1.7 0.65) (layers *.Cu *.Mask) (tstamp 2a9bf428-5603-4d87-ba92-d9eb1eb9487e))
    (pad "" thru_hole oval locked (at 1.55 18) (size 2 0.95) (drill oval 1.7 0.65) (layers *.Cu *.Mask) (tstamp 79b09fe4-a94f-4e15-ada9-d1b45b7f99b7))
    (pad "" thru_hole oval locked (at 1.55 6) (size 2 0.95) (drill oval 1.7 0.65) (layers *.Cu *.Mask) (tstamp 86ab0fd3-255e-4db8-aa5a-15333d8cde40))
    (pad "" thru_hole oval locked (at 1.55 14) (size 2 0.95) (drill oval 1.7 0.65) (layers *.Cu *.Mask) (tstamp 9644bda3-f40c-4f6f-b41d-0e750a3e427a))
    (pad "" thru_hole oval locked (at 1.55 12) (size 2 0.95) (drill oval 1.7 0.65) (layers *.Cu *.Mask) (tstamp a0644c90-2f06-4338-959f-ab8cca0d89c0))
    (pad "" thru_hole oval locked (at 1.55 0) (size 2 0.95) (drill oval 1.7 0.65) (layers *.Cu *.Mask) (tstamp cfb7cd00-27e6-4bf4-9ef4-61cdd6b692e5))
    (pad "" thru_hole oval locked (at 1.55 8) (size 2 0.95) (drill oval 1.7 0.65) (layers *.Cu *.Mask) (tstamp eaed1c10-d2c4-4297-b778-063c7ab4510b))
    (pad "" thru_hole oval locked (at 1.55 16) (size 2 0.95) (drill oval 1.7 0.65) (layers *.Cu *.Mask) (tstamp ed72db97-e47f-4281-8e9f-62261b046e13))
    (pad "" thru_hole oval locked (at 1.55 2) (size 2 0.95) (drill oval 1.7 0.65) (layers *.Cu *.Mask) (tstamp f2e6feea-47e7-4f73-9bf3-fb428bc15d00))
    (pad "1" thru_hole rect locked (at 0 0) (size 1.3 0.9) (drill 0.6 (offset -0.3 0)) (layers *.Cu *.Mask)
      (net 11 "Net-(J2-Pad1)") (pinfunction "Pin_1") (pintype "passive") (tstamp eb0075f0-e079-4ea9-9c7a-c5fe2f936131))
    (pad "2" thru_hole rect locked (at 0 2) (size 1.3 0.9) (drill 0.6 (offset -0.3 0)) (layers *.Cu *.Mask)
      (net 12 "Net-(J2-Pad2)") (pinfunction "Pin_2") (pintype "passive") (tstamp 6d0a6176-ffb7-46f8-98fa-4221cc6cc8e1))
    (pad "3" thru_hole rect locked (at 0 4) (size 1.3 0.9) (drill 0.6 (offset -0.3 0)) (layers *.Cu *.Mask)
      (net 13 "Net-(J2-Pad3)") (pinfunction "Pin_3") (pintype "passive") (tstamp f093c2bb-bbdd-4d54-9563-4729a51f7fdb))
    (pad "4" thru_hole rect locked (at 0 6) (size 1.3 0.9) (drill 0.6 (offset -0.3 0)) (layers *.Cu *.Mask)
      (net 14 "Net-(J2-Pad4)") (pinfunction "Pin_4") (pintype "passive") (tstamp 48faeb17-e631-45c4-8b10-65e8f84346e0))
    (pad "5" thru_hole rect locked (at 0 8) (size 1.3 0.9) (drill 0.6 (offset -0.3 0)) (layers *.Cu *.Mask)
      (net 15 "Net-(J2-Pad5)") (pinfunction "Pin_5") (pintype "passive") (tstamp 398f308b-3b60-43fd-8c2a-c6b5f45272ca))
    (pad "6" thru_hole rect locked (at 0 10) (size 1.3 0.9) (drill 0.6 (offset -0.3 0)) (layers *.Cu *.Mask)
      (net 16 "Net-(J2-Pad6)") (pinfunction "Pin_6") (pintype "passive") (tstamp 16cd3fca-e76e-4423-a86e-089249f2381d))
    (pad "7" thru_hole rect locked (at 0 12) (size 1.3 0.9) (drill 0.6 (offset -0.3 0)) (layers *.Cu *.Mask)
      (net 17 "Net-(J2-Pad7)") (pinfunction "Pin_7") (pintype "passive") (tstamp 133653ca-3541-4070-9936-806787136e98))
    (pad "8" thru_hole rect locked (at 0 14) (size 1.3 0.9) (drill 0.6 (offset -0.3 0)) (layers *.Cu *.Mask)
      (net 18 "Net-(J2-Pad8)") (pinfunction "Pin_8") (pintype "passive") (tstamp 2550d74e-c571-48be-9efd-8554b086b28e))
    (pad "9" thru_hole rect locked (at 0 16) (size 1.3 0.9) (drill 0.6 (offset -0.3 0)) (layers *.Cu *.Mask)
      (net 19 "Net-(J2-Pad9)") (pinfunction "Pin_9") (pintype "passive") (tstamp bf35e86a-491a-4d5f-9ed5-b1059e80ae34))
    (pad "10" thru_hole rect locked (at 0 18) (size 1.3 0.9) (drill 0.6 (offset -0.3 0)) (layers *.Cu *.Mask)
      (net 20 "Net-(J2-Pad10)") (pinfunction "Pin_10") (pintype "passive") (tstamp 43b8c0f0-5601-488f-9888-35d3567f739c))
    (model "${KIPRJMOD}/../3d/flexypin.step"
      (offset (xyz 0 0 0))
      (scale (xyz 1 1 1))
      (rotate (xyz 0 0 0))
    )
    (model "${KIPRJMOD}/../3d/flexypin.step"
      (offset (xyz 0 -2 0))
      (scale (xyz 1 1 1))
      (rotate (xyz 0 0 0))
    )
    (model "${KIPRJMOD}/../3d/flexypin.step"
      (offset (xyz 0 -4 0))
      (scale (xyz 1 1 1))
      (rotate (xyz 0 0 0))
    )
    (model "${KIPRJMOD}/../3d/flexypin.step"
      (offset (xyz 0 -6 0))
      (scale (xyz 1 1 1))
      (rotate (xyz 0 0 0))
    )
    (model "${KIPRJMOD}/../3d/flexypin.step"
      (offset (xyz 0 -8 0))
      (scale (xyz 1 1 1))
      (rotate (xyz 0 0 0))
    )
    (model "${KIPRJMOD}/../3d/flexypin.step"
      (offset (xyz 0 -10 0))
      (scale (xyz 1 1 1))
      (rotate (xyz 0 0 0))
    )
    (model "${KIPRJMOD}/../3d/flexypin.step"
      (offset (xyz 0 -12 0))
      (scale (xyz 1 1 1))
      (rotate (xyz 0 0 0))
    )
    (model "${KIPRJMOD}/../3d/flexypin.step"
      (offset (xyz 0 -14 0))
      (scale (xyz 1 1 1))
      (rotate (xyz 0 0 0))
    )
    (model "${KIPRJMOD}/../3d/flexypin.step"
      (offset (xyz 0 -16 0))
      (scale (xyz 1 1 1))
      (rotate (xyz 0 0 0))
    )
    (model "${KIPRJMOD}/../3d/flexypin.step"
      (offset (xyz 0 -18 0))
      (scale (xyz 1 1 1))
      (rotate (xyz 0 0 0))
    )
  )

  (footprint "Connector_PinHeader_2.54mm:PinHeader_1x10_P2.54mm_Vertical" (layer "F.Cu")
    (tedit 59FED5CC) (tstamp 7ba67955-a073-45dd-999f-94def4dc9cdf)
    (at 63.675 94.454187 90)
    (descr "Through hole straight pin header, 1x10, 2.54mm pitch, single row")
    (tags "Through hole pin header THT 1x10 2.54mm single row")
    (property "Sheetfile" "picofusion-jig.kicad_sch")
    (property "Sheetname" "")
    (path "/4aeacd53-6d32-43d4-ab36-7cc2e048af2b")
    (attr through_hole)
    (fp_text reference "J8" (at 0 -2.33 90) (layer "F.SilkS") hide
      (effects (font (size 1 1) (thickness 0.15)))
      (tstamp ff818c9c-5803-4810-a4e8-388a24d3fddd)
    )
    (fp_text value "Conn_01x10" (at 0 25.19 90) (layer "F.Fab")
      (effects (font (size 1 1) (thickness 0.15)))
      (tstamp 4e630d57-0099-40a9-ab09-adf2da5877f0)
    )
    (fp_text user "${REFERENCE}" (at 0 11.43) (layer "F.Fab")
      (effects (font (size 1 1) (thickness 0.15)))
      (tstamp c384ae54-f5d0-4a78-89bd-69e305b36924)
    )
    (fp_line (start -1.33 24.19) (end 1.33 24.19) (layer "F.SilkS") (width 0.12) (tstamp 63da8d37-3261-445f-a358-6b1a98bc775d))
    (fp_line (start -1.33 1.27) (end -1.33 24.19) (layer "F.SilkS") (width 0.12) (tstamp 8d89ec5a-4ddd-4708-84b4-6c07dde9bb96))
    (fp_line (start -1.33 -1.33) (end 0 -1.33) (layer "F.SilkS") (width 0.12) (tstamp a7b935a9-b13f-4256-abaf-02f6dafa71c1))
    (fp_line (start -1.33 0) (end -1.33 -1.33) (layer "F.SilkS") (width 0.12) (tstamp e184f4a7-acda-4eaf-8bf9-6af8a5aece91))
    (fp_line (start -1.33 1.27) (end 1.33 1.27) (layer "F.SilkS") (width 0.12) (tstamp f823bd1f-213e-4ebd-b1e5-ab28b824aced))
    (fp_line (start 1.33 1.27) (end 1.33 24.19) (layer "F.SilkS") (width 0.12) (tstamp fac44140-3937-46c1-8e59-cca48c46a5aa))
    (fp_line (start -1.8 -1.8) (end -1.8 24.65) (layer "F.CrtYd") (width 0.05) (tstamp 205e5f7f-bb06-44f1-a98c-905eb907ee59))
    (fp_line (start 1.8 -1.8) (end -1.8 -1.8) (layer "F.CrtYd") (width 0.05) (tstamp 7e01258b-d43f-4e26-9de6-2d27b09d558f))
    (fp_line (start 1.8 24.65) (end 1.8 -1.8) (layer "F.CrtYd") (width 0.05) (tstamp 886bfb98-4d79-42cd-99b7-153c5ed62d34))
    (fp_line (start -1.8 24.65) (end 1.8 24.65) (layer "F.CrtYd") (width 0.05) (tstamp c84f9a58-e06a-48d0-af64-01bd2f919387))
    (fp_line (start 1.27 -1.27) (end 1.27 24.13) (layer "F.Fab") (width 0.1) (tstamp 5e8e16f0-d62c-4b61-897a-02725dec7324))
    (fp_line (start -1.27 -0.635) (end -0.635 -1.27) (layer "F.Fab") (width 0.1) (tstamp 67e48a74-6d13-465d-8d63-da4d088fdd23))
    (fp_line (start 1.27 24.13) (end -1.27 24.13) (layer "F.Fab") (width 0.1) (tstamp 69b9c3c2-caf2-414d-9e9d-305613d2e6d8))
    (fp_line (start -1.27 24.13) (end -1.27 -0.635) (layer "F.Fab") (width 0.1) (tstamp c78ec250-23bf-4223-a981-df6da1ae7692))
    (fp_line (start -0.635 -1.27) (end 1.27 -1.27) (layer "F.Fab") (width 0.1) (tstamp ff982a22-a9cd-4321-b9fb-5255dd267883))
    (pad "1" thru_hole rect (at 0 0 90) (size 1.7 1.7) (drill 1) (layers *.Cu *.Mask)
      (net 31 "Net-(J4-Pad1)") (pinfunction "Pin_1") (pintype "passive") (tstamp b279c0f8-bbe2-4ec7-ba2d-6d1a22b7b585))
    (pad "2" thru_hole oval (at 0 2.54 90) (size 1.7 1.7) (drill 1) (layers *.Cu *.Mask)
      (net 32 "Net-(J4-Pad2)") (pinfunction "Pin_2") (pintype "passive") (tstamp 6d3bfe05-fbd4-453f-989d-13f2eb82f365))
    (pad "3" thru_hole oval (at 0 5.08 90) (size 1.7 1.7) (drill 1) (layers *.Cu *.Mask)
      (net 33 "Net-(J4-Pad3)") (pinfunction "Pin_3") (pintype "passive") (tstamp c4ec67b8-0f9f-4025-a47a-75fafedc828b))
    (pad "4" thru_hole oval (at 0 7.62 90) (size 1.7 1.7) (drill 1) (layers *.Cu *.Mask)
      (net 34 "Net-(J4-Pad4)") (pinfunction "Pin_4") (pintype "passive") (tstamp 9dfdfd87-bb56-4ca0-9386-059e6eb4d271))
    (pad "5" thru_hole oval (at 0 10.16 90) (size 1.7 1.7) (drill 1) (layers *.Cu *.Mask)
      (net 35 "Net-(J4-Pad5)") (pinfunction "Pin_5") (pintype "passive") (tstamp 0118b7c3-58ea-4bc2-aed1-b1530355eb33))
    (pad "6" thru_hole oval (at 0 12.7 90) (size 1.7 1.7) (drill 1) (layers *.Cu *.Mask)
      (net 36 "Net-(J4-Pad6)") (pinfunction "Pin_6") (pintype "passive") (tstamp d4e8a4e7-b8f2-4c97-9158-47ce244643ab))
    (pad "7" thru_hole oval (at 0 15.24 90) (size 1.7 1.7) (drill 1) (layers *.Cu *.Mask)
      (net 37 "Net-(J4-Pad7)") (pinfunction "Pin_7") (pintype "passive") (tstamp 0e43dce6-cbf9-4e65-8923-e94fe27c39bd))
    (pad "8" thru_hole oval (at 0 17.78 90) (size 1.7 1.7) (drill 1) (layers *.Cu *.Mask)
      (net 38 "Net-(J4-Pad8)") (pinfunction "Pin_8") (pintype "passive") (tstamp 9dbb3c4b-9652-4ddd-93b9-7f5f76c47c4a))
    (pad "9" thru_hole oval (at 0 20.32 90) (size 1.7 1.7) (drill 1) (layers *.Cu *.Mask)
      (net 39 "Net-(J4-Pad9)") (pinfunction "Pin_9") (pintype "passive") (tstamp 6c3b3779-6bea-4ab8-af3b-bff3e2f02768))
    (pad "10" thru_hole oval (at 0 22.86 90) (size 1.7 1.7) (drill 1) (layers *.Cu *.Mask)
      (net 40 "Net-(J4-Pad10)") (pinfunction "Pin_10") (pintype "passive") (tstamp 36ce6f31-d9ee-4b33-a969-195a1572d945))
    (model "${KICAD6_3DMODEL_DIR}/Connector_PinHeader_2.54mm.3dshapes/PinHeader_1x10_P2.54mm_Vertical.wrl"
      (offset (xyz 0 0 0))
      (scale (xyz 1 1 1))
      (rotate (xyz 0 0 0))
    )
  )

  (footprint "FlexyPin:FlexyPin_1x10_P2.00mm" (layer "F.Cu")
    (tedit 0) (tstamp a5062e12-6d91-4968-b62c-f246e32ac5b0)
    (at 66 89.3 90)
    (property "Sheetfile" "picofusion-jig.kicad_sch")
    (property "Sheetname" "")
    (path "/04b38ed0-d793-4992-a94d-52ed8adf55e7")
    (attr through_hole)
    (fp_text reference "J4" (at 0 -1.25 90) (layer "F.SilkS") hide
      (effects (font (size 1 1) (thickness 0.15)))
      (tstamp 83371572-10e3-47e4-b4a9-d6ae9b1a9c51)
    )
    (fp_text value "Conn_01x10" (at 0 19.3 90) (layer "F.Fab")
      (effects (font (size 1 1) (thickness 0.15)))
      (tstamp 78df27ff-cf82-450f-819e-bbb11ede5d5c)
    )
    (fp_line (start -1.1 -0.6) (end 2.7 -0.6) (layer "F.CrtYd") (width 0.1) (tstamp 95eded8c-2c69-4208-949a-aba26f39a747))
    (fp_line (start 2.7 -0.6) (end 2.7 18.6) (layer "F.CrtYd") (width 0.1) (tstamp 9ef6ec8f-cfd1-4c4f-aeaa-5047d189e797))
    (fp_line (start 2.7 18.6) (end -1.1 18.6) (layer "F.CrtYd") (width 0.1) (tstamp a7c0d3b2-2b84-400f-8042-97891855c402))
    (fp_line (start -1.1 18.6) (end -1.1 -0.6) (layer "F.CrtYd") (width 0.1) (tstamp e78fd50d-55f6-4c70-9de0-3ed4f0776c25))
    (pad "" thru_hole oval locked (at 1.55 0 90) (size 2 0.95) (drill oval 1.7 0.65) (layers *.Cu *.Mask) (tstamp 027f3161-cc9c-450d-b821-bde919ef697d))
    (pad "" thru_hole oval locked (at 1.55 2 90) (size 2 0.95) (drill oval 1.7 0.65) (layers *.Cu *.Mask) (tstamp 2c1181d8-dc7d-44d6-ab80-76b286d9ca63))
    (pad "" thru_hole oval locked (at 1.55 12 90) (size 2 0.95) (drill oval 1.7 0.65) (layers *.Cu *.Mask) (tstamp 47e66d8a-4091-41c8-bc5f-4a502d2f2cbd))
    (pad "" thru_hole oval locked (at 1.55 6 90) (size 2 0.95) (drill oval 1.7 0.65) (layers *.Cu *.Mask) (tstamp 5f67f9d5-96c7-4350-9c47-dd36698b632b))
    (pad "" thru_hole oval locked (at 1.55 4 90) (size 2 0.95) (drill oval 1.7 0.65) (layers *.Cu *.Mask) (tstamp 652d9062-2bdc-44ac-bf11-fa35617a36d3))
    (pad "" thru_hole oval locked (at 1.55 10 90) (size 2 0.95) (drill oval 1.7 0.65) (layers *.Cu *.Mask) (tstamp 6bdc640b-f90e-4b58-ae66-f79578c04560))
    (pad "" thru_hole oval locked (at 1.55 18 90) (size 2 0.95) (drill oval 1.7 0.65) (layers *.Cu *.Mask) (tstamp 72c0af8d-aae2-4ed8-8f6c-20990ef5604e))
    (pad "" thru_hole oval locked (at 1.55 16 90) (size 2 0.95) (drill oval 1.7 0.65) (layers *.Cu *.Mask) (tstamp a7bb36e9-8acc-4c08-8017-0688dbc7bdef))
    (pad "" thru_hole oval locked (at 1.55 8 90) (size 2 0.95) (drill oval 1.7 0.65) (layers *.Cu *.Mask) (tstamp ae874896-2ba2-476a-8047-32e376fd1f50))
    (pad "" thru_hole oval locked (at 1.55 14 90) (size 2 0.95) (drill oval 1.7 0.65) (layers *.Cu *.Mask) (tstamp e90e7c20-30d8-49bc-8b4a-7e1ff2deffd8))
    (pad "1" thru_hole rect locked (at 0 0 90) (size 1.3 0.9) (drill 0.6 (offset -0.3 0)) (layers *.Cu *.Mask)
      (net 31 "Net-(J4-Pad1)") (pinfunction "Pin_1") (pintype "passive") (tstamp 4e47dd74-7012-4c66-9e5b-0079b80a6bb5))
    (pad "2" thru_hole rect locked (at 0 2 90) (size 1.3 0.9) (drill 0.6 (offset -0.3 0)) (layers *.Cu *.Mask)
      (net 32 "Net-(J4-Pad2)") (pinfunction "Pin_2") (pintype "passive") (tstamp ce4843cc-4dcd-4f75-96d2-71b428d832f6))
    (pad "3" thru_hole rect locked (at 0 4 90) (size 1.3 0.9) (drill 0.6 (offset -0.3 0)) (layers *.Cu *.Mask)
      (net 33 "Net-(J4-Pad3)") (pinfunction "Pin_3") (pintype "passive") (tstamp 5d4cbb26-76c3-4030-a402-f2693c7d2e95))
    (pad "4" thru_hole rect locked (at 0 6 90) (size 1.3 0.9) (drill 0.6 (offset -0.3 0)) (layers *.Cu *.Mask)
      (net 34 "Net-(J4-Pad4)") (pinfunction "Pin_4") (pintype "passive") (tstamp 85e29768-a6d4-48ea-95c1-c70ca7ac4650))
    (pad "5" thru_hole rect locked (at 0 8 90) (size 1.3 0.9) (drill 0.6 (offset -0.3 0)) (layers *.Cu *.Mask)
      (net 35 "Net-(J4-Pad5)") (pinfunction "Pin_5") (pintype "passive") (tstamp db1dfbef-c6e7-461f-8200-d2287903d6c9))
    (pad "6" thru_hole rect locked (at 0 10 90) (size 1.3 0.9) (drill 0.6 (offset -0.3 0)) (layers *.Cu *.Mask)
      (net 36 "Net-(J4-Pad6)") (pinfunction "Pin_6") (pintype "passive") (tstamp d35550b0-ea40-459a-943c-b6bb2f92d2eb))
    (pad "7" thru_hole rect locked (at 0 12 90) (size 1.3 0.9) (drill 0.6 (offset -0.3 0)) (layers *.Cu *.Mask)
      (net 37 "Net-(J4-Pad7)") (pinfunction "Pin_7") (pintype "passive") (tstamp 7bd01a31-01ff-4948-a3db-c1004a2619ea))
    (pad "8" thru_hole rect locked (at 0 14 90) (size 1.3 0.9) (drill 0.6 (offset -0.3 0)) (layers *.Cu *.Mask)
      (net 38 "Net-(J4-Pad8)") (pinfunction "Pin_8") (pintype "passive") (tstamp d04ff21a-f249-4bab-bbe4-7134ed441a03))
    (pad "9" thru_hole rect locked (at 0 16 90) (size 1.3 0.9) (drill 0.6 (offset -0.3 0)) (layers *.Cu *.Mask)
      (net 39 "Net-(J4-Pad9)") (pinfunction "Pin_9") (pintype "passive") (tstamp f89f1f4f-7d78-4540-b8e0-96ba6252cffe))
    (pad "10" thru_hole rect locked (at 0 18 90) (size 1.3 0.9) (drill 0.6 (offset -0.3 0)) (layers *.Cu *.Mask)
      (net 40 "Net-(J4-Pad10)") (pinfunction "Pin_10") (pintype "passive") (tstamp 90763c50-d9e5-4e55-a43a-88d54da8607c))
    (model "${KIPRJMOD}/../3d/flexypin.step"
      (offset (xyz 0 0 0))
      (scale (xyz 1 1 1))
      (rotate (xyz 0 0 0))
    )
    (model "${KIPRJMOD}/../3d/flexypin.step"
      (offset (xyz 0 -2 0))
      (scale (xyz 1 1 1))
      (rotate (xyz 0 0 0))
    )
    (model "${KIPRJMOD}/../3d/flexypin.step"
      (offset (xyz 0 -4 0))
      (scale (xyz 1 1 1))
      (rotate (xyz 0 0 0))
    )
    (model "${KIPRJMOD}/../3d/flexypin.step"
      (offset (xyz 0 -6 0))
      (scale (xyz 1 1 1))
      (rotate (xyz 0 0 0))
    )
    (model "${KIPRJMOD}/../3d/flexypin.step"
      (offset (xyz 0 -8 0))
      (scale (xyz 1 1 1))
      (rotate (xyz 0 0 0))
    )
    (model "${KIPRJMOD}/../3d/flexypin.step"
      (offset (xyz 0 -10 0))
      (scale (xyz 1 1 1))
      (rotate (xyz 0 0 0))
    )
    (model "${KIPRJMOD}/../3d/flexypin.step"
      (offset (xyz 0 -12 0))
      (scale (xyz 1 1 1))
      (rotate (xyz 0 0 0))
    )
    (model "${KIPRJMOD}/../3d/flexypin.step"
      (offset (xyz 0 -14 0))
      (scale (xyz 1 1 1))
      (rotate (xyz 0 0 0))
    )
    (model "${KIPRJMOD}/../3d/flexypin.step"
      (offset (xyz 0 -16 0))
      (scale (xyz 1 1 1))
      (rotate (xyz 0 0 0))
    )
    (model "${KIPRJMOD}/../3d/flexypin.step"
      (offset (xyz 0 -18 0))
      (scale (xyz 1 1 1))
      (rotate (xyz 0 0 0))
    )
  )

  (footprint "MountingHole:MountingHole_3.2mm_M3" (layer "F.Cu")
    (tedit 56D1B4CB) (tstamp b18e80eb-a6c5-4df1-9478-3f9e8385caa8)
    (at 96.4 96.4)
    (descr "Mounting Hole 3.2mm, no annular, M3")
    (tags "mounting hole 3.2mm no annular m3")
    (attr exclude_from_pos_files exclude_from_bom)
    (fp_text reference "REF**" (at 0 -4.2) (layer "F.SilkS") hide
      (effects (font (size 1 1) (thickness 0.15)))
      (tstamp 1954ea3d-a311-4a5b-961d-64584de81989)
    )
    (fp_text value "MountingHole_3.2mm_M3" (at 0 4.2) (layer "F.Fab")
      (effects (font (size 1 1) (thickness 0.15)))
      (tstamp 26afe96a-1bad-4495-b6ff-2d269b2e9115)
    )
    (fp_text user "${REFERENCE}" (at 0 0) (layer "F.Fab")
      (effects (font (size 1 1) (thickness 0.15)))
      (tstamp 082e0e0f-ba84-4030-b9e2-447b4f1330f3)
    )
    (fp_circle (center 0 0) (end 3.2 0) (layer "Cmts.User") (width 0.15) (fill none) (tstamp a29b1e36-27e4-4268-9791-19935403120a))
    (fp_circle (center 0 0) (end 3.45 0) (layer "F.CrtYd") (width 0.05) (fill none) (tstamp 60b0ed44-9bd8-42a5-93ca-017a392a78a2))
    (pad "" np_thru_hole circle (at 0 0) (size 3.2 3.2) (drill 3.2) (layers *.Cu *.Mask) (tstamp d5bf053b-6a6a-4e1a-ac4d-2df2c5562a2e))
  )

  (footprint "MountingHole:MountingHole_3.2mm_M3" (layer "F.Cu")
    (tedit 56D1B4CB) (tstamp b1eb2003-e135-49e0-994b-8cf67a7234c0)
    (at 96.4 53.6)
    (descr "Mounting Hole 3.2mm, no annular, M3")
    (tags "mounting hole 3.2mm no annular m3")
    (attr exclude_from_pos_files exclude_from_bom)
    (fp_text reference "REF**" (at 0 -4.2) (layer "F.SilkS") hide
      (effects (font (size 1 1) (thickness 0.15)))
      (tstamp 1954ea3d-a311-4a5b-961d-64584de81989)
    )
    (fp_text value "MountingHole_3.2mm_M3" (at 0 4.2) (layer "F.Fab")
      (effects (font (size 1 1) (thickness 0.15)))
      (tstamp 26afe96a-1bad-4495-b6ff-2d269b2e9115)
    )
    (fp_text user "${REFERENCE}" (at 0 0) (layer "F.Fab")
      (effects (font (size 1 1) (thickness 0.15)))
      (tstamp 082e0e0f-ba84-4030-b9e2-447b4f1330f3)
    )
    (fp_circle (center 0 0) (end 3.2 0) (layer "Cmts.User") (width 0.15) (fill none) (tstamp a29b1e36-27e4-4268-9791-19935403120a))
    (fp_circle (center 0 0) (end 3.45 0) (layer "F.CrtYd") (width 0.05) (fill none) (tstamp 60b0ed44-9bd8-42a5-93ca-017a392a78a2))
    (pad "" np_thru_hole circle (at 0 0) (size 3.2 3.2) (drill 3.2) (layers *.Cu *.Mask) (tstamp d5bf053b-6a6a-4e1a-ac4d-2df2c5562a2e))
  )

  (footprint "Connector_PinHeader_2.54mm:PinHeader_1x10_P2.54mm_Vertical" (layer "F.Cu")
    (tedit 59FED5CC) (tstamp b9d1e1bd-c67b-44e4-939e-0337f9d34433)
    (at 94.367741 86.525 180)
    (descr "Through hole straight pin header, 1x10, 2.54mm pitch, single row")
    (tags "Through hole pin header THT 1x10 2.54mm single row")
    (property "Sheetfile" "picofusion-jig.kicad_sch")
    (property "Sheetname" "")
    (path "/f5b9f04e-4e8e-48aa-bfc6-218d6573c425")
    (attr through_hole)
    (fp_text reference "J7" (at 0 -2.33) (layer "F.SilkS") hide
      (effects (font (size 1 1) (thickness 0.15)))
      (tstamp e0a4e6f4-9b2f-4b73-9c87-e19f31bb48ba)
    )
    (fp_text value "Conn_01x10" (at 0 25.19) (layer "F.Fab")
      (effects (font (size 1 1) (thickness 0.15)))
      (tstamp a35b3cc9-4da4-435d-8b86-6d9d6efcdc75)
    )
    (fp_text user "${REFERENCE}" (at 0 11.43 90) (layer "F.Fab")
      (effects (font (size 1 1) (thickness 0.15)))
      (tstamp fdab794e-30c4-4501-90ed-c955d962ce0b)
    )
    (fp_line (start -1.33 0) (end -1.33 -1.33) (layer "F.SilkS") (width 0.12) (tstamp 3b1a73c9-bfc1-4ea7-be3a-8b56ef0d0f13))
    (fp_line (start 1.33 1.27) (end 1.33 24.19) (layer "F.SilkS") (width 0.12) (tstamp 3d142e44-1f0a-4ecb-a40b-b40c5c57dfa9))
    (fp_line (start -1.33 24.19) (end 1.33 24.19) (layer "F.SilkS") (width 0.12) (tstamp 881c22b7-b58c-4637-87c9-669132918fcc))
    (fp_line (start -1.33 1.27) (end 1.33 1.27) (layer "F.SilkS") (width 0.12) (tstamp bc987d1a-a0d5-4654-8646-5b55b05286f8))
    (fp_line (start -1.33 1.27) (end -1.33 24.19) (layer "F.SilkS") (width 0.12) (tstamp d3f387a5-1931-41fe-93da-dd1908734a15))
    (fp_line (start -1.33 -1.33) (end 0 -1.33) (layer "F.SilkS") (width 0.12) (tstamp efb03391-5ae8-4001-94a3-711541301611))
    (fp_line (start 1.8 24.65) (end 1.8 -1.8) (layer "F.CrtYd") (width 0.05) (tstamp 1dd3bd55-a305-4cda-ad53-a55a1b8ffec0))
    (fp_line (start 1.8 -1.8) (end -1.8 -1.8) (layer "F.CrtYd") (width 0.05) (tstamp 589af5ee-7798-4890-9cb9-00e1f57a8ff9))
    (fp_line (start -1.8 -1.8) (end -1.8 24.65) (layer "F.CrtYd") (width 0.05) (tstamp 71b78c9f-674b-47f3-8662-1540bec63f30))
    (fp_line (start -1.8 24.65) (end 1.8 24.65) (layer "F.CrtYd") (width 0.05) (tstamp f0764689-b663-4a90-b2a5-7b4dd522be9d))
    (fp_line (start 1.27 24.13) (end -1.27 24.13) (layer "F.Fab") (width 0.1) (tstamp 0e1c800c-bb31-4585-a528-74723b07a01b))
    (fp_line (start -0.635 -1.27) (end 1.27 -1.27) (layer "F.Fab") (width 0.1) (tstamp 6458a710-b6b2-452e-b9d1-503bf1d0e209))
    (fp_line (start 1.27 -1.27) (end 1.27 24.13) (layer "F.Fab") (width 0.1) (tstamp 64a09282-a56b-42a0-8b8a-46679da92b06))
    (fp_line (start -1.27 -0.635) (end -0.635 -1.27) (layer "F.Fab") (width 0.1) (tstamp cd341a1e-a42a-4adf-afbe-1b722ff7324b))
    (fp_line (start -1.27 24.13) (end -1.27 -0.635) (layer "F.Fab") (width 0.1) (tstamp db5acd5f-4632-4cda-a398-b232ede131a5))
    (pad "1" thru_hole rect (at 0 0 180) (size 1.7 1.7) (drill 1) (layers *.Cu *.Mask)
      (net 21 "Net-(J3-Pad1)") (pinfunction "Pin_1") (pintype "passive") (tstamp 1fcf330d-2cea-41a8-adbe-9f852ddcccbf))
    (pad "2" thru_hole oval (at 0 2.54 180) (size 1.7 1.7) (drill 1) (layers *.Cu *.Mask)
      (net 22 "Net-(J3-Pad2)") (pinfunction "Pin_2") (pintype "passive") (tstamp 9516cd1a-a787-4763-994f-933d010ec4eb))
    (pad "3" thru_hole oval (at 0 5.08 180) (size 1.7 1.7) (drill 1) (layers *.Cu *.Mask)
      (net 23 "Net-(J3-Pad3)") (pinfunction "Pin_3") (pintype "passive") (tstamp dbf8a278-79eb-441b-a7b8-a8c708daa369))
    (pad "4" thru_hole oval (at 0 7.62 180) (size 1.7 1.7) (drill 1) (layers *.Cu *.Mask)
      (net 24 "Net-(J3-Pad4)") (pinfunction "Pin_4") (pintype "passive") (tstamp 794dbaf6-591e-420f-8f82-b9b9626398d6))
    (pad "5" thru_hole oval (at 0 10.16 180) (size 1.7 1.7) (drill 1) (layers *.Cu *.Mask)
      (net 25 "Net-(J3-Pad5)") (pinfunction "Pin_5") (pintype "passive") (tstamp 6f1e7662-190a-4c1c-b708-6a0b35760c5f))
    (pad "6" thru_hole oval (at 0 12.7 180) (size 1.7 1.7) (drill 1) (layers *.Cu *.Mask)
      (net 26 "Net-(J3-Pad6)") (pinfunction "Pin_6") (pintype "passive") (tstamp 71ddbd8d-6da4-4bd7-9713-b6e2fdda1f2d))
    (pad "7" thru_hole oval (at 0 15.24 180) (size 1.7 1.7) (drill 1) (layers *.Cu *.Mask)
      (net 27 "Net-(J3-Pad7)") (pinfunction "Pin_7") (pintype "passive") (tstamp d8003567-fecc-4f70-bc17-5560f198cf8c))
    (pad "8" thru_hole oval (at 0 17.78 180) (size 1.7 1.7) (drill 1) (layers *.Cu *.Mask)
      (net 28 "Net-(J3-Pad8)") (pinfunction "Pin_8") (pintype "passive") (tstamp 487a474d-165a-474c-b3b7-513eb8c71f0e))
    (pad "9" thru_hole oval (at 0 20.32 180) (size 1.7 1.7) (drill 1) (layers *.Cu *.Mask)
      (net 29 "Net-(J3-Pad9)") (pinfunction "Pin_9") (pintype "passive") (tstamp f047a1c6-622c-43e9-8a32-d7075094d075))
    (pad "10" thru_hole oval (at 0 22.86 180) (size 1.7 1.7) (drill 1) (layers *.Cu *.Mask)
      (net 30 "Net-(J3-Pad10)") (pinfunction "Pin_10") (pintype "passive") (tstamp 6b9cebec-0633-4437-ba76-cf27fb792c51))
    (model "${KICAD6_3DMODEL_DIR}/Connector_PinHeader_2.54mm.3dshapes/PinHeader_1x10_P2.54mm_Vertical.wrl"
      (offset (xyz 0 0 0))
      (scale (xyz 1 1 1))
      (rotate (xyz 0 0 0))
    )
  )

  (footprint "MountingHole:MountingHole_3.2mm_M3" (layer "F.Cu")
    (tedit 56D1B4CB) (tstamp c1df673b-07a1-4add-af6f-b6e4096018a5)
    (at 53.6 53.6)
    (descr "Mounting Hole 3.2mm, no annular, M3")
    (tags "mounting hole 3.2mm no annular m3")
    (attr exclude_from_pos_files exclude_from_bom)
    (fp_text reference "REF**" (at 0 -4.2) (layer "F.SilkS") hide
      (effects (font (size 1 1) (thickness 0.15)))
      (tstamp 1954ea3d-a311-4a5b-961d-64584de81989)
    )
    (fp_text value "MountingHole_3.2mm_M3" (at 0 4.2) (layer "F.Fab")
      (effects (font (size 1 1) (thickness 0.15)))
      (tstamp 26afe96a-1bad-4495-b6ff-2d269b2e9115)
    )
    (fp_text user "${REFERENCE}" (at 0 0) (layer "F.Fab")
      (effects (font (size 1 1) (thickness 0.15)))
      (tstamp 082e0e0f-ba84-4030-b9e2-447b4f1330f3)
    )
    (fp_circle (center 0 0) (end 3.2 0) (layer "Cmts.User") (width 0.15) (fill none) (tstamp a29b1e36-27e4-4268-9791-19935403120a))
    (fp_circle (center 0 0) (end 3.45 0) (layer "F.CrtYd") (width 0.05) (fill none) (tstamp 60b0ed44-9bd8-42a5-93ca-017a392a78a2))
    (pad "" np_thru_hole circle (at 0 0) (size 3.2 3.2) (drill 3.2) (layers *.Cu *.Mask) (tstamp d5bf053b-6a6a-4e1a-ac4d-2df2c5562a2e))
  )

  (footprint "FlexyPin:FlexyPin_1x10_P2.00mm" (layer "F.Cu")
    (tedit 0) (tstamp c2f7f96f-af5a-4886-884a-d01a9e8eefea)
    (at 89.3 84 180)
    (property "Sheetfile" "picofusion-jig.kicad_sch")
    (property "Sheetname" "")
    (path "/3f7515b7-8987-46fa-be90-242c13b7e7ac")
    (attr through_hole)
    (fp_text reference "J3" (at 0 -1.25) (layer "F.SilkS") hide
      (effects (font (size 1 1) (thickness 0.15)))
      (tstamp ff0d1b8b-9cf4-4f60-917e-8268bc2be043)
    )
    (fp_text value "Conn_01x10" (at 0 19.3) (layer "F.Fab")
      (effects (font (size 1 1) (thickness 0.15)))
      (tstamp 479b7a73-f4a7-4d09-98a1-88c5233c81c7)
    )
    (fp_line (start -1.1 18.6) (end -1.1 -0.6) (layer "F.CrtYd") (width 0.1) (tstamp 1e619b7b-ce42-4ed4-b956-3679a6739c87))
    (fp_line (start 2.7 18.6) (end -1.1 18.6) (layer "F.CrtYd") (width 0.1) (tstamp 1eaff4b3-8016-47e5-be3e-9754fd26dd29))
    (fp_line (start -1.1 -0.6) (end 2.7 -0.6) (layer "F.CrtYd") (width 0.1) (tstamp 4acb2a09-79b3-4f31-a009-12dcfd5cc7cf))
    (fp_line (start 2.7 -0.6) (end 2.7 18.6) (layer "F.CrtYd") (width 0.1) (tstamp 8138b1a1-fb72-4022-b1e1-29817f12376e))
    (pad "" thru_hole oval locked (at 1.55 10 180) (size 2 0.95) (drill oval 1.7 0.65) (layers *.Cu *.Mask) (tstamp 0102ed8b-f87d-4e99-b3a5-569fd5d51ec9))
    (pad "" thru_hole oval locked (at 1.55 12 180) (size 2 0.95) (drill oval 1.7 0.65) (layers *.Cu *.Mask) (tstamp 2d2e90ee-cb4c-4256-b9f2-9c67bb5403e1))
    (pad "" thru_hole oval locked (at 1.55 4 180) (size 2 0.95) (drill oval 1.7 0.65) (layers *.Cu *.Mask) (tstamp 41999562-7d1a-4323-99dc-15bb1fdad1c2))
    (pad "" thru_hole oval locked (at 1.55 16 180) (size 2 0.95) (drill oval 1.7 0.65) (layers *.Cu *.Mask) (tstamp 452688a7-a4a9-4d1b-93cf-5823d2046ae2))
    (pad "" thru_hole oval locked (at 1.55 6 180) (size 2 0.95) (drill oval 1.7 0.65) (layers *.Cu *.Mask) (tstamp 8105001a-4974-483a-b4f8-fd15d81f4193))
    (pad "" thru_hole oval locked (at 1.55 0 180) (size 2 0.95) (drill oval 1.7 0.65) (layers *.Cu *.Mask) (tstamp 841aeba1-60bd-484c-a945-983240e77745))
    (pad "" thru_hole oval locked (at 1.55 18 180) (size 2 0.95) (drill oval 1.7 0.65) (layers *.Cu *.Mask) (tstamp 908dc4b2-46f7-4536-b4ac-0617b3dbb829))
    (pad "" thru_hole oval locked (at 1.55 2 180) (size 2 0.95) (drill oval 1.7 0.65) (layers *.Cu *.Mask) (tstamp 99163cc3-da76-41da-b756-3afe0cd007a3))
    (pad "" thru_hole oval locked (at 1.55 14 180) (size 2 0.95) (drill oval 1.7 0.65) (layers *.Cu *.Mask) (tstamp e48dc65c-b518-410e-87dd-e5f678e1bf6a))
    (pad "" thru_hole oval locked (at 1.55 8 180) (size 2 0.95) (drill oval 1.7 0.65) (layers *.Cu *.Mask) (tstamp fcfa371e-0dfd-419a-8df4-4cc0c2850a69))
    (pad "1" thru_hole rect locked (at 0 0 180) (size 1.3 0.9) (drill 0.6 (offset -0.3 0)) (layers *.Cu *.Mask)
      (net 21 "Net-(J3-Pad1)") (pinfunction "Pin_1") (pintype "passive") (tstamp b04eec42-6d48-498d-9298-d646e8e3891b))
    (pad "2" thru_hole rect locked (at 0 2 180) (size 1.3 0.9) (drill 0.6 (offset -0.3 0)) (layers *.Cu *.Mask)
      (net 22 "Net-(J3-Pad2)") (pinfunction "Pin_2") (pintype "passive") (tstamp 4f9084b7-c793-4509-afad-5d61fa0f5b9e))
    (pad "3" thru_hole rect locked (at 0 4 180) (size 1.3 0.9) (drill 0.6 (offset -0.3 0)) (layers *.Cu *.Mask)
      (net 23 "Net-(J3-Pad3)") (pinfunction "Pin_3") (pintype "passive") (tstamp a059a888-08ac-4b1f-9a86-6f9323ccd576))
    (pad "4" thru_hole rect locked (at 0 6 180) (size 1.3 0.9) (drill 0.6 (offset -0.3 0)) (layers *.Cu *.Mask)
      (net 24 "Net-(J3-Pad4)") (pinfunction "Pin_4") (pintype "passive") (tstamp dce80480-6665-44d1-bc0e-20419c5f297a))
    (pad "5" thru_hole rect locked (at 0 8 180) (size 1.3 0.9) (drill 0.6 (offset -0.3 0)) (layers *.Cu *.Mask)
      (net 25 "Net-(J3-Pad5)") (pinfunction "Pin_5") (pintype "passive") (tstamp ca68972b-91c3-410a-a261-9273b51735b6))
    (pad "6" thru_hole rect locked (at 0 10 180) (size 1.3 0.9) (drill 0.6 (offset -0.3 0)) (layers *.Cu *.Mask)
      (net 26 "Net-(J3-Pad6)") (pinfunction "Pin_6") (pintype "passive") (tstamp c70f10e8-2c97-4c39-955b-6c7a05fa1e61))
    (pad "7" thru_hole rect locked (at 0 12 180) (size 1.3 0.9) (drill 0.6 (offset -0.3 0)) (layers *.Cu *.Mask)
      (net 27 "Net-(J3-Pad7)") (pinfunction "Pin_7") (pintype "passive") (tstamp b3a4fd7f-6537-4705-a132-6b2c120730c7))
    (pad "8" thru_hole rect locked (at 0 14 180) (size 1.3 0.9) (drill 0.6 (offset -0.3 0)) (layers *.Cu *.Mask)
      (net 28 "Net-(J3-Pad8)") (pinfunction "Pin_8") (pintype "passive") (tstamp 0728ddc4-b824-43ee-9a79-c887ba47776e))
    (pad "9" thru_hole rect locked (at 0 16 180) (size 1.3 0.9) (drill 0.6 (offset -0.3 0)) (layers *.Cu *.Mask)
      (net 29 "Net-(J3-Pad9)") (pinfunction "Pin_9") (pintype "passive") (tstamp cae28b42-96f3-46eb-8cfc-ba673dba4760))
    (pad "10" thru_hole rect locked (at 0 18 180) (size 1.3 0.9) (drill 0.6 (offset -0.3 0)) (layers *.Cu *.Mask)
      (net 30 "Net-(J3-Pad10)") (pinfunction "Pin_10") (pintype "passive") (tstamp 48cb414d-ef6e-4d97-a152-bd05acb3e125))
    (model "${KIPRJMOD}/../3d/flexypin.step"
      (offset (xyz 0 0 0))
      (scale (xyz 1 1 1))
      (rotate (xyz 0 0 0))
    )
    (model "${KIPRJMOD}/../3d/flexypin.step"
      (offset (xyz 0 -2 0))
      (scale (xyz 1 1 1))
      (rotate (xyz 0 0 0))
    )
    (model "${KIPRJMOD}/../3d/flexypin.step"
      (offset (xyz 0 -4 0))
      (scale (xyz 1 1 1))
      (rotate (xyz 0 0 0))
    )
    (model "${KIPRJMOD}/../3d/flexypin.step"
      (offset (xyz 0 -6 0))
      (scale (xyz 1 1 1))
      (rotate (xyz 0 0 0))
    )
    (model "${KIPRJMOD}/../3d/flexypin.step"
      (offset (xyz 0 -8 0))
      (scale (xyz 1 1 1))
      (rotate (xyz 0 0 0))
    )
    (model "${KIPRJMOD}/../3d/flexypin.step"
      (offset (xyz 0 -10 0))
      (scale (xyz 1 1 1))
      (rotate (xyz 0 0 0))
    )
    (model "${KIPRJMOD}/../3d/flexypin.step"
      (offset (xyz 0 -12 0))
      (scale (xyz 1 1 1))
      (rotate (xyz 0 0 0))
    )
    (model "${KIPRJMOD}/../3d/flexypin.step"
      (offset (xyz 0 -14 0))
      (scale (xyz 1 1 1))
      (rotate (xyz 0 0 0))
    )
    (model "${KIPRJMOD}/../3d/flexypin.step"
      (offset (xyz 0 -16 0))
      (scale (xyz 1 1 1))
      (rotate (xyz 0 0 0))
    )
    (model "${KIPRJMOD}/../3d/flexypin.step"
      (offset (xyz 0 -18 0))
      (scale (xyz 1 1 1))
      (rotate (xyz 0 0 0))
    )
  )

  (footprint "FlexyPin:FlexyPin_1x10_P2.00mm" (layer "F.Cu")
    (tedit 0) (tstamp ed720d92-c161-4f2b-9be2-65a25b158681)
    (at 84 60.7 -90)
    (property "Sheetfile" "picofusion-jig.kicad_sch")
    (property "Sheetname" "")
    (path "/b70d5bc0-80b7-4c97-b784-d458d872750a")
    (attr through_hole)
    (fp_text reference "J1" (at 0 -1.25 90) (layer "F.SilkS") hide
      (effects (font (size 1 1) (thickness 0.15)))
      (tstamp f394a49a-8086-46e8-a937-9363952231e7)
    )
    (fp_text value "Conn_01x10" (at 0 19.3 90) (layer "F.Fab")
      (effects (font (size 1 1) (thickness 0.15)))
      (tstamp 13ffc8c0-8915-410d-a185-27a100d5d512)
    )
    (fp_line (start -1.1 18.6) (end -1.1 -0.6) (layer "F.CrtYd") (width 0.1) (tstamp 70176fab-1daa-4fda-88ca-196cd42e6a8b))
    (fp_line (start -1.1 -0.6) (end 2.7 -0.6) (layer "F.CrtYd") (width 0.1) (tstamp 87b74bf1-c903-4282-8ded-4c7bf28070a3))
    (fp_line (start 2.7 18.6) (end -1.1 18.6) (layer "F.CrtYd") (width 0.1) (tstamp ed4d88e2-369a-44ca-9216-8b6df24785fc))
    (fp_line (start 2.7 -0.6) (end 2.7 18.6) (layer "F.CrtYd") (width 0.1) (tstamp f14309c7-05ea-461a-8701-aca570151286))
    (pad "" thru_hole oval locked (at 1.55 6 270) (size 2 0.95) (drill oval 1.7 0.65) (layers *.Cu *.Mask) (tstamp 483cd5d2-43a2-461a-8ce9-7275cc2e3a69))
    (pad "" thru_hole oval locked (at 1.55 4 270) (size 2 0.95) (drill oval 1.7 0.65) (layers *.Cu *.Mask) (tstamp 60a5b96b-dbf8-422b-906f-0961a2af41dc))
    (pad "" thru_hole oval locked (at 1.55 2 270) (size 2 0.95) (drill oval 1.7 0.65) (layers *.Cu *.Mask) (tstamp 63992b17-72c5-4fcc-ae1a-43c7d862c2c3))
    (pad "" thru_hole oval locked (at 1.55 12 270) (size 2 0.95) (drill oval 1.7 0.65) (layers *.Cu *.Mask) (tstamp 6c11a436-a9a4-4428-8ebf-1f50e3bba733))
    (pad "" thru_hole oval locked (at 1.55 10 270) (size 2 0.95) (drill oval 1.7 0.65) (layers *.Cu *.Mask) (tstamp 7f823fdf-d8e8-4f81-af8d-4f25d80e798d))
    (pad "" thru_hole oval locked (at 1.55 14 270) (size 2 0.95) (drill oval 1.7 0.65) (layers *.Cu *.Mask) (tstamp a9e21f1f-3841-4fff-8c71-79d2eced0e96))
    (pad "" thru_hole oval locked (at 1.55 18 270) (size 2 0.95) (drill oval 1.7 0.65) (layers *.Cu *.Mask) (tstamp bc7b931c-812e-412e-8042-47d7d021d57a))
    (pad "" thru_hole oval locked (at 1.55 0 270) (size 2 0.95) (drill oval 1.7 0.65) (layers *.Cu *.Mask) (tstamp bd160df6-ec11-47bf-bc12-348307ea7c1f))
    (pad "" thru_hole oval locked (at 1.55 8 270) (size 2 0.95) (drill oval 1.7 0.65) (layers *.Cu *.Mask) (tstamp c2649c95-7527-442d-be46-14a84db16fa5))
    (pad "" thru_hole oval locked (at 1.55 16 270) (size 2 0.95) (drill oval 1.7 0.65) (layers *.Cu *.Mask) (tstamp e5b8c007-e87e-4ef5-81aa-4930d7da1027))
    (pad "1" thru_hole rect locked (at 0 0 270) (size 1.3 0.9) (drill 0.6 (offset -0.3 0)) (layers *.Cu *.Mask)
      (net 1 "Net-(J1-Pad1)") (pinfunction "Pin_1") (pintype "passive") (tstamp a5c4fe57-112f-4254-bb5d-5e32e8c5ef92))
    (pad "2" thru_hole rect locked (at 0 2 270) (size 1.3 0.9) (drill 0.6 (offset -0.3 0)) (layers *.Cu *.Mask)
      (net 2 "Net-(J1-Pad2)") (pinfunction "Pin_2") (pintype "passive") (tstamp e265f5f3-7333-4297-9091-3d62c270ee33))
    (pad "3" thru_hole rect locked (at 0 4 270) (size 1.3 0.9) (drill 0.6 (offset -0.3 0)) (layers *.Cu *.Mask)
      (net 3 "Net-(J1-Pad3)") (pinfunction "Pin_3") (pintype "passive") (tstamp 57b10ea3-4bd6-4de0-9404-12f6c5743861))
    (pad "4" thru_hole rect locked (at 0 6 270) (size 1.3 0.9) (drill 0.6 (offset -0.3 0)) (layers *.Cu *.Mask)
      (net 4 "Net-(J1-Pad4)") (pinfunction "Pin_4") (pintype "passive") (tstamp 70b2b4a6-67c9-4bd2-95e0-dde94ead8612))
    (pad "5" thru_hole rect locked (at 0 8 270) (size 1.3 0.9) (drill 0.6 (offset -0.3 0)) (layers *.Cu *.Mask)
      (net 5 "Net-(J1-Pad5)") (pinfunction "Pin_5") (pintype "passive") (tstamp 68ccddbb-2bd1-4012-8d3c-56af93899c3a))
    (pad "6" thru_hole rect locked (at 0 10 270) (size 1.3 0.9) (drill 0.6 (offset -0.3 0)) (layers *.Cu *.Mask)
      (net 6 "Net-(J1-Pad6)") (pinfunction "Pin_6") (pintype "passive") (tstamp c47d901b-ef9d-4d1f-b10c-fbe14cbdbb9a))
    (pad "7" thru_hole rect locked (at 0 12 270) (size 1.3 0.9) (drill 0.6 (offset -0.3 0)) (layers *.Cu *.Mask)
      (net 7 "Net-(J1-Pad7)") (pinfunction "Pin_7") (pintype "passive") (tstamp 62120acc-1afa-4e83-ab58-e1dda3b45feb))
    (pad "8" thru_hole rect locked (at 0 14 270) (size 1.3 0.9) (drill 0.6 (offset -0.3 0)) (layers *.Cu *.Mask)
      (net 8 "Net-(J1-Pad8)") (pinfunction "Pin_8") (pintype "passive") (tstamp f24472d4-96ce-4a59-846d-6befd62fe92d))
    (pad "9" thru_hole rect locked (at 0 16 270) (size 1.3 0.9) (drill 0.6 (offset -0.3 0)) (layers *.Cu *.Mask)
      (net 9 "Net-(J1-Pad9)") (pinfunction "Pin_9") (pintype "passive") (tstamp b506dd94-45c4-46d8-b318-d1687e5ff095))
    (pad "10" thru_hole rect locked (at 0 18 270) (size 1.3 0.9) (drill 0.6 (offset -0.3 0)) (layers *.Cu *.Mask)
      (net 10 "Net-(J1-Pad10)") (pinfunction "Pin_10") (pintype "passive") (tstamp ee2e9334-f542-4d26-8fa6-33263f87aa04))
    (model "${KIPRJMOD}/../3d/flexypin.step"
      (offset (xyz 0 0 0))
      (scale (xyz 1 1 1))
      (rotate (xyz 0 0 0))
    )
    (model "${KIPRJMOD}/../3d/flexypin.step"
      (offset (xyz 0 -2 0))
      (scale (xyz 1 1 1))
      (rotate (xyz 0 0 0))
    )
    (model "${KIPRJMOD}/../3d/flexypin.step"
      (offset (xyz 0 -4 0))
      (scale (xyz 1 1 1))
      (rotate (xyz 0 0 0))
    )
    (model "${KIPRJMOD}/../3d/flexypin.step"
      (offset (xyz 0 -6 0))
      (scale (xyz 1 1 1))
      (rotate (xyz 0 0 0))
    )
    (model "${KIPRJMOD}/../3d/flexypin.step"
      (offset (xyz 0 -8 0))
      (scale (xyz 1 1 1))
      (rotate (xyz 0 0 0))
    )
    (model "${KIPRJMOD}/../3d/flexypin.step"
      (offset (xyz 0 -10 0))
      (scale (xyz 1 1 1))
      (rotate (xyz 0 0 0))
    )
    (model "${KIPRJMOD}/../3d/flexypin.step"
      (offset (xyz 0 -12 0))
      (scale (xyz 1 1 1))
      (rotate (xyz 0 0 0))
    )
    (model "${KIPRJMOD}/../3d/flexypin.step"
      (offset (xyz 0 -14 0))
      (scale (xyz 1 1 1))
      (rotate (xyz 0 0 0))
    )
    (model "${KIPRJMOD}/../3d/flexypin.step"
      (offset (xyz 0 -16 0))
      (scale (xyz 1 1 1))
      (rotate (xyz 0 0 0))
    )
    (model "${KIPRJMOD}/../3d/flexypin.step"
      (offset (xyz 0 -18 0))
      (scale (xyz 1 1 1))
      (rotate (xyz 0 0 0))
    )
  )

  (gr_circle (center 61.9 61.9) (end 62.2 61.9) (layer "F.SilkS") (width 0.3) (fill none) (tstamp ef1b3c82-e52d-4a2d-af9b-4b503b8cfe84))
  (gr_rect (start 50 50) (end 100 100) (layer "Edge.Cuts") (width 0.1) (fill none) (tstamp a809a3d4-1d4c-4022-9c80-605701ef70b0))
  (gr_rect (start 65 65) (end 85 85) (layer "Edge.Cuts") (width 0.1) (fill none) (tstamp d2d19993-226a-42f9-af68-f222f23f3fd0))
  (gr_rect (start 62.25 62.25) (end 87.75 87.75) (layer "F.CrtYd") (width 0.05) (fill none) (tstamp 7f4313b3-f294-41e2-9df3-7e83e50c17e3))
  (gr_text "11" (at 63.7 97.472246) (layer "F.SilkS") (tstamp 1cce5dc7-6063-4be1-8add-5943a8a57d78)
    (effects (font (size 1 1) (thickness 0.15)))
  )
  (gr_text "31" (at 86.4 52.599999) (layer "F.SilkS") (tstamp 3c96a8be-d53f-4801-ae3d-dd7a7f82ef9d)
    (effects (font (size 1 1) (thickness 0.15)))
  )
  (gr_text "21" (at 97.400525 86.5) (layer "F.SilkS") (tstamp b571030a-9493-4025-82cc-5b840256e93d)
    (effects (font (size 1 1) (thickness 0.15)))
  )
  (gr_text "1" (at 52.390522 63.6) (layer "F.SilkS") (tstamp e585b735-d291-4765-a24c-096bf883e65f)
    (effects (font (size 1 1) (thickness 0.15)))
  )

  (segment (start 86.425 55.579289) (end 86.425 58.275) (width 0.25) (layer "F.Cu") (net 1) (tstamp 56e735b6-269b-476f-a24e-8997dec3a7f1))
  (segment (start 86.425 58.275) (end 84 60.7) (width 0.25) (layer "F.Cu") (net 1) (tstamp 8f72e0c7-aaee-4826-a881-80fa09919359))
  (segment (start 83.885 58.815) (end 82 60.7) (width 0.25) (layer "F.Cu") (net 2) (tstamp 0162170b-297d-4de9-bdd8-ce5b352b7848))
  (segment (start 83.885 55.579289) (end 83.885 58.815) (width 0.25) (layer "F.Cu") (net 2) (tstamp f8707d21-70d1-4572-a416-1ccda6489929))
  (segment (start 81.345 55.579289) (end 81.345 59.355) (width 0.25) (layer "F.Cu") (net 3) (tstamp 024aeab1-c33d-4f18-bd5f-74664f9015b9))
  (segment (start 81.345 59.355) (end 80 60.7) (width 0.25) (layer "F.Cu") (net 3) (tstamp 5854462e-d409-4f58-be7f-770108a2aa5a))
  (segment (start 78.805 55.579289) (end 78.805 59.895) (width 0.25) (layer "F.Cu") (net 4) (tstamp 7e645e60-eb4a-4b4a-bc2c-2f43c67599c2))
  (segment (start 78.805 59.895) (end 78 60.7) (width 0.25) (layer "F.Cu") (net 4) (tstamp e4760ac3-dfaf-439c-badd-ca138d0e1be9))
  (segment (start 76.265 55.579289) (end 76.265 60.435) (width 0.25) (layer "F.Cu") (net 5) (tstamp 897d3ab7-b74d-416a-8ece-13bac001a047))
  (segment (start 76.265 60.435) (end 76 60.7) (width 0.25) (layer "F.Cu") (net 5) (tstamp b9c9be46-8383-4d3b-87a5-81b03f0c242c))
  (segment (start 73.725 60.425) (end 74 60.7) (width 0.25) (layer "F.Cu") (net 6) (tstamp 545efda7-c724-47a7-884a-8c480e2561e6))
  (segment (start 73.725 55.579289) (end 73.725 60.425) (width 0.25) (layer "F.Cu") (net 6) (tstamp 70873ad7-2e6d-4b7e-b865-374ccb53e047))
  (segment (start 71.185 55.579289) (end 71.185 59.885) (width 0.25) (layer "F.Cu") (net 7) (tstamp 5f972cd8-2aeb-4479-b33a-aeb852d1fc15))
  (segment (start 71.185 59.885) (end 72 60.7) (width 0.25) (layer "F.Cu") (net 7) (tstamp 8a5458a0-cdba-44a4-a43d-90c47283d3b0))
  (segment (start 68.645 59.345) (end 70 60.7) (width 0.25) (layer "F.Cu") (net 8) (tstamp 201aaa15-f3be-4000-b08b-dbe09316e002))
  (segment (start 68.645 55.579289) (end 68.645 59.345) (width 0.25) (layer "F.Cu") (net 8) (tstamp e888acce-9294-4645-a914-3be89f0695fe))
  (segment (start 66.105 55.579289) (end 66.105 58.805) (width 0.25) (layer "F.Cu") (net 9) (tstamp 7fb45aa2-0ba5-4852-9cf1-b7191e66c14e))
  (segment (start 66.105 58.805) (end 68 60.7) (width 0.25) (layer "F.Cu") (net 9) (tstamp ff70784b-d1a2-4078-b804-229b92f90517))
  (segment (start 63.565 55.579289) (end 63.565 58.265) (width 0.25) (layer "F.Cu") (net 10) (tstamp c6e3e437-3e39-4009-b518-357f6f41f72e))
  (segment (start 63.565 58.265) (end 66 60.7) (width 0.25) (layer "F.Cu") (net 10) (tstamp e49d5e04-385f-44e0-85c1-9fe01b68dc4b))
  (segment (start 55.402011 63.575) (end 58.275 63.575) (width 0.25) (layer "F.Cu") (net 11) (tstamp 0fb1df8d-dd56-41cb-9064-be90205d79db))
  (segment (start 58.275 63.575) (end 60.7 66) (width 0.25) (layer "F.Cu") (net 11) (tstamp a760f9bd-c91f-4af4-a0dc-4d8e8267989f))
  (segment (start 58.815 66.115) (end 60.7 68) (width 0.25) (layer "F.Cu") (net 12) (tstamp 75c8d7d4-b77e-4751-b81d-29dd989fce6a))
  (segment (start 55.402011 66.115) (end 58.815 66.115) (width 0.25) (layer "F.Cu") (net 12) (tstamp d1ce0f8f-97fe-4af2-817e-f9154d94385d))
  (segment (start 59.355 68.655) (end 60.7 70) (width 0.25) (layer "F.Cu") (net 13) (tstamp 19b14fbb-c398-432a-9b11-86e362fd00b8))
  (segment (start 55.402011 68.655) (end 59.355 68.655) (width 0.25) (layer "F.Cu") (net 13) (tstamp f65c7d39-45c9-4225-8945-b99f26643a28))
  (segment (start 55.402011 71.195) (end 59.895 71.195) (width 0.25) (layer "F.Cu") (net 14) (tstamp 22999f72-d7bc-430d-a344-e484231d9c5a))
  (segment (start 59.895 71.195) (end 60.7 72) (width 0.25) (layer "F.Cu") (net 14) (tstamp 6ebdfb36-facd-424d-bd9d-0987e49500af))
  (segment (start 60.7 74) (end 60.435 73.735) (width 0.25) (layer "F.Cu") (net 15) (tstamp 62cc51b0-eeef-4e6b-8a28-b099feae8401))
  (segment (start 60.435 73.735) (end 55.402011 73.735) (width 0.25) (layer "F.Cu") (net 15) (tstamp 728c12e5-a54d-4fbf-8368-89c18fbff172))
  (segment (start 60.425 76.275) (end 60.7 76) (width 0.25) (layer "F.Cu") (net 16) (tstamp 3011bfba-627c-47bf-b439-fef0e5ced23b))
  (segment (start 55.402011 76.275) (end 60.425 76.275) (width 0.25) (layer "F.Cu") (net 16) (tstamp 5ca2c199-417c-4e75-b86d-4245d7206e49))
  (segment (start 55.402011 78.815) (end 59.885 78.815) (width 0.25) (layer "F.Cu") (net 17) (tstamp 1ab6fdc6-d749-4b6e-a4d9-1d609d3ed0ce))
  (segment (start 59.885 78.815) (end 60.7 78) (width 0.25) (layer "F.Cu") (net 17) (tstamp f8e6c91a-0ed1-4b4d-ac73-7fdedc1b0821))
  (segment (start 59.345 81.355) (end 60.7 80) (width 0.25) (layer "F.Cu") (net 18) (tstamp 087be490-b561-478b-902d-492a99300592))
  (segment (start 55.402011 81.355) (end 59.345 81.355) (width 0.25) (layer "F.Cu") (net 18) (tstamp 2b53ab7c-6e9d-4660-9ae4-75bea6440ebc))
  (segment (start 55.402011 83.895) (end 58.805 83.895) (width 0.25) (layer "F.Cu") (net 19) (tstamp 1ba16851-38f4-445f-9c5b-94d7e6b6023d))
  (segment (start 58.805 83.895) (end 60.7 82) (width 0.25) (layer "F.Cu") (net 19) (tstamp 671a2b56-e966-426e-8457-0215032e1820))
  (segment (start 55.402011 86.435) (end 58.265 86.435) (width 0.25) (layer "F.Cu") (net 20) (tstamp 6e922f2b-c309-489a-9a93-dfa124984ae9))
  (segment (start 58.265 86.435) (end 60.7 84) (width 0.25) (layer "F.Cu") (net 20) (tstamp d645b488-893d-46c1-9c19-d07095dd4b70))
  (segment (start 94.367741 86.525) (end 91.825 86.525) (width 0.25) (layer "F.Cu") (net 21) (tstamp 8eaaf95b-6e02-45d1-b804-19197ac188cd))
  (segment (start 91.825 86.525) (end 89.3 84) (width 0.25) (layer "F.Cu") (net 21) (tstamp c0e75518-d950-4927-9fde-ed308b737f8d))
  (segment (start 94.367741 83.985) (end 91.285 83.985) (width 0.25) (layer "F.Cu") (net 22) (tstamp 1d19d98f-ce40-4626-aff5-be2e83f75b29))
  (segment (start 91.285 83.985) (end 89.3 82) (width 0.25) (layer "F.Cu") (net 22) (tstamp 27433d19-7e0f-465f-9a7e-1454e7062d7c))
  (segment (start 94.367741 81.445) (end 90.745 81.445) (width 0.25) (layer "F.Cu") (net 23) (tstamp 5c653c39-3d24-43ff-89aa-72825aebc70f))
  (segment (start 90.745 81.445) (end 89.3 80) (width 0.25) (layer "F.Cu") (net 23) (tstamp 6328f004-89b6-4975-a56e-f625b1a6bbf0))
  (segment (start 90.205 78.905) (end 89.3 78) (width 0.25) (layer "F.Cu") (net 24) (tstamp 06c8e29a-7d5e-49a7-90b4-33593e8149c9))
  (segment (start 94.367741 78.905) (end 90.205 78.905) (width 0.25) (layer "F.Cu") (net 24) (tstamp fb9cc125-047a-4fc7-9642-c261e827b254))
  (segment (start 89.665 76.365) (end 89.3 76) (width 0.25) (layer "F.Cu") (net 25) (tstamp 497f2388-cb9a-403f-ace4-eedbbdb02ba8))
  (segment (start 94.367741 76.365) (end 89.665 76.365) (width 0.25) (layer "F.Cu") (net 25) (tstamp 734433f9-5d8c-4a70-8bae-16b83ac75008))
  (segment (start 89.475 73.825) (end 89.3 74) (width 0.25) (layer "F.Cu") (net 26) (tstamp 341134d0-d142-4c4a-8efc-8e36953d604e))
  (segment (start 94.367741 73.825) (end 89.475 73.825) (width 0.25) (layer "F.Cu") (net 26) (tstamp 4afd07a1-bbef-4974-acd7-0c4d7980e551))
  (segment (start 90.015 71.285) (end 89.3 72) (width 0.25) (layer "F.Cu") (net 27) (tstamp 6933c42b-39e2-4745-9849-e3256bca6763))
  (segment (start 94.367741 71.285) (end 90.015 71.285) (width 0.25) (layer "F.Cu") (net 27) (tstamp bd870b7c-8714-441a-a14d-8d3359f4ab69))
  (segment (start 90.555 68.745) (end 89.3 70) (width 0.25) (layer "F.Cu") (net 28) (tstamp 5d85c04c-770a-46cb-85d5-39135054cafa))
  (segment (start 94.367741 68.745) (end 90.555 68.745) (width 0.25) (layer "F.Cu") (net 28) (tstamp f4e9f62f-3f24-483b-87d9-4bd07ec9c362))
  (segment (start 94.367741 66.205) (end 91.095 66.205) (width 0.25) (layer "F.Cu") (net 29) (tstamp 0c53119c-0879-4af5-a4b4-6618406c3cc1))
  (segment (start 91.095 66.205) (end 89.3 68) (width 0.25) (layer "F.Cu") (net 29) (tstamp 4c44a2bb-bd48-4602-9f21-e0817b80d9d4))
  (segment (start 94.367741 63.665) (end 91.635 63.665) (width 0.25) (layer "F.Cu") (net 30) (tstamp 247814f3-ef8d-4c63-b472-398c15b7027a))
  (segment (start 91.635 63.665) (end 89.3 66) (width 0.25) (layer "F.Cu") (net 30) (tstamp ba78401d-11c5-42bb-b8c4-ac12a8c9ead3))
  (segment (start 63.675 91.625) (end 66 89.3) (width 0.25) (layer "F.Cu") (net 31) (tstamp 1387590f-884d-4dad-b841-3eea188cbec3))
  (segment (start 63.675 94.454187) (end 63.675 91.625) (width 0.25) (layer "F.Cu") (net 31) (tstamp 88a079e0-682f-49e5-85d6-5c78642e28f3))
  (segment (start 66.215 91.085) (end 68 89.3) (width 0.25) (layer "F.Cu") (net 32) (tstamp 1f38bcd5-713b-45c6-8893-15d9f1b6104b))
  (segment (start 66.215 94.454187) (end 66.215 91.085) (width 0.25) (layer "F.Cu") (net 32) (tstamp 22de3f9b-45d3-4e4f-aadf-6385ade098f2))
  (segment (start 68.755 90.545) (end 70 89.3) (width 0.25) (layer "F.Cu") (net 33) (tstamp 5444454f-4c41-4bbc-81c0-c99aecc83276))
  (segment (start 68.755 94.454187) (end 68.755 90.545) (width 0.25) (layer "F.Cu") (net 33) (tstamp b2d85813-c608-4c62-99a2-5daa23b51080))
  (segment (start 71.295 90.005) (end 72 89.3) (width 0.25) (layer "F.Cu") (net 34) (tstamp 0fa13801-00d6-4ca1-9c6d-30a8af3f9f99))
  (segment (start 71.295 94.454187) (end 71.295 90.005) (width 0.25) (layer "F.Cu") (net 34) (tstamp 1904ee4f-a939-4388-8e26-8008d9a4f86a))
  (segment (start 73.835 89.465) (end 74 89.3) (width 0.25) (layer "F.Cu") (net 35) (tstamp 32dd787e-ce47-4f15-9d43-8cfa89bcd62d))
  (segment (start 73.835 94.454187) (end 73.835 89.465) (width 0.25) (layer "F.Cu") (net 35) (tstamp e1295a54-f2fb-459b-88cf-1709439027ba))
  (segment (start 76.375 89.675) (end 76 89.3) (width 0.25) (layer "F.Cu") (net 36) (tstamp 294a3508-fb87-453c-a945-6b260e810e0e))
  (segment (start 76.375 94.454187) (end 76.375 89.675) (width 0.25) (layer "F.Cu") (net 36) (tstamp fcea9f1a-e5dd-4e84-92e3-17077865c98f))
  (segment (start 78.915 90.215) (end 78 89.3) (width 0.25) (layer "F.Cu") (net 37) (tstamp c11c2dc4-4d90-47f5-9074-838df872b367))
  (segment (start 78.915 94.454187) (end 78.915 90.215) (width 0.25) (layer "F.Cu") (net 37) (tstamp e64c3db4-4476-4ecc-99cc-8a476e1c5194))
  (segment (start 81.455 90.755) (end 80 89.3) (width 0.25) (layer "F.Cu") (net 38) (tstamp 8a28a205-d287-4766-97ca-cc69b3525bcb))
  (segment (start 81.455 94.454187) (end 81.455 90.755) (width 0.25) (layer "F.Cu") (net 38) (tstamp e9ccc55e-b0e2-4364-8650-891df9c59165))
  (segment (start 83.995 91.295) (end 82 89.3) (width 0.25) (layer "F.Cu") (net 39) (tstamp 4005700f-041a-4508-aa51-bcd0af4182fd))
  (segment (start 83.995 94.454187) (end 83.995 91.295) (width 0.25) (layer "F.Cu") (net 39) (tstamp d00b8e24-7fac-44e6-96e8-046e3c1aafa9))
  (segment (start 86.535 91.835) (end 84 89.3) (width 0.25) (layer "F.Cu") (net 40) (tstamp 0da713b6-cd15-4d3d-b608-8f7c728a1199))
  (segment (start 86.535 94.454187) (end 86.535 91.835) (width 0.25) (layer "F.Cu") (net 40) (tstamp 6da95399-7bab-4746-bb1c-8f51e93c7fdb))

)
