(kicad_sch (version 20211123) (generator eeschema)

  (uuid 9456da82-6730-4907-bc88-7681adbc182a)

  (paper "A4")

  (lib_symbols
    (symbol "Connector_Generic:Conn_01x10" (pin_names (offset 1.016) hide) (in_bom yes) (on_board yes)
      (property "Reference" "J" (id 0) (at 0 12.7 0)
        (effects (font (size 1.27 1.27)))
      )
      (property "Value" "Conn_01x10" (id 1) (at 0 -15.24 0)
        (effects (font (size 1.27 1.27)))
      )
      (property "Footprint" "" (id 2) (at 0 0 0)
        (effects (font (size 1.27 1.27)) hide)
      )
      (property "Datasheet" "~" (id 3) (at 0 0 0)
        (effects (font (size 1.27 1.27)) hide)
      )
      (property "ki_keywords" "connector" (id 4) (at 0 0 0)
        (effects (font (size 1.27 1.27)) hide)
      )
      (property "ki_description" "Generic connector, single row, 01x10, script generated (kicad-library-utils/schlib/autogen/connector/)" (id 5) (at 0 0 0)
        (effects (font (size 1.27 1.27)) hide)
      )
      (property "ki_fp_filters" "Connector*:*_1x??_*" (id 6) (at 0 0 0)
        (effects (font (size 1.27 1.27)) hide)
      )
      (symbol "Conn_01x10_1_1"
        (rectangle (start -1.27 -12.573) (end 0 -12.827)
          (stroke (width 0.1524) (type default) (color 0 0 0 0))
          (fill (type none))
        )
        (rectangle (start -1.27 -10.033) (end 0 -10.287)
          (stroke (width 0.1524) (type default) (color 0 0 0 0))
          (fill (type none))
        )
        (rectangle (start -1.27 -7.493) (end 0 -7.747)
          (stroke (width 0.1524) (type default) (color 0 0 0 0))
          (fill (type none))
        )
        (rectangle (start -1.27 -4.953) (end 0 -5.207)
          (stroke (width 0.1524) (type default) (color 0 0 0 0))
          (fill (type none))
        )
        (rectangle (start -1.27 -2.413) (end 0 -2.667)
          (stroke (width 0.1524) (type default) (color 0 0 0 0))
          (fill (type none))
        )
        (rectangle (start -1.27 0.127) (end 0 -0.127)
          (stroke (width 0.1524) (type default) (color 0 0 0 0))
          (fill (type none))
        )
        (rectangle (start -1.27 2.667) (end 0 2.413)
          (stroke (width 0.1524) (type default) (color 0 0 0 0))
          (fill (type none))
        )
        (rectangle (start -1.27 5.207) (end 0 4.953)
          (stroke (width 0.1524) (type default) (color 0 0 0 0))
          (fill (type none))
        )
        (rectangle (start -1.27 7.747) (end 0 7.493)
          (stroke (width 0.1524) (type default) (color 0 0 0 0))
          (fill (type none))
        )
        (rectangle (start -1.27 10.287) (end 0 10.033)
          (stroke (width 0.1524) (type default) (color 0 0 0 0))
          (fill (type none))
        )
        (rectangle (start -1.27 11.43) (end 1.27 -13.97)
          (stroke (width 0.254) (type default) (color 0 0 0 0))
          (fill (type background))
        )
        (pin passive line (at -5.08 10.16 0) (length 3.81)
          (name "Pin_1" (effects (font (size 1.27 1.27))))
          (number "1" (effects (font (size 1.27 1.27))))
        )
        (pin passive line (at -5.08 -12.7 0) (length 3.81)
          (name "Pin_10" (effects (font (size 1.27 1.27))))
          (number "10" (effects (font (size 1.27 1.27))))
        )
        (pin passive line (at -5.08 7.62 0) (length 3.81)
          (name "Pin_2" (effects (font (size 1.27 1.27))))
          (number "2" (effects (font (size 1.27 1.27))))
        )
        (pin passive line (at -5.08 5.08 0) (length 3.81)
          (name "Pin_3" (effects (font (size 1.27 1.27))))
          (number "3" (effects (font (size 1.27 1.27))))
        )
        (pin passive line (at -5.08 2.54 0) (length 3.81)
          (name "Pin_4" (effects (font (size 1.27 1.27))))
          (number "4" (effects (font (size 1.27 1.27))))
        )
        (pin passive line (at -5.08 0 0) (length 3.81)
          (name "Pin_5" (effects (font (size 1.27 1.27))))
          (number "5" (effects (font (size 1.27 1.27))))
        )
        (pin passive line (at -5.08 -2.54 0) (length 3.81)
          (name "Pin_6" (effects (font (size 1.27 1.27))))
          (number "6" (effects (font (size 1.27 1.27))))
        )
        (pin passive line (at -5.08 -5.08 0) (length 3.81)
          (name "Pin_7" (effects (font (size 1.27 1.27))))
          (number "7" (effects (font (size 1.27 1.27))))
        )
        (pin passive line (at -5.08 -7.62 0) (length 3.81)
          (name "Pin_8" (effects (font (size 1.27 1.27))))
          (number "8" (effects (font (size 1.27 1.27))))
        )
        (pin passive line (at -5.08 -10.16 0) (length 3.81)
          (name "Pin_9" (effects (font (size 1.27 1.27))))
          (number "9" (effects (font (size 1.27 1.27))))
        )
      )
    )
  )


  (symbol (lib_id "Connector_Generic:Conn_01x10") (at 151.13 118.11 90) (unit 1)
    (in_bom yes) (on_board yes) (fields_autoplaced)
    (uuid 04b38ed0-d793-4992-a94d-52ed8adf55e7)
    (property "Reference" "J4" (id 0) (at 152.4 113.1402 90))
    (property "Value" "Conn_01x10" (id 1) (at 152.4 115.6771 90))
    (property "Footprint" "FlexyPin:FlexyPin_1x10_P2.00mm" (id 2) (at 151.13 118.11 0)
      (effects (font (size 1.27 1.27)) hide)
    )
    (property "Datasheet" "~" (id 3) (at 151.13 118.11 0)
      (effects (font (size 1.27 1.27)) hide)
    )
    (pin "1" (uuid 8039632a-9b0f-45b1-8750-688b386bf681))
    (pin "10" (uuid 52bc17ab-4228-47f6-b082-cce79927fb06))
    (pin "2" (uuid 82d0aeed-2d73-45ea-97a6-dc7940d99706))
    (pin "3" (uuid 7fed8b5a-a183-4ab5-89e1-851e46788c8d))
    (pin "4" (uuid ca5c95d8-4b7a-4f52-955e-7d3f259e8293))
    (pin "5" (uuid 1389c1ba-81c5-44d3-abb6-ea9594fe3215))
    (pin "6" (uuid 59f25dc1-493c-40a6-a56c-5ced82ff762a))
    (pin "7" (uuid 4f0c426f-f022-4e2a-aef3-8856b993ee50))
    (pin "8" (uuid 832823e5-e025-4273-8afb-eac4e4e07bfb))
    (pin "9" (uuid d97087d5-bc79-432a-aa88-960e7aa44cc3))
  )

  (symbol (lib_id "Connector_Generic:Conn_01x10") (at 171.45 100.33 180) (unit 1)
    (in_bom yes) (on_board yes) (fields_autoplaced)
    (uuid 3f7515b7-8987-46fa-be90-242c13b7e7ac)
    (property "Reference" "J3" (id 0) (at 171.45 82.6602 0))
    (property "Value" "Conn_01x10" (id 1) (at 171.45 85.1971 0))
    (property "Footprint" "FlexyPin:FlexyPin_1x10_P2.00mm" (id 2) (at 171.45 100.33 0)
      (effects (font (size 1.27 1.27)) hide)
    )
    (property "Datasheet" "~" (id 3) (at 171.45 100.33 0)
      (effects (font (size 1.27 1.27)) hide)
    )
    (pin "1" (uuid a8b592ab-db08-49b2-9154-77f713edbdc2))
    (pin "10" (uuid b4999e01-34e9-494c-aa81-971ae0b3d19f))
    (pin "2" (uuid 6c9d84c8-e4ca-4739-b6f7-8e575df7d0a4))
    (pin "3" (uuid 0e121b49-e8ac-41d2-b9e4-12bae3789b23))
    (pin "4" (uuid 02d41bc3-75e7-49b1-9712-86b57454ad43))
    (pin "5" (uuid 6ca5b318-4663-4b73-9a99-0182c5ca32cd))
    (pin "6" (uuid a34ab6f2-0093-49f4-a135-a9e549eed229))
    (pin "7" (uuid d7a48c22-0963-428e-9e54-caf2293aa136))
    (pin "8" (uuid 3f9fe55b-42d8-4899-a4e5-0847a580e97b))
    (pin "9" (uuid 9ad1f223-6547-48fe-87aa-510b74cf21e0))
  )

  (symbol (lib_id "Connector_Generic:Conn_01x10") (at 151.13 128.27 90) (mirror x) (unit 1)
    (in_bom yes) (on_board yes) (fields_autoplaced)
    (uuid 4aeacd53-6d32-43d4-ab36-7cc2e048af2b)
    (property "Reference" "J8" (id 0) (at 152.4 131.5704 90))
    (property "Value" "Conn_01x10" (id 1) (at 152.4 134.1073 90))
    (property "Footprint" "Connector_PinHeader_2.54mm:PinHeader_1x10_P2.54mm_Vertical" (id 2) (at 151.13 128.27 0)
      (effects (font (size 1.27 1.27)) hide)
    )
    (property "Datasheet" "~" (id 3) (at 151.13 128.27 0)
      (effects (font (size 1.27 1.27)) hide)
    )
    (pin "1" (uuid a0487fe3-dafd-478c-b3b5-0b31e0d4b839))
    (pin "10" (uuid c22cd951-ac96-4e84-8744-09872e75cd5c))
    (pin "2" (uuid 287099e4-2344-4669-a7b8-6ca8fb0c3be5))
    (pin "3" (uuid 3e956e05-7553-4e17-8f60-e0d76ae8a5d0))
    (pin "4" (uuid 82510617-9477-4559-8d41-2b3ad8d59a78))
    (pin "5" (uuid ad8970d1-1ead-43b2-95fd-710325f4adba))
    (pin "6" (uuid ea03dfbb-f489-4dee-9de3-769ee13d9029))
    (pin "7" (uuid a72b589f-374f-44ea-9bbf-db00ca384717))
    (pin "8" (uuid 2bcd0423-811e-4593-990d-97f787976b58))
    (pin "9" (uuid 7f60288b-13e1-4c6f-8fee-9480cf0b3bee))
  )

  (symbol (lib_id "Connector_Generic:Conn_01x10") (at 133.35 97.79 0) (unit 1)
    (in_bom yes) (on_board yes) (fields_autoplaced)
    (uuid 5086a162-f81f-4326-89a7-1904fb8ea196)
    (property "Reference" "J2" (id 0) (at 135.382 98.2253 0)
      (effects (font (size 1.27 1.27)) (justify left))
    )
    (property "Value" "Conn_01x10" (id 1) (at 135.382 100.7622 0)
      (effects (font (size 1.27 1.27)) (justify left))
    )
    (property "Footprint" "FlexyPin:FlexyPin_1x10_P2.00mm" (id 2) (at 133.35 97.79 0)
      (effects (font (size 1.27 1.27)) hide)
    )
    (property "Datasheet" "~" (id 3) (at 133.35 97.79 0)
      (effects (font (size 1.27 1.27)) hide)
    )
    (pin "1" (uuid da677d75-2920-4d60-918e-fb52aa572acb))
    (pin "10" (uuid d63388c2-7245-43cc-9c0d-216ceff4739b))
    (pin "2" (uuid 96986a1c-28d7-4fa1-b3bd-a652a1f86912))
    (pin "3" (uuid cc779cb3-6abb-46af-9521-f6793a2a524d))
    (pin "4" (uuid 036788ac-d890-40af-848d-d9f7d9c6bff7))
    (pin "5" (uuid 87de1f96-1e0c-436f-bae6-a0ddf334609f))
    (pin "6" (uuid a606ad5f-d8cb-46d7-b53b-61f29a276a32))
    (pin "7" (uuid 68fcba4b-07c9-47b6-959b-b1b858b9d628))
    (pin "8" (uuid 739df0ed-09c8-432f-8021-500d6dea2f70))
    (pin "9" (uuid 15ef0134-12e9-4d50-b535-06988c6cc872))
  )

  (symbol (lib_id "Connector_Generic:Conn_01x10") (at 153.67 69.85 270) (mirror x) (unit 1)
    (in_bom yes) (on_board yes) (fields_autoplaced)
    (uuid 5c3bd3a1-501a-450f-a326-a84f2ce07549)
    (property "Reference" "J5" (id 0) (at 152.4 64.8802 90))
    (property "Value" "Conn_01x10" (id 1) (at 152.4 67.4171 90))
    (property "Footprint" "Connector_PinHeader_2.54mm:PinHeader_1x10_P2.54mm_Vertical" (id 2) (at 153.67 69.85 0)
      (effects (font (size 1.27 1.27)) hide)
    )
    (property "Datasheet" "~" (id 3) (at 153.67 69.85 0)
      (effects (font (size 1.27 1.27)) hide)
    )
    (pin "1" (uuid 3d040b89-51d7-4802-b9d9-cfe060be22c4))
    (pin "10" (uuid 66cbf1bf-b16b-4887-a7ac-b64a343346c3))
    (pin "2" (uuid 826a2de5-8721-496a-8e41-e5bc3bc77495))
    (pin "3" (uuid 5e34c537-e638-4b38-a448-c3653a69c2ff))
    (pin "4" (uuid e49337da-080a-441b-bedd-c651441091cc))
    (pin "5" (uuid 85b47709-bc79-4d36-8c27-998e81660567))
    (pin "6" (uuid ef775ac3-e3e6-4dee-912e-d7d429c591a2))
    (pin "7" (uuid 2040871b-7f22-4137-adab-41bb7adf56b0))
    (pin "8" (uuid 886f5aad-d00f-4cf0-ac8c-211f03fc59f1))
    (pin "9" (uuid 781bc7b2-a488-4f44-8569-3a561e8df0a8))
  )

  (symbol (lib_id "Connector_Generic:Conn_01x10") (at 153.67 80.01 270) (unit 1)
    (in_bom yes) (on_board yes) (fields_autoplaced)
    (uuid b70d5bc0-80b7-4c97-b784-d458d872750a)
    (property "Reference" "J1" (id 0) (at 152.4 83.3104 90))
    (property "Value" "Conn_01x10" (id 1) (at 152.4 85.8473 90))
    (property "Footprint" "FlexyPin:FlexyPin_1x10_P2.00mm" (id 2) (at 153.67 80.01 0)
      (effects (font (size 1.27 1.27)) hide)
    )
    (property "Datasheet" "~" (id 3) (at 153.67 80.01 0)
      (effects (font (size 1.27 1.27)) hide)
    )
    (pin "1" (uuid 0bbfa0ba-d156-44fe-b39c-713255e51b90))
    (pin "10" (uuid d4c00321-14e0-461f-a62a-cca586c84519))
    (pin "2" (uuid fdf4b3bb-8f01-4ea8-b249-16d20a377a9f))
    (pin "3" (uuid ea5f08f5-6251-4bf8-a07e-86c98841f429))
    (pin "4" (uuid 94b90bf8-bc03-48aa-9640-4aa34e93830a))
    (pin "5" (uuid 539de4a3-8c08-4b71-b42f-c9d328db2b19))
    (pin "6" (uuid 2cfd3bc1-e994-49a6-b8ac-cfa7ba3f16a7))
    (pin "7" (uuid 20a664ed-279f-4930-845b-0136bc7f1bb1))
    (pin "8" (uuid 26224ef8-ac01-4af6-8856-a41b9cc312e5))
    (pin "9" (uuid 0a30a8b2-ccf7-4f5c-9478-22284ccd32d5))
  )

  (symbol (lib_id "Connector_Generic:Conn_01x10") (at 123.19 97.79 0) (mirror y) (unit 1)
    (in_bom yes) (on_board yes) (fields_autoplaced)
    (uuid bcfb39c6-1fdf-42ab-87c2-0b0638d4d6ac)
    (property "Reference" "J6" (id 0) (at 123.19 82.6602 0))
    (property "Value" "Conn_01x10" (id 1) (at 123.19 85.1971 0))
    (property "Footprint" "Connector_PinHeader_2.54mm:PinHeader_1x10_P2.54mm_Vertical" (id 2) (at 123.19 97.79 0)
      (effects (font (size 1.27 1.27)) hide)
    )
    (property "Datasheet" "~" (id 3) (at 123.19 97.79 0)
      (effects (font (size 1.27 1.27)) hide)
    )
    (pin "1" (uuid 1a454e4d-b968-46d6-81c2-a72513ea71fa))
    (pin "10" (uuid e6f57442-a50b-4fce-af06-04abc2582abf))
    (pin "2" (uuid e4d6e1a1-5fd0-4f17-82d2-84b02f2a96fa))
    (pin "3" (uuid 1fd431c0-0072-4415-8951-b0b8c1504068))
    (pin "4" (uuid cf9bbfd6-4410-4f46-af08-0aacdc51076d))
    (pin "5" (uuid 60d40377-cb21-43ba-a02e-465ad36024f7))
    (pin "6" (uuid 8bc940df-b9eb-4ea1-a203-00dcfd4da6ad))
    (pin "7" (uuid 780fab5e-5786-4ecb-bf97-3f3b086bb3e0))
    (pin "8" (uuid 44e70561-5f8b-4d07-8c72-84ccb51d9182))
    (pin "9" (uuid 70f957b5-0c7d-4542-9bfe-39ec56717087))
  )

  (symbol (lib_id "Connector_Generic:Conn_01x10") (at 181.61 100.33 0) (mirror x) (unit 1)
    (in_bom yes) (on_board yes) (fields_autoplaced)
    (uuid f5b9f04e-4e8e-48aa-bfc6-218d6573c425)
    (property "Reference" "J7" (id 0) (at 181.61 82.6602 0))
    (property "Value" "Conn_01x10" (id 1) (at 181.61 85.1971 0))
    (property "Footprint" "Connector_PinHeader_2.54mm:PinHeader_1x10_P2.54mm_Vertical" (id 2) (at 181.61 100.33 0)
      (effects (font (size 1.27 1.27)) hide)
    )
    (property "Datasheet" "~" (id 3) (at 181.61 100.33 0)
      (effects (font (size 1.27 1.27)) hide)
    )
    (pin "1" (uuid a86112c3-0fba-4ff3-9b06-011efac008f7))
    (pin "10" (uuid 155cd801-0d46-4e22-bf35-b1d189d62478))
    (pin "2" (uuid fbfe7445-2e84-4b30-8912-7a3e4cb5c449))
    (pin "3" (uuid 70a44df5-fb35-4b01-b567-930f49d5fa14))
    (pin "4" (uuid 0f8dec95-2cc9-4b29-8cff-bcfa55879e03))
    (pin "5" (uuid 98a65bb7-0158-4389-a04a-56bb1bfa27f1))
    (pin "6" (uuid ecc9d3bc-c9fd-4098-918e-c0b6953d4696))
    (pin "7" (uuid bbb36494-5649-44a4-adb4-189d6b3793be))
    (pin "8" (uuid 236f33f2-186f-484c-87b9-6cc9fc861840))
    (pin "9" (uuid 02c88bd1-614c-4abe-8064-97c7459a85c3))
  )

  (sheet_instances
    (path "/" (page "1"))
  )

  (symbol_instances
    (path "/b70d5bc0-80b7-4c97-b784-d458d872750a"
      (reference "J1") (unit 1) (value "Conn_01x10") (footprint "FlexyPin:FlexyPin_1x10_P2.00mm")
    )
    (path "/5086a162-f81f-4326-89a7-1904fb8ea196"
      (reference "J2") (unit 1) (value "Conn_01x10") (footprint "FlexyPin:FlexyPin_1x10_P2.00mm")
    )
    (path "/3f7515b7-8987-46fa-be90-242c13b7e7ac"
      (reference "J3") (unit 1) (value "Conn_01x10") (footprint "FlexyPin:FlexyPin_1x10_P2.00mm")
    )
    (path "/04b38ed0-d793-4992-a94d-52ed8adf55e7"
      (reference "J4") (unit 1) (value "Conn_01x10") (footprint "FlexyPin:FlexyPin_1x10_P2.00mm")
    )
    (path "/5c3bd3a1-501a-450f-a326-a84f2ce07549"
      (reference "J5") (unit 1) (value "Conn_01x10") (footprint "Connector_PinHeader_2.54mm:PinHeader_1x10_P2.54mm_Vertical")
    )
    (path "/bcfb39c6-1fdf-42ab-87c2-0b0638d4d6ac"
      (reference "J6") (unit 1) (value "Conn_01x10") (footprint "Connector_PinHeader_2.54mm:PinHeader_1x10_P2.54mm_Vertical")
    )
    (path "/f5b9f04e-4e8e-48aa-bfc6-218d6573c425"
      (reference "J7") (unit 1) (value "Conn_01x10") (footprint "Connector_PinHeader_2.54mm:PinHeader_1x10_P2.54mm_Vertical")
    )
    (path "/4aeacd53-6d32-43d4-ab36-7cc2e048af2b"
      (reference "J8") (unit 1) (value "Conn_01x10") (footprint "Connector_PinHeader_2.54mm:PinHeader_1x10_P2.54mm_Vertical")
    )
  )
)
